Species	Scaffolds	N50	Total	Exon	Genic	Intron gaps	Intergenic gaps	Exon Count	Avg exon length	Intron Count	Avg intron length	Version	Ref
Monosiga brevicollis	218	1.073	41.6	17.2	27.6	0.8	2.1	69172	239	59976	170	Mbr-JGI	King2008
Monosiga brevicollis	218	1.073	41.6	19.3	28.7	0.1	2.8	69832	246	60636	171	Mbr-AUG	Francis2017
Pleurobrachia bachei	21979	0.021	156.1	21.0	60.2	6.8	12.4	96688	218	77681	518	Pbac-tx-v1	Moroz2014
Pleurobrachia bachei	21979	0.021	156.1	23.3	67.3	6.7	12.5	154506	237	128613	1199	Pbac-Hcal-v1	NA
Trichoplax adhaerens	1415	5.978	105.6	15.8	40	0.4	10.4	96963	161	85443	283	Tad-JGI	Srivastava2008
Trichoplax adhaerens	1415	5.978	105.6	20.3	47.2	0.4	10.4	201136	157	182628	243	Tad-AUG	Eitel2018
Amphimedon queenslandica	13397	0.12	166.6	51.8	72.1	3.3	18.4	0	0	0	0	Aqu-JGI	Srivastava2010
Amphimedon queenslandica	13397	0.12	166.6	47.8	95.8	6.1	15.7	218909	224	173594	329	Aqu-RNA	Fernandezvalverde2015
Nematostella vectensis	10804	0.472	356.6	29.7	122.5	7.7	51.4	143450	207	116172	799	Nve-JGI	Putnam2007
Nematostella vectensis	10804	0.472	356.6	42.1	156.3	7.1	52	183305	229	157576	807	Nve-RNA	Moran2014
Nematostella vectensis	10804	0.472	356.6	42.1	156.3	7.1	52	183305	229	157576	807	Nve-RNA	Moran2014
Nematostella vectensis	30	16.736	252.2	37.9	141.5	0.0	0.1	147218	262	131863	794	Nvec200	Zimmermann2021
Rhopilema esculentum	760	1.127	275.4	27.1	144.6	0.0	0.0	136397	198	119178	986	Res-v1	Li2020
Rhopilema esculentum	1681	12.930	256.6	24.5	139.8	0.0	0.1	135418	196	118302	1049	Res-chr-v1	Li2020
Hydra magnipapillata	20916	0.096	852.1	32.3	216	10.5	56.1	0	0	0	0	Hma-JGI	Chapman2010
Hydra magnipapillata	20916	0.096	852.1	50.6	339.4	13.9	52.6	162067	302	109070	2731	Hma-JGI-RNA	Francis2017
Hydra magnipapillata	20916	0.096	852.1	19.6	184.6	8.0	58.6	95535	150	77227	2543	Hma-NCBI	NA
Hydra magnipapillata	5525	1.002	853.8	47.7	419.8	23.1	45.2	236761	281	122341	3827	Hma-DT-RNA	Francis2017
Hydra magnipapillata	5525	1.002	853.8	47.7	419.8	23.1	45.2	236761	281	122341	3827	Hma-DT-RNA	Francis2017
Hydra magnipapillata	56	55.045	819.4	46.1	421.3	0.6	1.6	326483	237	283698	2820	Hydra_105_v3	Simakov2022
Hydractinia symbiolongicarpus	4840	2.236	406.7	36.5	165.1	0.0	0.0	164563	221	142541	912	Hsym_primary_v1.0	2022
Hydractinia symbiolongicarpus	84	33.315	482.9	39.0	149.7	0.0	0.2	157130	254	10698	640	HSymV2.0	KonNanjo2023
Lingula anatina	3830	0.294	425.4	48.6	227.5	5.8	11.6	259361	187	226802	788	Lan-2013	NA
Lingula anatina	2677	0.46	406.2	46.3	231	6.5	10.7	249484	185	219577	841	Lan-2018	NA
Crassostrea gigas	7658	0.402	557.7	35.1	210.7	8.0	57.8	187435	187	160877	1092	Cgig-v1	Zhang2012
Crassostrea gigas	236	58.463	647.8	88.3	382.3	0.0	0.0	786212	260	712555	1373	cgigas_uk_roslin_v1	NA
Pinctada fucata	29306	0.167	815.3	71.1	387.6	18.2	36.3	251418	301	205475	1440	pfu_genome2.0	Takeuchi2012
Pinctada fucata	414	72.758	1039.5	57.8	572.0	0.8	3.2	360359	215	316076	1791	pfuV3	Takeuchi2022
Pinctada fucata	414	72.758	1039.5	57.8	572.0	0.8	3.2	360359	215	316076	1791	pfuV3	Takeuchi2022
Pinctada fucata	14	66.397	930.9	53.1	517.7	0.0	0.0	340587	213	299382	1694	pfuV4.1HapA_ref	Takeuchi2022
Octopus bimaculoides	379696	0.466	2371.5	50.4	412.1	36.6	318.6	251805	333	170868	3406	Obi-models	Albertin2015
Octopus bimaculoides	379696	0.466	2371.5	140	919.6	92.6	262.7	279398	510	131886	6590	Obi-RNA	Francis2017
Octopus bimaculoides	379696	0.466	2371.5	140	919.6	92.6	262.7	279398	510	131886	6590	Obi-RNA	Francis2017
Octopus bimaculoides	145327	96.881	2342.5	49.8	942.8	108.7	247.6	317433	315	283205	8652	Obi_v2	Albertin2022
Ixodes scapularis	369492	0.076	1765.3	19.8	221.7	28.2	348.6	92402	215	69721	3562	IscaW1	Gulia-Nuss2016
Ixodes scapularis	6476	0.836	2081.3	47.3	640.2	0.0	0.0	279320	236	241568	4038	ISE6_asm2.2_deduplicated	Miller2018
Daphnia pulex	5191	0.642	197.2	32.7	65.3	2.9	35.6	144893	226	113995	285	Dpulex-v1.1	Colbourne2011
Daphnia pulex	13	12.288	133.2	41.6	76.7	0.0	0.0	334404	294	294706	433	Dpulex-ASM2113471v1	NCBI-NA
Acyrthosiphon pisum	23924	0.519	541.6	70.1	282.8	11.6	30.1	184396	393	146994	1668	Acyr_2.0	IAGC2010
Acyrthosiphon pisum	21228	132.545	533.6	37.8	218.0	5.0	30.5	248664	276	217905	2007	pea_aphid_22Mar2018_4r6ur_v2	Li2019
Apis mellifera	5320	13.219	250.2	32.5	153.4	2.4	18.7	215274	366	188115	2573	Apis4.5	Weinstock2006
Apis mellifera	177	13.619	225.2	33.4	168.5	0.3	0.9	261073	367	232520	2782	ApisHAv3.1	NA
Bombyx mori	43462	4.008	481.8	17.8	88.3	3.5	46.5	80905	220	65706	1675	Bmori_v1	Mita2004
Bombyx mori	697	16.796	460.3	39.8	290.7	0.1	0.4	295260	314	263912	3033	Bmori_2016v1.0	MEXT
Nasonia vitripennis	6098	0.897	295.7	29.3	115.5	14.6	42.5	103811	284	84586	1305	Nvit_2.1	2009
Nasonia vitripennis	436	24.760	297.3	43.9	209.5	0.0	0.0	328815	414	291248	3855	Nvit_psr_1.1	2020_Caltech
Anoplophora glabripennis	1	0	707.7	32.1	172.8	17	88.2	103595	318	81322	1813	Agla_v1	McKenna2016
Anoplophora glabripennis	9867	0.678	707.0	28.9	276.8	6.7	20.5	139074	322	117938	3981	Agla_2.0_NCBI	i5k
Strongylocentrotus purpuratus	31896	0.419	936.5	46.7	288.3	13	107.5	203619	246	159460	1906	Spur4.2	Sodergren2006
Strongylocentrotus purpuratus	871	37.282	921.9	82.7	439.1	0.0	0.3	437440	308	392682	1780	Spur_5.0	BCM
Lytechinus variegatus	104	45.571	870.3	48.4	342.4	0	0.1	186714	259	159476	1850	L_var_annotations	Davidson2020
Lytechinus variegatus	33	45.571	869.6	71.3	466.4	0.0	0.2	403612	305	365638	2158	Lvar_3.0_NCBI	Davidson2020
Ciona intestinalis	4390	2.572	173.4	19.2	63.7	1.7	30.5	101230	197	87195	511	Ciona_v1	Dehal2002
Ciona intestinalis	1272	5.153	115.2	31.4	87.4	0.8	2.3	262987	201	238677	516	Ciona_KH	NCBI_2013
Oikopleura dioica	1260	0.395	70.4	24.3	36.1	0.6	3.3	109672	269	73254	161	Odioica_v3.0	Denoeud2010
Oikopleura dioica	19	16.159	64.3	23.3	38.9	0.0	0.0	117388	222	88411	187	OKI2018_I68_1.0	Bliznina2021
Branchiostoma floridae	398	2.587	521.8	68.8	463.2	13.7	27.7	369695	205	305811	1277	Bfl-JGI	NA
Branchiostoma floridae	398	2.587	521.8	53.2	233.8	7.1	34.3	200627	267	140282	1855	Bfl-RNA	Francis2017
Branchiostoma floridae	398	2.587	521.8	68.8	463.2	13.7	27.7	369695	205	305811	1277	Bfl-JGI	NA
Branchiostoma floridae	431	25.441	513.4	43.1	301.0	0.0	26.3	223692	193	195510	1319	Bfl_VNyyK	Simakov2020
Petromyzon marinus	0	0	885.5	78.6	263.8	14.9	223.2	0	0	0	0	Pmy-2013	NA
Petromyzon marinus	12077	11.932	1130.4	31.9	331.1	1	86.2	0	0	0	0	Pmy-2018	NA
Petromyzon marinus	12077	11.932	1130.4	31.9	331.1	1	86.2	156124	205	134903	2211	PMZ_v3.1_genes	Smith2018
Petromyzon marinus	1434	12.998	1089.1	69.0	586.4	0.7	14.3	569686	308	526870	2971	kPetMar1.pri	V10K
Rhincodon typus	57334	0.144	2931.5	35.6	661.7	0	0	218268	192	189794	5084	Whaleshark_v2	Read2017
Rhincodon typus	16776	70.797	2881.3	62.0	1262.2	71.4	170.5	396604	296	355474	7150	sRhiTyp1.1	Squalomix
Carcharodon carcharias	9222	2.992	3915.2	33	701.8	0	294.5	158175	209	127931	5350	Shark_v1	Marra2019
Carcharodon carcharias	719	169.918	4286.3	61.9	1767.6	6.9	12.2	609716	262	559112	8823	sCarCar2.pri	V10K
Takifugu rubripes	6835	11.517	391.4	52.6	196.2	4.5	35.9	367014	224	334540	739	FUGU5	Aparicio2002
Takifugu rubripes	128	16.706	384.1	69.3	252.6	0.2	3.4	703177	240	648828	968	fTakRub1.2	x
Clupea harengus	6915	1.861	807.7	50	387.2	29.6	53.1	303648	202	274577	1559	Herring_v1	NA
Clupea harengus	1724	29.846	786.3	80.5	447.9	0.3	0.6	627302	263	574610	1746	Charengus_v2.0.2	UPPSALA
Ambystoma mexicanum	125724	3.053	32393.6	60.1	6337	221.2	3805.6	323058	307	283305	42542	AmexG_v3	Nowoshilow2018
Ambystoma mexicanum	27157	1205.707	28206.9	171.6	10010.3	0.0	3.7	450905	433	258104	39190	AmexG_v6.0-DD	Schloissnig2021
Chelonia mydas	140023	3.8	2208.4	32	806.9	27.8	70.1	208053	170	188245	5446	CheMyd_1.0	Wang2013d
Chelonia mydas	99	134.428	2134.5	77.1	1090.6	0.3	11.5	703654	299	645927	5889	rCheMyd1.pri	G10K-VGP
Chrysemys picta	78595	7.072	2365.7	63.9	1091.6	58.8	133.7	568297	270	522371	6587	Chrysemys_picta-3.0.3	Shaffer2013
Chrysemys picta	74775	20.675	2480.3	80.3	1150.4	62.8	246.8	817760	293	753335	6491	Chrysemys_picta_BioNano-3.0.4	WU
Alligator mississippiensis	1	0	2174.2	48.8	905.1	0	44.5	364659	236	331951	5171	Ami-v1	Green2014
Alligator mississippiensis	7094	18.601	2161.7	72.2	1095.7	19.5	27.7	565466	291	515692	6155	ASM28112v4	Green2014
Melopsittacus undulatus	1	0	1117.3	26.6	422	5	25.6	181574	173	165578	3551	v6.3	Ganapathy2014
Melopsittacus undulatus	864	104.093	1171.6	50.2	547.9	0.0	3.2	371844	254	339678	3392	bMelUnd1.mat.Z	G10K
Ornithorhynchus anatinus	200154	0.992	1995.6	30.3	528.1	27.3	127.2	196072	192	173790	4866	Oan-v5.0.1	Warren2008
Ornithorhynchus anatinus	305	83.338	1858.5	56.5	968.1	0.3	14.7	619082	237	561710	5644	mOrnAna1.p.v1	Rhie2020
Bos taurus	3144	105.708	2670.1	67.9	1016.7	5.6	15.1	621600	262	563457	5545	Cow_UMD_3.1.1	Elsik2009
Bos taurus	2211	103.309	2715.8	80.0	1174.5	0.0	0.0	907635	273	829046	5680	Cow_ARS-UCD1.2	Rosen2020
Canis lupus	1	0	2410.9	67.4	1083.2	3	15.2	640112	266	584446	5989	dog	Kirkness2003
Canis lupus	376	64.037	2396.9	92.1	1299.2	1.1	11.6	1053060	274	952665	6473	ROS_Cfam_1.0	Field2020
