Species	Genome build	Genome size (Mb)	Annotation GFF	Redone in this study	Data source	Reference
Symbiodinium kawaguti	v0819	935	Y	0		Lin2015 
Symbiodinium minutum	symbB-v1	609.4	symbB.v1.2	0	OIST	Shoguchi2013 
Emiliania huxleyi	Emihu1	167.7	Emihu1-best-genes	0	JGI	Read2013 
Volvox carteri	v2.0	131.1	v2.0	0	JGI	Prochnik2010 
Tetrahymena thermophila	June2014-assembly	103	June2014-assembly	0	TGD (ciliate.org)	
Sphaeroforma arctica	v1	121.5	jp610	0	Broad Institute	0
Capsaspora owczarzaki	Supercontigs.v2	27.9	ATCC-30864-v2	0	Broad Institute	Suga2013 
Salpingoeca rosetta	v1	55.4	v1	0	Broad Institute	Fairclough2013 
Monosiga brevicollis	Monbr1	41.6	Monbr1	Y	JGI	King2008 
Tethya wilhelma	tethya01	126	0	Y	Other	0
Amphimedon queenslandica	Aqu1	166.6	Aqu2.1	0	JGI	Srivastava2010 
Sycon ciliatum	COMPAGEN	357.5	0	0	COMPAGEN	Fortunato2014 
Trichoplax adherens	Triad1	105.6	Triad1	Y	JGI	Srivastava2008 
Placozoan-H13	Dipspades-v4	87.1	0	Y	Other	0
Mnemiopsis leidyi	ML2.2	155.8	ML2.2	0	MGP (NCBI)	Ryan2013 
Nematostella vectensis	Nemve1	356.6	NVE.Vienna130208	0	JGI	Putnam2007 
Aiptasia sp.	v1	258.1	v1	0	Reefgenomics	Baumgarten2015 
Acropora digitifera	v0.9	447.4	Adig-1.1	0	OIST	Shinzato2011 
Hydra magnipapillata	Hm105-Dovetail	853.7	Hydra-RP-1.0	Y	JGI + UCI	Chapman2010a 
Capitella teleta	Capca1	333.7	FilteredModelsv1	0	JGI	Simakov2013 
Helobdella robusta	Helro1	235.3	FilteredModelsv3	0	JGI	Simakov2013 
Lingula anatina	v1.0	425.4	v1.0-masked	0	OIST	Luo2015 
Pinctada fucata	pfu01	1413.1	0	0	OIST	Takeuchi2012 
Octopus bimaculoides	v280	2371.5	v280	Y	OIST	Albertin2015 
Crassostrea gigas	GCA-000297895.1	557.7	GCA-000297895.1	0	NCBI	Zhang2012a 
Lottia gigantea	Lotgi1	359.5	Lotgi1	0	JGI	Simakov2013 
Limulus polyphemus	v2.1.2	1828.2	v2.1.2	0	NCBI	Nossa2014 
Ixodes scapularis	IscaW1	1765.3	IscaW1	0	Ensembl	Gulia-Nuss2016 
Daphnia pulex	Dappu1	197.2	GCA-000187875.1.30	0	JGI + Ensembl	Colbourne2011 
Strigamia maritima	Smar1	176.2	Smar1	0	Ensembl	Chipman2014 
Bombyx mori	ASM15162v1	481.8	ASM15162v1	0	NCBI	Mita2004 
Apis mellifera	Amel-4.5	250.2	Amel-4.5	0	Ensembl	Weinstock2006 
Drosophila melanogaster	BDGP6	143.7	BDGP6	0	Ensembl	0
Tribolium castaneum	Tcas-3.0	210.2	Tcas-3.0	0	NCBI	Richards2008a 
Dendroctonus ponderosae	DendPond-male-1.0	252.8	DendPond-male-1.0	0	NCBI	Keeling2013 
Caenorhabditis elegans	WBcel235	100.2	WBcel235	0	Ensembl	Celegans1998 
Strongylocentrotus purpuratus	v2.30	936.5	v30	0	Ensembl	Sodergren2006 
Ptychodera flava	v0.7	1228.6	pfl-46v0-7	0	OIST	Simakov2015 
Saccoglossus kowalevskii	v3	757.6	JGIv3.0	0	JGI	Simakov2015 
Branchiostoma floridae	Brafl1	521.8	Brafl1	0	JGI	Putnam2008 
Oikopleura dioica	v3	70.4	Oikopleura-annot-v1.0	0	Genoscope	Denoeud2010 
Ciona intestinalis	v2.0	173.4	FilteredModels1	0	JGI	Dehal2002 
Botryllus schlosseri	botznik	580.3	botznik	0	Stanford	Voskoboynik2013 
Petromyzon marinus	v7.0	885.5	0	Y	NCBI	Smith2013a 
Callorhinchus milii	v6.1.3	974.4	v6.1.3	0	NCBI	Venkatesh2014 
Salmo salar	ICSASG-v2	2966.8	ICSASG-v2	0	NCBI	0
Danio rerio	GRCz10	1371.7	GRCz10	0	NCBI	Howe2013 
Takifugu rubripes	FUGU5	391.4	FUGU5	0	NCBI	Aparicio2002 
Latimeria chalumnae	LatCha1	2860.5	LatCha1	0	NCBI	Amemiya2013 
Xenopus tropicalis	Xtropicalis-v7	1437.5	Xtropicalis-v7	0	NCBI	Hellsten2010 
Anolis carolinensis	AnoCar2.0	1799.1	AnoCar2.0	0	NCBI	Alfoldi2011 
Python bivittatus	v5.0.2	1435	V5.0.2	0	NCBI	Koning2013 
Pelodiscus sinensis	PelSin-1.0	2202.4	PelSin-1.0	0	NCBI	Wang2013d 
Chrysemys picta bellii	v3.0.3	2365.7	v3.0.3	0	NCBI	Shaffer2013 
Chelonia mydas	CheMyd-1.0	2208.4	CheMyd-1.0	0	NCBI	Wang2013d 
Alligator mississippiensis	allMis1	2174.2	ASM28112v3	0	NCBI	Green2014 
Struthio camelus	ASM69896v1	1225	ASM69896v1	0	NCBI	Zhang2014c 
Gallus gallus	Gallus-gallus-5.0	1230.2	Gallus-gallus-5.0	0	NCBI	NCBI GRC 
Anas platyrhynchos	BGI-duck-1.0	1105	BGI-duck-1.0	0	NCBI	Huang2013a 
Melopsittacus undulatus	V6.3	1117.3	V6.3	0	NCBI	Ganapathy2014 
Taeniopygia guttata	V3.2.4	1232.1	V3.2.4	0	NCBI	Warren2010 
Aptenodytes forsteri	ASM69914v1	1254.3	ASM69914v1	0	NCBI	Zhang2014c 
Ornithorhynchus anatinus	v5.0.1	1995.6	v5.0.1	0	NCBI	Warren2008 
Monodelphis domestica	MonDom5	3598.4	MonDom5	0	NCBI	Mikkelsen2007 
Canis lupus familiaris	CanFam3.1	2410.9	CanFam3.1	0	NCBI	Kirkness2003 
Mus musculus	GRCm38.p3	2725.5	GRCm38.p3	0	NCBI	NCBI GRC 
Pan troglodytes	V2.1.4	3309.5	V2.1.4	0	NCBI	0
Homo sapiens	GRCh38.p2	3209.2	Ensembl GRCh38.p2	0	NCBI	NCBI GRC 
