Species	Total	Exon	Genic	Intron gaps	Intergenic gaps	Exon Count	Avg exon length	Intron Count	Avg intron length	Year
Symbiodinium kawagutii	935	38	137.7	1.6	30.5	150118	255	113268	893	2015
Symbiodinium minutum	609.4	81.9	491.6	2.4	3.2	1117551	96	941247	870	2013
Emiliania huxleyi	167.7	37.6	59	1.6	10	123308	306	89435	239	2013
Volvox carteri	131.1	28.4	81.9	0.9	4.8	120987	235	105443	506	2010
Tetrahymena thermophila	103	50.8	64.7	0	0	121018	420	94022	140	2007
Sphaeroforma arctica	121.5	19.6	46.3	2.5	21.5	65155	303	46273	576	2015
Capsaspora owczarzaki	27.9	17.8	23.2	0	0.5	41763	429	33106	164	2013
Salpingoeca rosetta	55.4	26.1	48.3	1.3	2.3	99545	264	87916	253	2013
Monosiga brevicollis	41.6	19.3	28.7	0.1	2.8	69832	246	60636	171	2008
Tethya wilhelma	126	46.1	83.4	0.4	1	163897	291	131824	413	2016
Amphimedon queenslandica	166.6	47.8	95.8	6.1	15.7	219991	227	175272	330	2010
Sycon ciliatum	357.5	37.5	181.1	27.7	51.3	187658	229	147278	1241	2014
Mnemiopsis leidyi	155.8	35.8	93.2	1.9	3.6	233465	324	144825	906	2013
Trichoplax adherens	105.6	20.3	47.2	0.4	10.4	201136	157	182628	243	2008
Hoilungia hongkongensis	87.1	34.6	64.7	0	0	137080	278	108948	336	2016
Nematostella vectensis	356.6	42.1	156.3	7.1	52	183305	229	157576	807	2007
Exaiptasia pallida	258.1	70.5	174.1	21.8	23.4	215501	354	186179	653	2015
Acropora digitifera	447.4	53.5	225.2	20.3	47.8	168148	273	141873	1014	2011
Hydra magnipapillata	853.8	47.7	419.8	23.1	45.2	236761	281	122341	3827	2010
Capitella teleta	333.7	37.5	90.3	4.3	52.3	174244	215	141828	371	2013
Helobdella robusta	235.3	29	91.8	2.4	17.5	143303	202	119824	524	2013
Lingula anatina	425.4	48.6	227.5	5.8	11.6	259361	187	226802	788	2015
Pinctada fucata	1413.1	49.7	302.6	82	304.4	257024	220	146931	1900	2012
Octopus bimaculoides	2371.5	140	919.6	92.6	262.7	279398	510	132513	6568	2015
Crassostrea gigas	557.7	35.3	210.7	8	57.8	189465	186	160929	1093	2012
Lottia gigantea	359.5	30.7	124.7	5.3	55.3	143727	213	119876	785	2013
Limulus polyphemus	1828.2	34.5	537.2	31.2	91.2	172628	206	151487	4093	2014
Ixodes scapularis	1765.3	19.6	221.5	28.2	348.6	89830	219	69259	3052	2016
Daphnia pulex	197.2	33.8	65.3	2.8	35.7	148110	228	112082	289	2011
Strigamia maritima	176.2	31.4	70.3	0.3	2.3	133235	246	117148	356	2014
Bombyx mori	481.8	26.2	210.8	14.4	35.6	150971	254	131317	2778	2004
Apis mellifera	250.2	32.5	153.4	2.4	18.7	215274	366	188115	2573	2006
Drosophila melanogaster	143.7	35.5	90.5	0	1	185424	484	152793	1667	2000
Tribolium castaneum	210.2	24.2	99.6	3.1	55.8	119131	335	99682	368	2008
Dendroctonus ponderosae	252.8	18.6	53.8	6	44.9	81592	237	68135	544	2013
Caenorhabditis elegans	100.2	30.1	62.4	0	0	245245	210	188405	382	1998
Strongylocentrotus purpuratus	936.5	46.7	288.3	13	107.5	203619	246	159460	1906	2006
Ptychodera flava	1228.6	64.4	627.4	0.1	102.2	260484	247	198742	2729	2015
Saccoglossus kowalevskii	757.6	56.1	271.7	2.5	20.5	188393	220	154147	1323	2015
Branchiostoma floridae	521.8	53.2	233.8	7.1	34.3	200627	267	140282	1855	2008
Oikopleura dioica	70.4	24.3	36.1	0.6	3.3	109672	269	73254	161	2010
Ciona intestinalis	173.4	19.2	63.7	1.7	30.5	101230	197	87195	511	2002
Botryllus schlosseri	580.3	53.1	165.6	0	0.9	245977	363	219950	850	2013
Petromyzon marinus	885.5	78.6	263.8	14.9	223.2	153259	498	86207	2376	2013
Callorhinchus milii	974.4	40.1	441.8	8.2	29.3	324857	208	283564	3110	2014
Salmo salar	2966.8	132.4	1047.6	21.8	326.1	1236624	257	1111844	2767	2013
Danio rerio	1371.7	68.6	734.5	0	2	635564	228	574242	3148	2013
Takifugu rubripes	391.4	52.6	196.2	5.4	35	367773	224	334748	742	2004
Latimeria chalumnae	2860.5	50.2	1107.2	184.8	492.1	351568	232	314202	6850	2013
Xenopus tropicalis	1437.5	59.3	641.1	17.7	53.8	481290	249	436334	3358	2010
Anolis carolinensis	1799.1	46.9	705	16.2	81.5	344034	252	313458	5611	2011
Python bivittatus	1435	41.9	429.5	12.2	38.2	253778	229	229422	2780	2013
Pelodiscus sinensis	2202.4	56	984.1	30.2	65.6	385257	280	350593	6740	2013
Chrysemys picta	2365.7	63.9	1091.6	58.8	133.7	568297	270	522371	6587	2013
Chelonia mydas	2208.4	32	806.9	27.8	70.1	208053	170	188245	5446	2013
Alligator mississippiensis	2174.2	48.8	905.1	0	44.5	364659	236	331951	5171	2014
Struthio camelus	1225	49.4	561.2	9.7	30.4	340319	283	312462	4167	2014
Gallus gallus	1230.2	78.8	585.2	0	11.7	685769	304	628506	3405	2004
Anas platyrhynchos	1105	55.5	538	8.7	26.3	435112	284	395496	4027	2014
Melopsittacus undulatus	1117.3	26.6	422	5	25.6	181574	173	165578	3551	2014
Taeniopygia guttata	1232.1	34.9	437.9	2.1	7	197232	209	178827	3369	2010
Aptenodytes forsteri	1254.3	36.3	496.3	19.8	51.9	218417	220	199622	3383	2014
Ornithorhynchus anatinus	1995.6	30.8	538.6	28.3	126.1	195065	191	172518	4879	2008
Monodelphis domestica	3598.4	77.8	1554.1	20.9	77.8	596242	288	532075	8255	2007
Canis lupus	2410.9	67.4	1083.2	3	15.2	640112	266	584446	5989	2003
Mus musculus	2725.5	108.3	1237.4	0	77.9	1158935	297	1047481	5541	2004
Pan troglodytes	3309.5	67.9	1176.4	22.1	385	705930	265	640205	6733	2004
Homo sapiens	3209.2	111.6	1611	0	159.9	1564827	276	1417790	6276	2001
