leader_consensus	ML5029	100.000	41	0	0	1	41	1651	1691	2.20e-14	76.8
leader_consensus	ML5028	100.000	41	0	0	1	41	1260	1300	2.20e-14	76.8
leader_consensus	ML4921	100.000	41	0	0	1	41	48545	48505	2.20e-14	76.8
leader_consensus	ML4921	100.000	28	0	0	1	28	48549	48576	3.71e-07	52.8
leader_consensus	ML4774	100.000	41	0	0	1	41	55858	55898	2.20e-14	76.8
leader_consensus	ML4774	97.436	39	1	0	3	41	55850	55812	1.32e-11	67.6
leader_consensus	ML4727	100.000	41	0	0	1	41	1456	1496	2.20e-14	76.8
leader_consensus	ML4677	100.000	41	0	0	1	41	4236	4276	2.20e-14	76.8
leader_consensus	ML4639	100.000	41	0	0	1	41	23034	22994	2.20e-14	76.8
leader_consensus	ML4513	100.000	41	0	0	1	41	197963	198003	2.20e-14	76.8
leader_consensus	ML4392	100.000	41	0	0	1	41	5	45	2.20e-14	76.8
leader_consensus	ML4365	100.000	41	0	0	1	41	1296	1336	2.20e-14	76.8
leader_consensus	ML4358	100.000	41	0	0	1	41	186674	186714	2.20e-14	76.8
leader_consensus	ML4132	100.000	41	0	0	1	41	12424	12384	2.20e-14	76.8
leader_consensus	ML4029	100.000	41	0	0	1	41	135320	135360	2.20e-14	76.8
leader_consensus	ML3956	100.000	41	0	0	1	41	196	156	2.20e-14	76.8
leader_consensus	ML3951	100.000	41	0	0	1	41	2858	2898	2.20e-14	76.8
leader_consensus	ML3759	100.000	41	0	0	1	41	74454	74494	2.20e-14	76.8
leader_consensus	ML3530	100.000	41	0	0	1	41	98251	98291	2.20e-14	76.8
leader_consensus	ML3317	100.000	41	0	0	1	41	12323	12363	2.20e-14	76.8
leader_consensus	ML3307	100.000	41	0	0	1	41	53304	53264	2.20e-14	76.8
leader_consensus	ML3274	100.000	41	0	0	1	41	1345	1305	2.20e-14	76.8
leader_consensus	ML3274	97.561	41	1	0	1	41	9901	9861	1.02e-12	71.3
leader_consensus	ML3221	100.000	41	0	0	1	41	11601	11561	2.20e-14	76.8
leader_consensus	ML3055	100.000	41	0	0	1	41	199886	199926	2.20e-14	76.8
leader_consensus	ML3007	100.000	41	0	0	1	41	18675	18715	2.20e-14	76.8
leader_consensus	ML2992	100.000	41	0	0	1	41	129	169	2.20e-14	76.8
leader_consensus	ML2962	100.000	41	0	0	1	41	44625	44665	2.20e-14	76.8
leader_consensus	ML2962	97.297	37	1	0	5	41	3759	3723	1.71e-10	63.9
leader_consensus	ML2962	100.000	32	0	0	2	33	3758	3789	2.21e-09	60.2
leader_consensus	ML2946	100.000	41	0	0	1	41	11872	11912	2.20e-14	76.8
leader_consensus	ML2916	100.000	41	0	0	1	41	702	662	2.20e-14	76.8
leader_consensus	ML2853	100.000	41	0	0	1	41	1068	1108	2.20e-14	76.8
leader_consensus	ML2802	100.000	41	0	0	1	41	4829	4789	2.20e-14	76.8
leader_consensus	ML2796	100.000	41	0	0	1	41	109606	109566	2.20e-14	76.8
leader_consensus	ML2715	100.000	41	0	0	1	41	216337	216297	2.20e-14	76.8
leader_consensus	ML2715	97.561	41	1	0	1	41	216061	216101	1.02e-12	71.3
leader_consensus	ML2715	97.500	40	1	0	2	41	216050	216011	3.68e-12	69.4
leader_consensus	ML2715	97.436	39	1	0	3	41	52413	52451	1.32e-11	67.6
leader_consensus	ML2679	100.000	41	0	0	1	41	118657	118617	2.20e-14	76.8
leader_consensus	ML2666	100.000	41	0	0	1	41	27387	27347	2.20e-14	76.8
leader_consensus	ML2666	97.561	41	1	0	1	41	64445	64405	1.02e-12	71.3
leader_consensus	ML2617	100.000	41	0	0	1	41	146991	146951	2.20e-14	76.8
leader_consensus	ML2617	97.561	41	1	0	1	41	113994	114034	1.02e-12	71.3
leader_consensus	ML2504	100.000	41	0	0	1	41	8651	8691	2.20e-14	76.8
leader_consensus	ML2395	100.000	41	0	0	1	41	167917	167957	2.20e-14	76.8
leader_consensus	ML2383	100.000	41	0	0	1	41	18860	18900	2.20e-14	76.8
leader_consensus	ML2383	100.000	28	0	0	3	30	186416	186389	3.71e-07	52.8
leader_consensus	ML2358	100.000	41	0	0	1	41	559	599	2.20e-14	76.8
leader_consensus	ML2340	100.000	41	0	0	1	41	238907	238867	2.20e-14	76.8
leader_consensus	ML2215	100.000	41	0	0	1	41	1932	1892	2.20e-14	76.8
leader_consensus	ML2188	100.000	41	0	0	1	41	368063	368023	2.20e-14	76.8
leader_consensus	ML2186	100.000	41	0	0	1	41	102261	102301	2.20e-14	76.8
leader_consensus	ML2186	97.561	41	1	0	1	41	49067	49107	1.02e-12	71.3
leader_consensus	ML2172	100.000	41	0	0	1	41	161591	161631	2.20e-14	76.8
leader_consensus	ML2169	100.000	41	0	0	1	41	166566	166606	2.20e-14	76.8
leader_consensus	ML2154	100.000	41	0	0	1	41	160298	160338	2.20e-14	76.8
leader_consensus	ML2154	100.000	41	0	0	1	41	160846	160886	2.20e-14	76.8
leader_consensus	ML2154	100.000	41	0	0	1	41	161976	162016	2.20e-14	76.8
leader_consensus	ML2154	95.000	40	2	0	2	41	64947	64908	1.71e-10	63.9
leader_consensus	ML2100	100.000	41	0	0	1	41	244074	244114	2.20e-14	76.8
leader_consensus	ML2100	100.000	41	0	0	1	41	272527	272487	2.20e-14	76.8
leader_consensus	ML2087	100.000	41	0	0	1	41	135	95	2.20e-14	76.8
leader_consensus	ML2044	100.000	41	0	0	1	41	78405	78365	2.20e-14	76.8
leader_consensus	ML2044	100.000	40	0	0	2	41	173613	173652	7.91e-14	75.0
leader_consensus	ML2002	100.000	41	0	0	1	41	474048	474008	2.20e-14	76.8
leader_consensus	ML1980	100.000	41	0	0	1	41	50427	50467	2.20e-14	76.8
leader_consensus	ML1825	100.000	41	0	0	1	41	227298	227338	2.20e-14	76.8
leader_consensus	ML1825	100.000	39	0	0	3	41	71383	71421	2.84e-13	73.1
leader_consensus	ML1792	100.000	41	0	0	1	41	28527	28567	2.20e-14	76.8
leader_consensus	ML1747	100.000	41	0	0	1	41	439750	439790	2.20e-14	76.8
leader_consensus	ML1747	100.000	41	0	0	1	41	441084	441124	2.20e-14	76.8
leader_consensus	ML1747	100.000	39	0	0	3	41	402207	402245	2.84e-13	73.1
leader_consensus	ML1747	97.436	39	1	0	3	41	485712	485674	1.32e-11	67.6
leader_consensus	ML1675	100.000	41	0	0	1	41	25796	25756	2.20e-14	76.8
leader_consensus	ML1670	100.000	41	0	0	1	41	104038	103998	2.20e-14	76.8
leader_consensus	ML1670	97.561	41	1	0	1	41	5410	5370	1.02e-12	71.3
leader_consensus	ML1670	100.000	36	0	0	6	41	288472	288437	1.32e-11	67.6
leader_consensus	ML1670	95.000	40	1	1	1	40	130111	130149	6.16e-10	62.1
leader_consensus	ML1611	100.000	41	0	0	1	41	66361	66401	2.20e-14	76.8
leader_consensus	ML1595	100.000	41	0	0	1	41	28609	28569	2.20e-14	76.8
leader_consensus	ML1595	100.000	41	0	0	1	41	31064	31024	2.20e-14	76.8
leader_consensus	ML1595	100.000	41	0	0	1	41	32068	32028	2.20e-14	76.8
leader_consensus	ML1595	100.000	41	0	0	1	41	33084	33044	2.20e-14	76.8
leader_consensus	ML1595	100.000	41	0	0	1	41	34118	34078	2.20e-14	76.8
leader_consensus	ML1595	100.000	41	0	0	1	41	35912	35872	2.20e-14	76.8
leader_consensus	ML1595	100.000	41	0	0	1	41	38042	38002	2.20e-14	76.8
leader_consensus	ML1545	100.000	41	0	0	1	41	42269	42229	2.20e-14	76.8
leader_consensus	ML1541	100.000	41	0	0	1	41	363601	363561	2.20e-14	76.8
leader_consensus	ML1541	100.000	36	0	0	6	41	67262	67227	1.32e-11	67.6
leader_consensus	ML1498	100.000	41	0	0	1	41	66433	66473	2.20e-14	76.8
leader_consensus	ML1489	100.000	41	0	0	1	41	113951	113911	2.20e-14	76.8
leader_consensus	ML1471	100.000	41	0	0	1	41	13403	13443	2.20e-14	76.8
leader_consensus	ML1443	100.000	41	0	0	1	41	28388	28428	2.20e-14	76.8
leader_consensus	ML1442	100.000	41	0	0	1	41	39861	39901	2.20e-14	76.8
leader_consensus	ML1430	100.000	41	0	0	1	41	136965	136925	2.20e-14	76.8
leader_consensus	ML1417	100.000	41	0	0	1	41	491484	491444	2.20e-14	76.8
leader_consensus	ML1411	100.000	41	0	0	1	41	283448	283408	2.20e-14	76.8
leader_consensus	ML1391	100.000	41	0	0	1	41	103687	103647	2.20e-14	76.8
leader_consensus	ML1364	100.000	41	0	0	1	41	8127	8167	2.20e-14	76.8
leader_consensus	ML1325	100.000	41	0	0	1	41	68204	68244	2.20e-14	76.8
leader_consensus	ML1311	100.000	41	0	0	1	41	106193	106233	2.20e-14	76.8
leader_consensus	ML1293	100.000	41	0	0	1	41	57665	57705	2.20e-14	76.8
leader_consensus	ML1256	100.000	41	0	0	1	41	26172	26212	2.20e-14	76.8
leader_consensus	ML1252	100.000	41	0	0	1	41	1661	1701	2.20e-14	76.8
leader_consensus	ML1252	100.000	41	0	0	1	41	2565	2605	2.20e-14	76.8
leader_consensus	ML1252	100.000	41	0	0	1	41	2997	3037	2.20e-14	76.8
leader_consensus	ML1242	100.000	41	0	0	1	41	272170	272130	2.20e-14	76.8
leader_consensus	ML1242	100.000	39	0	0	3	41	208018	208056	2.84e-13	73.1
leader_consensus	ML1236	100.000	41	0	0	1	41	9239	9279	2.20e-14	76.8
leader_consensus	ML1236	100.000	39	0	0	3	41	24018	24056	2.84e-13	73.1
leader_consensus	ML1223	100.000	41	0	0	1	41	30661	30701	2.20e-14	76.8
leader_consensus	ML1203	100.000	41	0	0	1	41	65087	65127	2.20e-14	76.8
leader_consensus	ML1169	100.000	41	0	0	1	41	64293	64333	2.20e-14	76.8
leader_consensus	ML1134	100.000	41	0	0	1	41	227435	227475	2.20e-14	76.8
leader_consensus	ML1122	100.000	41	0	0	1	41	126896	126856	2.20e-14	76.8
leader_consensus	ML1119	100.000	41	0	0	1	41	9954	9914	2.20e-14	76.8
leader_consensus	ML1119	100.000	40	0	0	2	41	41557	41596	7.91e-14	75.0
leader_consensus	ML1115	100.000	41	0	0	1	41	6449	6409	2.20e-14	76.8
leader_consensus	ML1089	100.000	41	0	0	1	41	128947	128987	2.20e-14	76.8
leader_consensus	ML1043	100.000	41	0	0	1	41	222096	222056	2.20e-14	76.8
leader_consensus	ML1043	97.561	41	1	0	1	41	186240	186200	1.02e-12	71.3
leader_consensus	ML1022	100.000	41	0	0	1	41	424599	424559	2.20e-14	76.8
leader_consensus	ML1022	100.000	32	0	0	10	41	424873	424904	2.21e-09	60.2
leader_consensus	ML0975	100.000	41	0	0	1	41	237096	237056	2.20e-14	76.8
leader_consensus	ML0975	100.000	40	0	0	1	40	275825	275786	7.91e-14	75.0
leader_consensus	ML0975	100.000	37	0	0	5	41	30088	30124	3.68e-12	69.4
leader_consensus	ML0973	100.000	41	0	0	1	41	14173	14213	2.20e-14	76.8
leader_consensus	ML0943	100.000	41	0	0	1	41	116785	116825	2.20e-14	76.8
leader_consensus	ML0943	100.000	29	0	0	13	41	134609	134581	1.03e-07	54.7
leader_consensus	ML0926	100.000	41	0	0	1	41	78563	78603	2.20e-14	76.8
leader_consensus	ML0925	100.000	41	0	0	1	41	91064	91104	2.20e-14	76.8
leader_consensus	ML0912	100.000	41	0	0	1	41	106297	106337	2.20e-14	76.8
leader_consensus	ML0912	94.595	37	2	0	5	41	1827	1791	7.96e-09	58.4
leader_consensus	ML0908	100.000	41	0	0	1	41	134945	134985	2.20e-14	76.8
leader_consensus	ML0908	97.561	41	1	0	1	41	793	833	1.02e-12	71.3
leader_consensus	ML0902	100.000	41	0	0	1	41	283966	284006	2.20e-14	76.8
leader_consensus	ML0902	100.000	36	0	0	4	39	283911	283946	1.32e-11	67.6
leader_consensus	ML0897	100.000	41	0	0	1	41	119259	119299	2.20e-14	76.8
leader_consensus	ML0897	97.561	41	1	0	1	41	64333	64373	1.02e-12	71.3
leader_consensus	ML0894	100.000	41	0	0	1	41	4086	4046	2.20e-14	76.8
leader_consensus	ML0894	100.000	41	0	0	1	41	41985	42025	2.20e-14	76.8
leader_consensus	ML0894	100.000	41	0	0	1	41	116596	116636	2.20e-14	76.8
leader_consensus	ML0886	100.000	41	0	0	1	41	14915	14875	2.20e-14	76.8
leader_consensus	ML0886	100.000	41	0	0	1	41	14917	14957	2.20e-14	76.8
leader_consensus	ML0880	100.000	41	0	0	1	41	24219	24179	2.20e-14	76.8
leader_consensus	ML0865	100.000	41	0	0	1	41	54	14	2.20e-14	76.8
leader_consensus	ML0857	100.000	41	0	0	1	41	198916	198876	2.20e-14	76.8
leader_consensus	ML0857	100.000	39	0	0	3	41	198920	198958	2.84e-13	73.1
leader_consensus	ML0857	95.238	42	1	1	1	41	22849	22808	4.76e-11	65.8
leader_consensus	ML0844	100.000	41	0	0	1	41	58170	58130	2.20e-14	76.8
leader_consensus	ML0842	100.000	41	0	0	1	41	70511	70551	2.20e-14	76.8
leader_consensus	ML0842	97.561	41	1	0	1	41	174237	174197	1.02e-12	71.3
leader_consensus	ML0842	100.000	32	0	0	10	41	1624	1655	2.21e-09	60.2
leader_consensus	ML0836	100.000	41	0	0	1	41	255	215	2.20e-14	76.8
leader_consensus	ML0832	100.000	41	0	0	1	41	18833	18793	2.20e-14	76.8
leader_consensus	ML0821	100.000	41	0	0	1	41	187885	187925	2.20e-14	76.8
leader_consensus	ML0820	100.000	41	0	0	1	41	170451	170411	2.20e-14	76.8
leader_consensus	ML0797	100.000	41	0	0	1	41	280098	280138	2.20e-14	76.8
leader_consensus	ML0797	100.000	41	0	0	1	41	280386	280426	2.20e-14	76.8
leader_consensus	ML0797	97.561	41	0	1	1	41	20958	20919	3.68e-12	69.4
leader_consensus	ML0797	100.000	34	0	0	7	40	157712	157679	1.71e-10	63.9
leader_consensus	ML0789	100.000	41	0	0	1	41	77275	77315	2.20e-14	76.8
leader_consensus	ML0784	100.000	41	0	0	1	41	14891	14931	2.20e-14	76.8
leader_consensus	ML0774	100.000	41	0	0	1	41	17863	17903	2.20e-14	76.8
leader_consensus	ML0737	100.000	41	0	0	1	41	69024	69064	2.20e-14	76.8
leader_consensus	ML0713	100.000	41	0	0	1	41	168794	168754	2.20e-14	76.8
leader_consensus	ML0713	95.122	41	2	0	1	41	158952	158992	4.76e-11	65.8
leader_consensus	ML0697	100.000	41	0	0	1	41	77333	77293	2.20e-14	76.8
leader_consensus	ML0681	100.000	41	0	0	1	41	153844	153804	2.20e-14	76.8
leader_consensus	ML0673	100.000	41	0	0	1	41	1288	1248	2.20e-14	76.8
leader_consensus	ML0667	100.000	41	0	0	1	41	1000	1040	2.20e-14	76.8
leader_consensus	ML0657	100.000	41	0	0	1	41	46570	46530	2.20e-14	76.8
leader_consensus	ML0649	100.000	41	0	0	1	41	361234	361274	2.20e-14	76.8
leader_consensus	ML0649	100.000	41	0	0	1	41	393910	393950	2.20e-14	76.8
leader_consensus	ML0646	100.000	41	0	0	1	41	48514	48474	2.20e-14	76.8
leader_consensus	ML0645	100.000	41	0	0	1	41	20248	20208	2.20e-14	76.8
leader_consensus	ML0636	100.000	41	0	0	1	41	32673	32713	2.20e-14	76.8
leader_consensus	ML0633	100.000	41	0	0	1	41	183173	183133	2.20e-14	76.8
leader_consensus	ML0633	100.000	38	0	0	4	41	202131	202168	1.02e-12	71.3
leader_consensus	ML0633	100.000	32	0	0	10	41	200393	200362	2.21e-09	60.2
leader_consensus	ML0622	100.000	41	0	0	1	41	291872	291832	2.20e-14	76.8
leader_consensus	ML0619	100.000	41	0	0	1	41	3760	3720	2.20e-14	76.8
leader_consensus	ML0605	100.000	41	0	0	1	41	9955	9995	2.20e-14	76.8
leader_consensus	ML0595	100.000	41	0	0	1	41	433	393	2.20e-14	76.8
leader_consensus	ML0590	100.000	41	0	0	1	41	46273	46233	2.20e-14	76.8
leader_consensus	ML0534	100.000	41	0	0	1	41	72345	72305	2.20e-14	76.8
leader_consensus	ML0517	100.000	41	0	0	1	41	24844	24884	2.20e-14	76.8
leader_consensus	ML0508	100.000	41	0	0	1	41	256640	256680	2.20e-14	76.8
leader_consensus	ML0504	100.000	41	0	0	1	41	80847	80887	2.20e-14	76.8
leader_consensus	ML0496	100.000	41	0	0	1	41	125961	125921	2.20e-14	76.8
leader_consensus	ML0496	100.000	41	0	0	1	41	243411	243371	2.20e-14	76.8
leader_consensus	ML0494	100.000	41	0	0	1	41	286	246	2.20e-14	76.8
leader_consensus	ML0488	100.000	41	0	0	1	41	72745	72705	2.20e-14	76.8
leader_consensus	ML0480	100.000	41	0	0	1	41	5856	5816	2.20e-14	76.8
leader_consensus	ML0473	100.000	41	0	0	1	41	54708	54668	2.20e-14	76.8
leader_consensus	ML0461	100.000	41	0	0	1	41	69024	68984	2.20e-14	76.8
leader_consensus	ML0449	100.000	41	0	0	1	41	34270	34230	2.20e-14	76.8
leader_consensus	ML0449	100.000	41	0	0	1	41	68058	68018	2.20e-14	76.8
leader_consensus	ML0428	100.000	41	0	0	1	41	44218	44258	2.20e-14	76.8
leader_consensus	ML0421	100.000	41	0	0	1	41	23771	23731	2.20e-14	76.8
leader_consensus	ML0397	100.000	41	0	0	1	41	135646	135686	2.20e-14	76.8
leader_consensus	ML0397	97.561	41	1	0	1	41	7274	7314	1.02e-12	71.3
leader_consensus	ML0397	97.368	38	1	0	4	41	135244	135207	4.76e-11	65.8
leader_consensus	ML0397	97.297	37	1	0	4	40	135641	135605	1.71e-10	63.9
leader_consensus	ML0380	100.000	41	0	0	1	41	225168	225128	2.20e-14	76.8
leader_consensus	ML0378	100.000	41	0	0	1	41	1475	1435	2.20e-14	76.8
leader_consensus	ML0375	100.000	41	0	0	1	41	767	807	2.20e-14	76.8
leader_consensus	ML0375	100.000	41	0	0	1	41	7681	7721	2.20e-14	76.8
leader_consensus	ML0375	100.000	41	0	0	1	41	8602	8642	2.20e-14	76.8
leader_consensus	ML0375	100.000	41	0	0	1	41	10444	10484	2.20e-14	76.8
leader_consensus	ML0375	100.000	41	0	0	1	41	12792	12832	2.20e-14	76.8
leader_consensus	ML0375	100.000	41	0	0	1	41	13754	13794	2.20e-14	76.8
leader_consensus	ML0371	100.000	41	0	0	1	41	11077	11117	2.20e-14	76.8
leader_consensus	ML0366	100.000	41	0	0	1	41	86759	86799	2.20e-14	76.8
leader_consensus	ML0323	100.000	41	0	0	1	41	139450	139490	2.20e-14	76.8
leader_consensus	ML0317	100.000	41	0	0	1	41	78917	78877	2.20e-14	76.8
leader_consensus	ML0310	100.000	41	0	0	1	41	26161	26201	2.20e-14	76.8
leader_consensus	ML0304	100.000	41	0	0	1	41	159655	159615	2.20e-14	76.8
leader_consensus	ML0304	100.000	41	0	0	1	41	162052	162012	2.20e-14	76.8
leader_consensus	ML0304	100.000	38	0	0	1	38	104118	104155	1.02e-12	71.3
leader_consensus	ML0278	100.000	41	0	0	1	41	22995	22955	2.20e-14	76.8
leader_consensus	ML0277	100.000	41	0	0	1	41	99811	99771	2.20e-14	76.8
leader_consensus	ML0277	100.000	37	0	0	5	41	28494	28458	3.68e-12	69.4
leader_consensus	ML0264	100.000	41	0	0	1	41	46006	46046	2.20e-14	76.8
leader_consensus	ML0214	100.000	41	0	0	1	41	14150	14190	2.20e-14	76.8
leader_consensus	ML0211	100.000	41	0	0	1	41	14732	14772	2.20e-14	76.8
leader_consensus	ML0211	97.561	41	1	0	1	41	352586	352546	1.02e-12	71.3
leader_consensus	ML0211	97.368	38	1	0	4	41	339711	339674	4.76e-11	65.8
leader_consensus	ML0211	93.023	43	0	3	1	41	6678	6637	2.21e-09	60.2
leader_consensus	ML0207	100.000	41	0	0	1	41	46521	46561	2.20e-14	76.8
leader_consensus	ML0207	97.500	40	1	0	2	41	6110	6071	3.68e-12	69.4
leader_consensus	ML0200	100.000	41	0	0	1	41	139023	138983	2.20e-14	76.8
leader_consensus	ML0200	94.118	34	2	0	5	38	171680	171713	3.71e-07	52.8
leader_consensus	ML0194	100.000	41	0	0	1	41	59384	59424	2.20e-14	76.8
leader_consensus	ML0191	100.000	41	0	0	1	41	226084	226124	2.20e-14	76.8
leader_consensus	ML0177	100.000	41	0	0	1	41	122478	122518	2.20e-14	76.8
leader_consensus	ML0174	100.000	41	0	0	1	41	88584	88624	2.20e-14	76.8
leader_consensus	ML0174	100.000	41	0	0	1	41	357056	357016	2.20e-14	76.8
leader_consensus	ML0174	97.500	40	1	0	2	41	370701	370740	3.68e-12	69.4
leader_consensus	ML0174	97.368	38	1	0	4	41	32679	32716	4.76e-11	65.8
leader_consensus	ML0162	100.000	41	0	0	1	41	47199	47239	2.20e-14	76.8
leader_consensus	ML0154	100.000	41	0	0	1	41	131013	131053	2.20e-14	76.8
leader_consensus	ML0154	100.000	32	0	0	10	41	105190	105159	2.21e-09	60.2
leader_consensus	ML0151	100.000	41	0	0	1	41	133979	133939	2.20e-14	76.8
leader_consensus	ML0149	100.000	41	0	0	1	41	32001	32041	2.20e-14	76.8
leader_consensus	ML0144	100.000	41	0	0	1	41	80492	80452	2.20e-14	76.8
leader_consensus	ML0120	100.000	41	0	0	1	41	15813	15853	2.20e-14	76.8
leader_consensus	ML0120	100.000	41	0	0	1	41	341051	341091	2.20e-14	76.8
leader_consensus	ML0120	100.000	40	0	0	2	41	88857	88818	7.91e-14	75.0
leader_consensus	ML0120	100.000	38	0	0	3	40	91380	91343	1.02e-12	71.3
leader_consensus	ML0120	97.561	41	1	0	1	41	201191	201151	1.02e-12	71.3
leader_consensus	ML0116	100.000	41	0	0	1	41	58302	58342	2.20e-14	76.8
leader_consensus	ML0113	100.000	41	0	0	1	41	31726	31766	2.20e-14	76.8
leader_consensus	ML0113	100.000	38	0	0	4	41	7406	7443	1.02e-12	71.3
leader_consensus	ML0113	97.561	41	1	0	1	41	28310	28350	1.02e-12	71.3
leader_consensus	ML0107	100.000	41	0	0	1	41	10427	10467	2.20e-14	76.8
leader_consensus	ML0107	100.000	37	0	0	2	38	6903	6867	3.68e-12	69.4
leader_consensus	ML0107	100.000	37	0	0	2	38	10418	10382	3.68e-12	69.4
leader_consensus	ML0098	100.000	41	0	0	1	41	3157	3117	2.20e-14	76.8
leader_consensus	ML0097	100.000	41	0	0	1	41	18367	18407	2.20e-14	76.8
leader_consensus	ML0097	100.000	37	0	0	5	41	18357	18321	3.68e-12	69.4
leader_consensus	ML0083	100.000	41	0	0	1	41	136138	136178	2.20e-14	76.8
leader_consensus	ML0081	100.000	41	0	0	1	41	2377	2337	2.20e-14	76.8
leader_consensus	ML0065	100.000	41	0	0	1	41	3682	3642	2.20e-14	76.8
leader_consensus	ML0057	100.000	41	0	0	1	41	54741	54781	2.20e-14	76.8
leader_consensus	ML0040	100.000	41	0	0	1	41	31584	31544	2.20e-14	76.8
leader_consensus	ML0019	100.000	41	0	0	1	41	80760	80720	2.20e-14	76.8
leader_consensus	ML0019	94.737	38	2	0	4	41	48361	48324	2.21e-09	60.2
leader_consensus	ML0018	100.000	41	0	0	1	41	20721	20761	2.20e-14	76.8
leader_consensus	ML0015	100.000	41	0	0	1	41	94011	94051	2.20e-14	76.8
leader_consensus	ML0008	100.000	41	0	0	1	41	4008	4048	2.20e-14	76.8
leader_consensus	ML4182	100.000	40	0	0	1	40	17267	17306	7.91e-14	75.0
leader_consensus	ML3839	100.000	40	0	0	2	41	1085	1046	7.91e-14	75.0
leader_consensus	ML3729	100.000	40	0	0	2	41	189	150	7.91e-14	75.0
leader_consensus	ML2876	100.000	40	0	0	2	41	478	517	7.91e-14	75.0
leader_consensus	ML2768	100.000	40	0	0	2	41	5176	5215	7.91e-14	75.0
leader_consensus	ML1845	100.000	40	0	0	2	41	4371	4410	7.91e-14	75.0
leader_consensus	ML1756	100.000	40	0	0	2	41	96878	96917	7.91e-14	75.0
leader_consensus	ML1591	100.000	40	0	0	2	41	67058	67097	7.91e-14	75.0
leader_consensus	ML1281	100.000	40	0	0	2	41	45585	45546	7.91e-14	75.0
leader_consensus	ML1246	100.000	40	0	0	2	41	12703	12664	7.91e-14	75.0
leader_consensus	ML1146	100.000	40	0	0	2	41	71656	71617	7.91e-14	75.0
leader_consensus	ML0809	100.000	40	0	0	1	40	151448	151409	7.91e-14	75.0
leader_consensus	ML0809	100.000	38	0	0	4	41	76567	76530	1.02e-12	71.3
leader_consensus	ML0809	97.561	41	1	0	1	41	152505	152545	1.02e-12	71.3
leader_consensus	ML0799	100.000	40	0	0	2	41	9241	9280	7.91e-14	75.0
leader_consensus	ML0702	100.000	40	0	0	2	41	433609	433648	7.91e-14	75.0
leader_consensus	ML0224	100.000	40	0	0	2	41	195900	195939	7.91e-14	75.0
leader_consensus	ML0224	100.000	40	0	0	2	41	223138	223177	7.91e-14	75.0
leader_consensus	ML0224	97.500	40	0	1	2	41	156152	156190	1.32e-11	67.6
leader_consensus	ML0032	100.000	40	0	0	2	41	126041	126002	7.91e-14	75.0
leader_consensus	ML4442	100.000	39	0	0	3	41	38196	38234	2.84e-13	73.1
leader_consensus	ML2798	100.000	39	0	0	3	41	427521	427559	2.84e-13	73.1
leader_consensus	ML2732	100.000	39	0	0	3	41	139985	139947	2.84e-13	73.1
leader_consensus	ML2732	97.561	41	1	0	1	41	128572	128532	1.02e-12	71.3
leader_consensus	ML1565	100.000	39	0	0	3	41	140741	140779	2.84e-13	73.1
leader_consensus	ML1458	100.000	39	0	0	3	41	136813	136775	2.84e-13	73.1
leader_consensus	ML1458	100.000	39	0	0	3	41	136900	136862	2.84e-13	73.1
leader_consensus	ML1458	97.561	41	1	0	1	41	137700	137740	1.02e-12	71.3
leader_consensus	ML1262	100.000	39	0	0	3	41	143054	143092	2.84e-13	73.1
leader_consensus	ML1234	100.000	39	0	0	3	41	23784	23822	2.84e-13	73.1
leader_consensus	ML0531	100.000	39	0	0	3	41	18726	18688	2.84e-13	73.1
leader_consensus	ML0509	100.000	39	0	0	3	41	255824	255786	2.84e-13	73.1
leader_consensus	ML0509	97.561	41	1	0	1	41	125387	125347	1.02e-12	71.3
leader_consensus	ML0509	100.000	33	0	0	3	35	238731	238699	6.16e-10	62.1
leader_consensus	ML0470	100.000	39	0	0	3	41	26114	26152	2.84e-13	73.1
leader_consensus	ML0302	100.000	39	0	0	3	41	285712	285674	2.84e-13	73.1
leader_consensus	ML0302	92.683	41	3	0	1	41	27694	27654	2.21e-09	60.2
leader_consensus	ML0302	92.683	41	3	0	1	41	30783	30743	2.21e-09	60.2
leader_consensus	ML0252	100.000	39	0	0	3	41	94321	94359	2.84e-13	73.1
leader_consensus	ML0209	100.000	39	0	0	3	41	125	87	2.84e-13	73.1
leader_consensus	ML0091	100.000	39	0	0	3	41	210804	210766	2.84e-13	73.1
leader_consensus	ML4965	97.561	41	1	0	1	41	95570	95610	1.02e-12	71.3
leader_consensus	ML4363	100.000	38	0	0	4	41	1089	1126	1.02e-12	71.3
leader_consensus	ML3590	97.561	41	1	0	1	41	4568	4528	1.02e-12	71.3
leader_consensus	ML3448	100.000	38	0	0	1	38	10700	10737	1.02e-12	71.3
leader_consensus	ML3342	97.561	41	1	0	1	41	50821	50781	1.02e-12	71.3
leader_consensus	ML3222	97.561	41	1	0	1	41	10498	10538	1.02e-12	71.3
leader_consensus	ML3209	97.561	41	1	0	1	41	164979	164939	1.02e-12	71.3
leader_consensus	ML3170	97.561	41	1	0	1	41	35172	35132	1.02e-12	71.3
leader_consensus	ML3170	97.500	40	0	1	2	41	40824	40862	1.32e-11	67.6
leader_consensus	ML3061	97.561	41	1	0	1	41	59775	59815	1.02e-12	71.3
leader_consensus	ML2918	97.561	41	1	0	1	41	592	632	1.02e-12	71.3
leader_consensus	ML2908	97.561	41	1	0	1	41	1050	1010	1.02e-12	71.3
leader_consensus	ML2730	97.561	41	1	0	1	41	227	267	1.02e-12	71.3
leader_consensus	ML2649	97.561	41	1	0	1	41	30097	30057	1.02e-12	71.3
leader_consensus	ML2401	97.619	42	0	1	1	41	277	318	1.02e-12	71.3
leader_consensus	ML2345	97.561	41	1	0	1	41	639492	639452	1.02e-12	71.3
leader_consensus	ML2213	97.561	41	1	0	1	41	255389	255429	1.02e-12	71.3
leader_consensus	ML2213	97.222	36	0	1	6	41	182260	182226	2.21e-09	60.2
leader_consensus	ML2016	100.000	38	0	0	4	41	51925	51888	1.02e-12	71.3
leader_consensus	ML1855	97.561	41	1	0	1	41	48825	48785	1.02e-12	71.3
leader_consensus	ML1844	100.000	38	0	0	4	41	185416	185379	1.02e-12	71.3
leader_consensus	ML1844	97.561	41	1	0	1	41	271209	271169	1.02e-12	71.3
leader_consensus	ML1844	97.500	40	1	0	2	41	204956	204995	3.68e-12	69.4
leader_consensus	ML1844	100.000	35	0	0	3	37	82062	82096	4.76e-11	65.8
leader_consensus	ML1823	97.561	41	1	0	1	41	22271	22311	1.02e-12	71.3
leader_consensus	ML1641	100.000	38	0	0	1	38	619	656	1.02e-12	71.3
leader_consensus	ML1557	100.000	38	0	0	4	41	242	279	1.02e-12	71.3
leader_consensus	ML1492	97.561	41	1	0	1	41	75987	76027	1.02e-12	71.3
leader_consensus	ML1485	97.561	41	1	0	1	41	319622	319662	1.02e-12	71.3
leader_consensus	ML1485	100.000	32	0	0	10	41	94291	94322	2.21e-09	60.2
leader_consensus	ML1439	97.561	41	1	0	1	41	6987	6947	1.02e-12	71.3
leader_consensus	ML1389	97.561	41	1	0	1	41	9140	9180	1.02e-12	71.3
leader_consensus	ML1383	100.000	38	0	0	1	38	45102	45139	1.02e-12	71.3
leader_consensus	ML1371	100.000	38	0	0	4	41	119775	119738	1.02e-12	71.3
leader_consensus	ML1284	100.000	38	0	0	1	38	354570	354607	1.02e-12	71.3
leader_consensus	ML1276	100.000	38	0	0	4	41	1427	1390	1.02e-12	71.3
leader_consensus	ML1270	97.561	41	1	0	1	41	181206	181246	1.02e-12	71.3
leader_consensus	ML1231	97.619	42	0	1	1	41	31580	31539	1.02e-12	71.3
leader_consensus	ML1207	100.000	38	0	0	2	39	135996	135959	1.02e-12	71.3
leader_consensus	ML1207	90.909	44	1	3	1	41	88906	88863	2.86e-08	56.5
leader_consensus	ML1163	100.000	38	0	0	4	41	82347	82384	1.02e-12	71.3
leader_consensus	ML1029	100.000	38	0	0	4	41	143751	143714	1.02e-12	71.3
leader_consensus	ML0848	100.000	38	0	0	3	40	116338	116301	1.02e-12	71.3
leader_consensus	ML0830	100.000	38	0	0	4	41	285436	285399	1.02e-12	71.3
leader_consensus	ML0788	97.561	41	1	0	1	41	18578	18618	1.02e-12	71.3
leader_consensus	ML0788	95.122	41	2	0	1	41	18208	18168	4.76e-11	65.8
leader_consensus	ML0786	97.561	41	1	0	1	41	10649	10609	1.02e-12	71.3
leader_consensus	ML0780	97.561	41	1	0	1	41	57405	57445	1.02e-12	71.3
leader_consensus	ML0780	95.122	41	2	0	1	41	17547	17507	4.76e-11	65.8
leader_consensus	ML0760	97.561	41	1	0	1	41	55973	56013	1.02e-12	71.3
leader_consensus	ML0760	94.737	38	2	0	4	41	382431	382468	2.21e-09	60.2
leader_consensus	ML0632	97.561	41	1	0	1	41	26731	26771	1.02e-12	71.3
leader_consensus	ML0627	97.561	41	1	0	1	41	47995	48035	1.02e-12	71.3
leader_consensus	ML0544	97.561	41	1	0	1	41	11491	11531	1.02e-12	71.3
leader_consensus	ML0536	97.561	41	1	0	1	41	181900	181860	1.02e-12	71.3
leader_consensus	ML0493	97.561	41	1	0	1	41	24257	24297	1.02e-12	71.3
leader_consensus	ML0482	97.561	41	1	0	1	41	149799	149839	1.02e-12	71.3
leader_consensus	ML0414	97.561	41	1	0	1	41	42049	42089	1.02e-12	71.3
leader_consensus	ML0414	100.000	36	0	0	1	36	42048	42013	1.32e-11	67.6
leader_consensus	ML0367	97.561	41	1	0	1	41	31273	31313	1.02e-12	71.3
leader_consensus	ML0367	97.561	41	1	0	1	41	31744	31784	1.02e-12	71.3
leader_consensus	ML0359	100.000	38	0	0	1	38	111223	111186	1.02e-12	71.3
leader_consensus	ML0353	100.000	38	0	0	4	41	34290	34327	1.02e-12	71.3
leader_consensus	ML0335	100.000	38	0	0	3	40	38776	38813	1.02e-12	71.3
leader_consensus	ML0329	97.561	41	1	0	1	41	100070	100110	1.02e-12	71.3
leader_consensus	ML0325	97.561	41	1	0	1	41	97903	97863	1.02e-12	71.3
leader_consensus	ML0325	97.500	40	1	0	2	41	39049	39010	3.68e-12	69.4
leader_consensus	ML0305	97.561	41	1	0	1	41	172324	172284	1.02e-12	71.3
leader_consensus	ML0250	100.000	38	0	0	4	41	151413	151376	1.02e-12	71.3
leader_consensus	ML0245	100.000	38	0	0	1	38	278	241	1.02e-12	71.3
leader_consensus	ML0183	97.619	42	0	1	1	41	24385	24344	1.02e-12	71.3
leader_consensus	ML0180	97.561	41	1	0	1	41	370559	370519	1.02e-12	71.3
leader_consensus	ML0161	97.561	41	1	0	1	41	13736	13776	1.02e-12	71.3
leader_consensus	ML0161	97.500	40	1	0	1	40	28187	28226	3.68e-12	69.4
leader_consensus	ML0157	100.000	38	0	0	4	41	495115	495078	1.02e-12	71.3
leader_consensus	ML0101	100.000	38	0	0	4	41	230200	230237	1.02e-12	71.3
leader_consensus	ML0101	97.059	34	1	0	1	34	136610	136577	7.96e-09	58.4
leader_consensus	ML0089	97.561	41	1	0	1	41	34881	34841	1.02e-12	71.3
leader_consensus	ML0010	97.561	41	1	0	1	41	22006	22046	1.02e-12	71.3
leader_consensus	ML0006	97.561	41	1	0	1	41	88455	88415	1.02e-12	71.3
leader_consensus	ML2727	100.000	37	0	0	5	41	1758	1794	3.68e-12	69.4
leader_consensus	ML2574	97.500	40	1	0	2	41	63263	63224	3.68e-12	69.4
leader_consensus	ML2189	100.000	37	0	0	5	41	26461	26425	3.68e-12	69.4
leader_consensus	ML2143	97.500	40	1	0	2	41	2640	2679	3.68e-12	69.4
leader_consensus	ML2143	95.000	40	1	1	2	41	179039	179077	6.16e-10	62.1
leader_consensus	ML2083	100.000	37	0	0	5	41	122189	122225	3.68e-12	69.4
leader_consensus	ML2083	100.000	36	0	0	6	41	134946	134911	1.32e-11	67.6
leader_consensus	ML2075	100.000	37	0	0	5	41	15435	15399	3.68e-12	69.4
leader_consensus	ML1393	97.500	40	1	0	2	41	116914	116953	3.68e-12	69.4
leader_consensus	ML1197	100.000	37	0	0	5	41	108652	108616	3.68e-12	69.4
leader_consensus	ML0986	97.561	41	0	1	2	41	73503	73463	3.68e-12	69.4
leader_consensus	ML0772	97.500	40	1	0	2	41	172755	172794	3.68e-12	69.4
leader_consensus	ML0683	97.500	40	1	0	2	41	179688	179727	3.68e-12	69.4
leader_consensus	ML0514	100.000	37	0	0	5	41	71093	71057	3.68e-12	69.4
leader_consensus	ML0336	100.000	37	0	0	5	41	167369	167333	3.68e-12	69.4
leader_consensus	ML0163	97.500	40	1	0	2	41	246846	246885	3.68e-12	69.4
leader_consensus	ML0085	97.500	40	1	0	2	41	67663	67702	3.68e-12	69.4
leader_consensus	ML0051	97.500	40	1	0	2	41	146213	146174	3.68e-12	69.4
leader_consensus	ML4579	100.000	36	0	0	6	41	235	270	1.32e-11	67.6
leader_consensus	ML4321	97.436	39	1	0	3	41	3046	3084	1.32e-11	67.6
leader_consensus	ML3886	97.436	39	1	0	1	39	1768	1730	1.32e-11	67.6
leader_consensus	ML3591	100.000	36	0	0	3	38	98444	98479	1.32e-11	67.6
leader_consensus	ML2699	97.436	39	1	0	3	41	270	232	1.32e-11	67.6
leader_consensus	ML2528	97.436	39	1	0	2	40	75943	75981	1.32e-11	67.6
leader_consensus	ML2235	100.000	36	0	0	6	41	108328	108293	1.32e-11	67.6
leader_consensus	ML1863	97.500	40	0	1	2	41	304	266	1.32e-11	67.6
leader_consensus	ML1863	100.000	33	0	0	5	37	303	335	6.16e-10	62.1
leader_consensus	ML1702	100.000	36	0	0	6	41	5695	5660	1.32e-11	67.6
leader_consensus	ML1397	97.436	39	1	0	3	41	124420	124458	1.32e-11	67.6
leader_consensus	ML1232	97.436	39	1	0	3	41	67647	67685	1.32e-11	67.6
leader_consensus	ML0765	97.436	39	1	0	3	41	1981	1943	1.32e-11	67.6
leader_consensus	ML0751	97.436	39	1	0	1	39	24317	24355	1.32e-11	67.6
leader_consensus	ML0711	100.000	36	0	0	6	41	513781	513816	1.32e-11	67.6
leader_consensus	ML0598	97.436	39	1	0	3	41	105388	105426	1.32e-11	67.6
leader_consensus	ML0547	97.436	39	1	0	3	41	65026	64988	1.32e-11	67.6
leader_consensus	ML0547	100.000	32	0	0	10	41	69947	69978	2.21e-09	60.2
leader_consensus	ML0433	100.000	36	0	0	6	41	129452	129417	1.32e-11	67.6
leader_consensus	ML0433	97.436	39	0	1	3	41	165664	165701	4.76e-11	65.8
leader_consensus	ML0433	96.970	33	1	0	9	41	105240	105208	2.86e-08	56.5
leader_consensus	ML0221	97.436	39	1	0	3	41	49200	49238	1.32e-11	67.6
leader_consensus	ML0221	96.970	33	0	1	3	34	49203	49171	1.03e-07	54.7
leader_consensus	ML0216	97.436	39	1	0	3	41	48848	48810	1.32e-11	67.6
leader_consensus	ML0179	97.436	39	1	0	3	41	519797	519835	1.32e-11	67.6
leader_consensus	ML3614	97.368	38	1	0	4	41	1082	1119	4.76e-11	65.8
leader_consensus	ML3299	95.122	41	2	0	1	41	97258	97218	4.76e-11	65.8
leader_consensus	ML2180	97.368	38	1	0	4	41	30035	30072	4.76e-11	65.8
leader_consensus	ML1360	97.368	38	1	0	4	41	129680	129717	4.76e-11	65.8
leader_consensus	ML1067	100.000	35	0	0	7	41	1013	979	4.76e-11	65.8
leader_consensus	ML1011	95.122	41	2	0	1	41	24385	24425	4.76e-11	65.8
leader_consensus	ML0969	100.000	35	0	0	7	41	177539	177573	4.76e-11	65.8
leader_consensus	ML0766	95.238	42	1	1	1	41	4205	4164	4.76e-11	65.8
leader_consensus	ML0492	97.368	38	1	0	4	41	19059	19022	4.76e-11	65.8
leader_consensus	ML0435	95.122	41	2	0	1	41	71206	71166	4.76e-11	65.8
leader_consensus	ML0398	97.368	38	1	0	4	41	10553	10516	4.76e-11	65.8
leader_consensus	ML0198	97.368	38	1	0	4	41	125202	125239	4.76e-11	65.8
leader_consensus	ML0073	97.368	38	1	0	1	38	221449	221412	4.76e-11	65.8
leader_consensus	ML0073	100.000	34	0	0	8	41	200871	200838	1.71e-10	63.9
leader_consensus	ML0073	100.000	29	0	0	13	41	299000	298972	1.03e-07	54.7
leader_consensus	ML0073	100.000	28	0	0	7	34	299030	299003	3.71e-07	52.8
leader_consensus	ML0069	95.238	42	1	1	1	41	259466	259425	4.76e-11	65.8
leader_consensus	ML4469	95.000	40	2	0	1	40	654	615	1.71e-10	63.9
leader_consensus	ML3975	100.000	34	0	0	8	41	560	527	1.71e-10	63.9
leader_consensus	ML2267	97.297	37	1	0	5	41	102996	102960	1.71e-10	63.9
leader_consensus	ML1496	100.000	34	0	0	7	40	343267	343300	1.71e-10	63.9
leader_consensus	ML1316	100.000	34	0	0	8	41	81549	81516	1.71e-10	63.9
leader_consensus	ML0942	100.000	34	0	0	8	41	34324	34357	1.71e-10	63.9
leader_consensus	ML0776	95.000	40	2	0	2	41	428210	428249	1.71e-10	63.9
leader_consensus	ML0733	100.000	34	0	0	5	38	24794	24827	1.71e-10	63.9
leader_consensus	ML0732	97.297	37	1	0	2	38	417238	417274	1.71e-10	63.9
leader_consensus	ML0655	95.000	40	2	0	2	41	44940	44979	1.71e-10	63.9
leader_consensus	ML0616	97.297	37	1	0	4	40	15919	15955	1.71e-10	63.9
leader_consensus	ML0571	100.000	34	0	0	1	34	25875	25908	1.71e-10	63.9
leader_consensus	ML0087	100.000	34	0	0	8	41	112784	112751	1.71e-10	63.9
leader_consensus	ML2163	100.000	33	0	0	6	38	103034	103002	6.16e-10	62.1
leader_consensus	ML0778	100.000	33	0	0	1	33	3193	3161	6.16e-10	62.1
leader_consensus	ML0460	97.222	36	1	0	6	41	35137	35172	6.16e-10	62.1
leader_consensus	ML0452	97.297	37	0	1	5	41	160366	160331	6.16e-10	62.1
leader_consensus	ML0405	95.000	40	1	1	3	41	39909	39870	6.16e-10	62.1
leader_consensus	ML0405	96.970	33	1	0	4	36	39907	39939	2.86e-08	56.5
leader_consensus	ML0203	97.222	36	1	0	1	36	44761	44796	6.16e-10	62.1
leader_consensus	ML0203	100.000	32	0	0	10	41	44696	44665	2.21e-09	60.2
leader_consensus	ML2366	97.143	35	1	0	7	41	11746	11712	2.21e-09	60.2
leader_consensus	ML2252	100.000	32	0	0	10	41	186489	186520	2.21e-09	60.2
leader_consensus	ML1095	93.023	43	0	3	1	41	28972	29013	2.21e-09	60.2
leader_consensus	ML0983	100.000	32	0	0	1	32	100988	101019	2.21e-09	60.2
leader_consensus	ML0901	100.000	32	0	0	10	41	225835	225866	2.21e-09	60.2
leader_consensus	ML0824	93.023	43	0	3	1	41	271	312	2.21e-09	60.2
leader_consensus	ML3143	92.683	41	2	1	1	41	893	932	7.96e-09	58.4
leader_consensus	ML1377	92.500	40	3	0	2	41	31368	31407	7.96e-09	58.4
leader_consensus	ML0383	100.000	31	0	0	5	35	31896	31926	7.96e-09	58.4
leader_consensus	ML0096	100.000	30	0	0	12	41	57501	57472	2.86e-08	56.5
leader_consensus	ML4721	100.000	29	0	0	1	29	1115	1143	1.03e-07	54.7
leader_consensus	ML2165	96.970	33	0	1	10	41	12778	12810	1.03e-07	54.7
leader_consensus	ML0233	100.000	29	0	0	3	31	44835	44807	1.03e-07	54.7
leader_consensus	ML0055	100.000	29	0	0	13	41	84979	85007	1.03e-07	54.7
leader_consensus	ML0038	100.000	29	0	0	13	41	2806	2834	1.03e-07	54.7
leader_consensus	ML2927	100.000	28	0	0	14	41	4583	4556	3.71e-07	52.8
leader_consensus	ML1286	100.000	28	0	0	14	41	56486	56513	3.71e-07	52.8
