{
   "formatVersion" : 1,
   "names" : {
      "type" : "Hash",
      "url" : "names/"
   },
   "tracks" : [
      {
         "category" : "Reference sequence",
         "faiUrlTemplate" : "seq/MlScaffold09.nt.fa.fai",
         "key" : "Reference sequence",
         "label" : "DNA",
         "seqType" : "dna",
         "storeClass" : "JBrowse/Store/Sequence/IndexedFasta",
         "type" : "SequenceTrack",
         "urlTemplate" : "seq/MlScaffold09.nt.fa",
         "useAsRefSeqStore" : 1
      },
      {
         "compress" : 0,
         "key" : "ML2.2",
         "label" : "ML2.2",
         "labelTranscripts" : false,
         "storeClass" : "JBrowse/Store/SeqFeature/NCList",
         "style" : {
            "className" : "feature",
            "color" : "function(feature) { return feature.get('strand')==1 ?'#005824':'#66c2a4'; }",
            "utrColor" : "#a6bddb"
         },
         "trackType" : "CanvasFeatures",
         "type" : "CanvasFeatures",
         "urlTemplate" : "tracks/ML2.2/{refseq}/trackData.json"
      },
      {
         "compress" : 0,
         "key" : "MLRB2.2",
         "label" : "MLRB2.2",
         "labelTranscripts" : false,
         "storeClass" : "JBrowse/Store/SeqFeature/NCList",
         "style" : {
            "className" : "feature",
            "color" : "function(feature) { return feature.get('strand')==1 ?'#005824':'#66c2a4'; }"
         },
         "trackType" : "CanvasFeatures",
         "type" : "CanvasFeatures",
         "urlTemplate" : "tracks/MLRB2.2/{refseq}/trackData.json"
      },
      {
         "compress" : 0,
         "key" : "Trinity",
         "label" : "Trinity",
         "storeClass" : "JBrowse/Store/SeqFeature/NCList",
         "style" : {
            "className" : "feature",
            "color" : "function(feature) { return feature.get('strand')==1 ?'#cc4c02':'#fec44f'; }"
         },
         "trackType" : "CanvasFeatures",
         "type" : "CanvasFeatures",
         "urlTemplate" : "tracks/Trinity/{refseq}/trackData.json"
      },
      {
         "compress" : 0,
         "key" : "StringTie",
         "label" : "StringTie",
         "storeClass" : "JBrowse/Store/SeqFeature/NCList",
         "style" : {
            "className" : "feature",
            "color" : "function(feature) { return feature.get('strand')==1 ?'#9c4c02':'#fea44f'; }"
         },
         "trackType" : "CanvasFeatures",
         "type" : "CanvasFeatures",
         "urlTemplate" : "tracks/StringTie/{refseq}/trackData.json"
      },
      {
         "compress" : 0,
         "key" : "GFAT01-transcripts",
         "label" : "GFAT01-transcripts",
         "storeClass" : "JBrowse/Store/SeqFeature/NCList",
         "style" : {
            "className" : "feature",
            "color" : "function(feature) { return feature.get('strand')==1 ?'#cc4c02':'#fec44f'; }"
         },
         "subParts" : "exon",
         "trackType" : "CanvasFeatures",
         "type" : "CanvasFeatures",
         "urlTemplate" : "tracks/GFAT01-transcripts/{refseq}/trackData.json"
      },
      {
         "compress" : 0,
         "key" : "Illumina-txome",
         "label" : "Illumina-txome",
         "storeClass" : "JBrowse/Store/SeqFeature/NCList",
         "style" : {
            "className" : "feature",
            "color" : "function(feature) { return feature.get('strand')==1 ?'#cc4c02':'#fec44f'; }"
         },
         "subParts" : "exon",
         "trackType" : "CanvasFeatures",
         "type" : "CanvasFeatures",
         "urlTemplate" : "tracks/Illumina-txome/{refseq}/trackData.json"
      },
      {
         "compress" : 0,
         "key" : "ML2.3",
         "label" : "ML2.3",
         "storeClass" : "JBrowse/Store/SeqFeature/NCList",
         "style" : {
            "className" : "feature",
            "color" : "function(feature) { return feature.get('strand')==1 ?'#002458':'#66a4c2'; }"
         },
         "subParts" : "exon,CDS",
         "trackType" : "CanvasFeatures",
         "transcriptType" : "transcript",
         "type" : "CanvasFeatures",
         "urlTemplate" : "tracks/ML2.3/{refseq}/trackData.json"
      },
      {
         "category" : "Reference sequence",
         "compress" : 0,
         "key" : "N-gaps",
         "label" : "N-gaps",
         "storeClass" : "JBrowse/Store/SeqFeature/NCList",
         "style" : {
            "className" : "feature",
            "color" : "#000000",
            "height" : 5,
            "label" : "score"
         },
         "trackType" : "CanvasFeatures",
         "type" : "CanvasFeatures",
         "urlTemplate" : "tracks/N-gaps/{refseq}/trackData.json"
      },
      {
         "compress" : 0,
         "key" : "blast-vs-models",
         "label" : "blast-vs-models",
         "onClick" : {
            "action" : "newWindow",
            "label" : "function() { return this.feature.get('score') + ' : ' + this.feature.get('target') ; }",
            "title" : "{name} {type}",
            "url" : "https://www.uniprot.org/uniprot/{accession}"
         },
         "storeClass" : "JBrowse/Store/SeqFeature/NCList",
         "style" : {
            "className" : "feature",
            "color" : "function(feature) { return feature._parent.get('same_sense')==1 ?'#2564b4' : '#fe6f4f'; }",
            "label" : "target"
         },
         "trackType" : "CanvasFeatures",
         "type" : "CanvasFeatures",
         "urlTemplate" : "tracks/blast-vs-models/{refseq}/trackData.json"
      },
      {
         "key" : "MARS plus",
         "label" : "marsplus",
         "max_score" : 5,
         "min_score" : 0,
         "scale" : "linear",
         "storeClass" : "JBrowse/Store/SeqFeature/BigWig",
         "style" : {
            "height" : 30,
            "pos_color" : "#005555"
         },
         "type" : "JBrowse/View/Track/Wiggle/XYPlot",
         "urlTemplate" : "Mlei_MARS_plus.bw"
      },
      {
         "key" : "MARS minus",
         "label" : "marsminus",
         "max_score" : 5,
         "min_score" : 0,
         "scale" : "linear",
         "storeClass" : "JBrowse/Store/SeqFeature/BigWig",
         "style" : {
            "height" : 30,
            "pos_color" : "#33bbbb"
         },
         "type" : "JBrowse/View/Track/Wiggle/XYPlot",
         "urlTemplate" : "Mlei_MARS_minus.bw"
      },
      {
         "compress" : 0,
         "key" : "blast-vs-hcal",
         "label" : "blast-vs-hcal",
         "onClick" : {
            "label" : "function() { return this.feature.get('score') + ' : ' + this.feature.get('target') ; }",
            "title" : "{name} {type}"
         },
         "storeClass" : "JBrowse/Store/SeqFeature/NCList",
         "style" : {
            "className" : "feature",
            "color" : "function(feature) { return feature._parent.get('same_sense')==1 ?'#25b464' : '#fe6f4f'; }",
            "label" : "target"
         },
         "trackType" : "CanvasFeatures",
         "type" : "CanvasFeatures",
         "urlTemplate" : "tracks/blast-vs-hcal/{refseq}/trackData.json"
      },
      {
         "compress" : 0,
         "key" : "leader-seq",
         "label" : "leader-seq",
         "storeClass" : "JBrowse/Store/SeqFeature/NCList",
         "style" : {
            "className" : "feature"
         },
         "trackType" : "CanvasFeatures",
         "type" : "CanvasFeatures",
         "urlTemplate" : "tracks/leader-seq/{refseq}/trackData.json"
      }
   ]
}
