{
   "formatVersion" : 1,
   "names" : {
      "type" : "Hash",
      "url" : "names/"
   },
   "tracks" : [
      {
         "category" : "Reference sequence",
         "faiUrlTemplate" : "seq/UCSC_Hcal_v1.fa.fai",
         "key" : "Reference sequence",
         "label" : "DNA",
         "seqType" : "dna",
         "storeClass" : "JBrowse/Store/Sequence/IndexedFasta",
         "type" : "SequenceTrack",
         "urlTemplate" : "seq/UCSC_Hcal_v1.fa",
         "useAsRefSeqStore" : 1
      },
      {
         "category" : "Reference sequence",
         "compress" : 0,
         "key" : "N-gaps",
         "label" : "N-gaps",
         "storeClass" : "JBrowse/Store/SeqFeature/NCList",
         "style" : {
            "className" : "feature",
            "color" : "#000000",
            "height" : 5,
            "label" : "score"
         },
         "trackType" : "CanvasFeatures",
         "type" : "CanvasFeatures",
         "urlTemplate" : "tracks/N-gaps/{refseq}/trackData.json"
      },
      {
         "category" : "Transcripts",
         "compress" : 0,
         "histograms" : {
            "color" : "#a50f15"
         },
         "key" : "Trinity-D914",
         "label" : "Trinity-D914",
         "storeClass" : "JBrowse/Store/SeqFeature/NCList",
         "style" : {
            "className" : "feature",
            "color" : "function(feature) { return feature.get('strand')==1 ?'#a50f15':'#fb6a4a'; }"
         },
         "trackType" : "CanvasFeatures",
         "type" : "CanvasFeatures",
         "urlTemplate" : "tracks/Trinity-D914/{refseq}/trackData.json"
      },
      {
         "category" : "Gene models",
         "compress" : 0,
         "histograms" : {
            "color" : "#0fa515"
         },
         "key" : "AUGUSTUS",
         "label" : "AUGUSTUS",
         "storeClass" : "JBrowse/Store/SeqFeature/NCList",
         "style" : {
            "className" : "feature",
            "color" : "function(feature) { return feature.get('strand')==1 ?'#0fa515':'#6afb4a'; }"
         },
         "trackType" : "CanvasFeatures",
         "type" : "CanvasFeatures",
         "urlTemplate" : "tracks/AUGUSTUS/{refseq}/trackData.json"
      },
      {
         "category" : "Gene models",
         "compress" : 0,
         "key" : "blast-v-models",
         "label" : "blast-v-models",
         "onClick" : {
            "action" : "newWindow",
            "label" : "function() { return this.feature.get('score') + ' : ' + this.feature.get('target'); }",
            "title" : "{name} {type}",
            "url" : "https://www.uniprot.org/uniprot/{accession}"
         },
         "storeClass" : "JBrowse/Store/SeqFeature/NCList",
         "style" : {
            "className" : "feature",
            "color" : "#253494"
         },
         "trackType" : "CanvasFeatures",
         "type" : "CanvasFeatures",
         "urlTemplate" : "tracks/blast-v-models/{refseq}/trackData.json"
      },
      {
         "category" : "Long Reads",
         "compress" : 0,
         "key" : "B1-LR-StringTie",
         "label" : "B1-LR-StringTie",
         "storeClass" : "JBrowse/Store/SeqFeature/NCList",
         "style" : {
            "className" : "feature",
            "color" : "function(feature) { return feature.get('strand')==1 ?'#005824':'#66c2a4'; }"
         },
         "subParts" : "exon",
         "trackType" : "CanvasFeatures",
         "type" : "CanvasFeatures",
         "urlTemplate" : "tracks/B1-LR-StringTie/{refseq}/trackData.json"
      },
      {
         "category" : "Long Reads",
         "compress" : 0,
         "histograms" : {
            "color" : "#2564b4"
         },
         "key" : "StringTie-v-ML2",
         "label" : "StringTie-v-ML2",
         "onClick" : {
            "label" : "function() { return this.feature.get('score') + ' : ' + this.feature.get('target') ; }",
            "title" : "{name} {type}"
         },
         "storeClass" : "JBrowse/Store/SeqFeature/NCList",
         "style" : {
            "className" : "feature",
            "color" : "function(feature) { return feature._parent.get('same_sense')==1 ?'#2564b4' : '#fe6f4f'; }"
         },
         "trackType" : "CanvasFeatures",
         "type" : "CanvasFeatures",
         "urlTemplate" : "tracks/StringTie-v-ML2/{refseq}/trackData.json"
      },
      {
         "category" : "Long Reads",
         "compress" : 0,
         "histograms" : {
            "color" : "#253494"
         },
         "key" : "StringTie-v-models",
         "label" : "StringTie-v-models",
         "onClick" : {
            "action" : "newWindow",
            "label" : "function() { return this.feature.get('score') + ' : ' + this.feature.get('target') ; }",
            "title" : "{name} {type}",
            "url" : "https://www.uniprot.org/uniprot/{accession}"
         },
         "storeClass" : "JBrowse/Store/SeqFeature/NCList",
         "style" : {
            "className" : "feature",
            "color" : "function(feature) { return feature._parent.get('same_sense')==1 ?'#253494' : '#fe6f4f'; }"
         },
         "trackType" : "CanvasFeatures",
         "type" : "CanvasFeatures",
         "urlTemplate" : "tracks/StringTie-v-models/{refseq}/trackData.json"
      },
      {
         "category" : "Long Reads",
         "compress" : 0,
         "key" : "pinfish-c2p20",
         "label" : "pinfish-c2p20",
         "storeClass" : "JBrowse/Store/SeqFeature/NCList",
         "style" : {
            "className" : "feature",
            "color" : "function(feature) { return feature.get('strand')==1 ?'#005844':'#76c2b4'; }"
         },
         "subParts" : "exon",
         "trackType" : "CanvasFeatures",
         "type" : "CanvasFeatures",
         "urlTemplate" : "tracks/pinfish-c2p20/{refseq}/trackData.json"
      },
      {
         "category" : "Long Reads",
         "compress" : 0,
         "key" : "Isoseq-filt",
         "label" : "Isoseq-filt",
         "storeClass" : "JBrowse/Store/SeqFeature/NCList",
         "style" : {
            "className" : "feature",
            "color" : "function(feature) { return feature.get('strand')==1 ?'#002458':'#66a4c2'; }"
         },
         "subParts" : "exon",
         "trackType" : "CanvasFeatures",
         "type" : "CanvasFeatures",
         "urlTemplate" : "tracks/Isoseq-filt/{refseq}/trackData.json"
      },
      {
         "category" : "Long Reads",
         "compress" : 0,
         "key" : "BL-stringtie-f01",
         "label" : "BL-stringtie-f01",
         "storeClass" : "JBrowse/Store/SeqFeature/NCList",
         "style" : {
            "className" : "feature",
            "color" : "function(feature) { return feature.get('strand')==1 ?'#005824':'#66c2a4'; }"
         },
         "subParts" : "exon",
         "trackType" : "CanvasFeatures",
         "type" : "CanvasFeatures",
         "urlTemplate" : "tracks/BL-stringtie-f01/{refseq}/trackData.json"
      },
      {
         "category" : "Manual",
         "compress" : 0,
         "key" : "Hcalv1-manual",
         "label" : "Hcalv1-manual",
         "storeClass" : "JBrowse/Store/SeqFeature/NCList",
         "style" : {
            "className" : "feature",
            "color" : "function(feature) { return feature.get('strand')==1 ?'#002458':'#66a4c2'; }"
         },
         "subParts" : "exon",
         "trackType" : "CanvasFeatures",
         "transcriptType" : "transcript",
         "type" : "CanvasFeatures",
         "urlTemplate" : "tracks/Hcalv1-manual/{refseq}/trackData.json"
      },
      {
         "category" : "Comparative Genomics",
         "compress" : 0,
         "key" : "ML2-microsynteny",
         "label" : "ML2-microsynteny",
         "storeClass" : "JBrowse/Store/SeqFeature/NCList",
         "style" : {
            "className" : "feature",
            "color" : "function(feature) { return feature.get('strand')==1 ?'#4a1486':'#1d91c0'; }"
         },
         "trackType" : "CanvasFeatures",
         "type" : "CanvasFeatures",
         "urlTemplate" : "tracks/ML2-microsynteny/{refseq}/trackData.json"
      },
      {
         "category" : "Comparative Genomics",
         "compress" : 0,
         "key" : "Pbac-microsynteny",
         "label" : "Pbac-microsynteny",
         "storeClass" : "JBrowse/Store/SeqFeature/NCList",
         "style" : {
            "className" : "feature",
            "color" : "function(feature) { return feature.get('strand')==1 ?'#4a1486':'#1d91c0'; }"
         },
         "trackType" : "CanvasFeatures",
         "type" : "CanvasFeatures",
         "urlTemplate" : "tracks/Pbac-microsynteny/{refseq}/trackData.json"
      },
      {
         "category" : "Long Reads",
         "compress" : 0,
         "key" : "isoseq-singleton",
         "label" : "isoseq-singleton",
         "storeClass" : "JBrowse/Store/SeqFeature/NCList",
         "style" : {
            "className" : "feature",
            "color" : "function(feature) { return feature.get('strand')==1 ?'#002458':'#66a4c2'; }"
         },
         "subParts" : "exon",
         "trackType" : "CanvasFeatures",
         "type" : "CanvasFeatures",
         "urlTemplate" : "tracks/isoseq-singleton/{refseq}/trackData.json"
      },
      {
         "category" : "Manual",
         "compress" : 0,
         "histograms" : {
            "color" : "#253494"
         },
         "key" : "v1-vs-ML2",
         "label" : "v1-vs-ML2",
         "onClick" : {
            "action" : "defaultDialog",
            "label" : "function() { return this.feature.get('score') + ' : ' + this.feature.get('target') ; }",
            "title" : "{name} {type}"
         },
         "storeClass" : "JBrowse/Store/SeqFeature/NCList",
         "style" : {
            "className" : "feature",
            "color" : "function(feature) { return feature._parent.get('same_sense')==1 ?'#2564b4' : '#fe6f4f'; }"
         },
         "trackType" : "CanvasFeatures",
         "type" : "CanvasFeatures",
         "urlTemplate" : "tracks/v1-vs-ML2/{refseq}/trackData.json"
      },
      {
         "label" : "not_in_horm.bam",
         "storeClass" : "JBrowse/Store/SeqFeature/BAM",
         "type" : "JBrowse/View/Track/Alignments2",
         "urlTemplate" : "pbachei_03_filtered_gene_models_transcripts.not_in_horm.bam"
      },
      {
         "compress" : 0,
         "key" : "Hcv1av91",
         "label" : "Hcv1av91",
         "storeClass" : "JBrowse/Store/SeqFeature/NCList",
         "style" : {
            "className" : "feature",
            "color" : "function(feature) { return feature.get('strand')==1 ?'#002458':'#66a4c2'; }"
         },
         "subParts" : "exon",
         "trackType" : "CanvasFeatures",
         "transcriptType" : "transcript",
         "type" : "CanvasFeatures",
         "urlTemplate" : "tracks/Hcv1av91/{refseq}/trackData.json"
      }
   ]
}
