Scaffold_1;HRSCAF=1	1	3766	16	0.00	0
Scaffold_5;HRSCAF=6	5	3178	440	0.00	0
Scaffold_10;HRSCAF=12	10	3189	58	0.00	0
Scaffold_11;HRSCAF=13	11	16061	34	0.00	0
Scaffold_14;HRSCAF=16	14	1530	23	0.00	0
Scaffold_15;HRSCAF=17	15	5973	130	0.00	0
Scaffold_17;HRSCAF=19	17	16391	70	0.00	0
Scaffold_25;HRSCAF=29	25	6306	20	0.00	0
Scaffold_26;HRSCAF=30	26	13089	43	0.00	0
Scaffold_29;HRSCAF=35	29	7442	238	0.00	0
Scaffold_32;HRSCAF=38	32	6646	46	0.00	0
Scaffold_35;HRSCAF=41	35	6199	36	0.00	0
Scaffold_38;HRSCAF=44	38	3223	35	0.00	0
Scaffold_42;HRSCAF=53	42	12208	91	0.00	0
Scaffold_43;HRSCAF=55	43	5556	38	0.00	0
Scaffold_48;HRSCAF=62	48	954	56	0.00	0
Scaffold_61;HRSCAF=77	61	6990	3	0.00	0
Scaffold_63;HRSCAF=79	63	3712	196	0.00	0
Scaffold_65;HRSCAF=81	65	19765	50	0.00	0
Scaffold_68;HRSCAF=84	68	18419	25	0.00	0
Scaffold_69;HRSCAF=85	69	7047	106	0.00	0
Scaffold_74;HRSCAF=90	74	10963	49	0.00	0
Scaffold_75;HRSCAF=91	75	8223	3	0.00	0
Scaffold_77;HRSCAF=93	77	5852	78	0.00	0
Scaffold_79;HRSCAF=96	79	26850	30	0.00	1000
Scaffold_88;HRSCAF=107	88	1344	43	0.00	0
Scaffold_94;HRSCAF=115	94	14553	56	0.00	0
Scaffold_96;HRSCAF=118	96	23755	35	0.00	0
Scaffold_98;HRSCAF=120	98	6563	30	0.00	0
Scaffold_100;HRSCAF=122	100	6201	17	0.00	0
Scaffold_104;HRSCAF=128	104	7664	32	0.00	0
Scaffold_109;HRSCAF=133	109	5985	36	0.00	0
Scaffold_110;HRSCAF=134	110	38283	35	0.00	0
Scaffold_111;HRSCAF=136	111	14117	21	0.00	0
Scaffold_120;HRSCAF=149	120	10422	64	0.00	0
Scaffold_121;HRSCAF=150	121	23462	19	0.00	0
Scaffold_125;HRSCAF=154	125	35003	26	0.00	0
Scaffold_127;HRSCAF=156	127	11031	39	0.00	0
Scaffold_129;HRSCAF=160	129	26444	42	0.00	0
Scaffold_130;HRSCAF=162	130	14015	18	0.00	0
Scaffold_131;HRSCAF=163	131	26491	44	0.00	0
Scaffold_134;HRSCAF=166	134	7039	17	0.00	0
Scaffold_150;HRSCAF=189	150	12596	41	0.00	0
Scaffold_160;HRSCAF=203	160	3651	27	0.00	0
Scaffold_162;HRSCAF=205	162	5227	36	0.00	0
Scaffold_165;HRSCAF=209	165	23724	55	0.00	0
Scaffold_170;HRSCAF=215	170	5231	266	0.00	0
Scaffold_178;HRSCAF=228	178	8210	58	0.00	0
Scaffold_179;HRSCAF=229	179	13178	29	0.00	0
Scaffold_183;HRSCAF=233	183	33135	46	0.00	0
Scaffold_187;HRSCAF=237	187	2988	301	0.00	0
Scaffold_192;HRSCAF=243	192	22368	36	0.00	0
Scaffold_203;HRSCAF=254	203	13601	31	0.00	0
Scaffold_208;HRSCAF=261	208	24325	59	0.00	0
Scaffold_213;HRSCAF=268	213	20394	37	0.00	0
Scaffold_214;HRSCAF=269	214	30608	36	0.00	0
Scaffold_219;HRSCAF=275	219	44481	28	0.00	0
Scaffold_222;HRSCAF=280	222	9841	21	0.00	0
Scaffold_225;HRSCAF=283	225	1317	16	0.00	0
Scaffold_230;HRSCAF=290	230	14678	34	0.00	0
Scaffold_234;HRSCAF=294	234	13443	205	0.00	0
Scaffold_239;HRSCAF=300	239	11316	53	0.00	0
Scaffold_240;HRSCAF=302	240	825	21	0.00	0
Scaffold_241;HRSCAF=303	241	18365	55	0.00	0
Scaffold_245;HRSCAF=308	245	28330	29	0.00	0
Scaffold_246;HRSCAF=309	246	6955	421	0.00	0
Scaffold_247;HRSCAF=310	247	1556	200	0.00	0
Scaffold_248;HRSCAF=312	248	3720	283	0.00	0
Scaffold_255;HRSCAF=319	255	43331	24	0.00	0
Scaffold_258;HRSCAF=324	258	3493	23	0.00	0
Scaffold_260;HRSCAF=326	260	880	52	0.00	0
Scaffold_263;HRSCAF=329	263	18223	39	0.00	0
Scaffold_264;HRSCAF=331	264	11089	25	0.00	0
Scaffold_269;HRSCAF=336	269	13182	24	0.00	0
Scaffold_296;HRSCAF=375	296	27846	50	0.00	0
Scaffold_301;HRSCAF=380	301	10604	6	0.00	0
Scaffold_304;HRSCAF=383	304	516	490	0.00	0
Scaffold_314;HRSCAF=395	314	5327	23	0.00	0
Scaffold_316;HRSCAF=397	316	9644	28	0.00	0
Scaffold_319;HRSCAF=400	319	20730	29	0.00	0
Scaffold_322;HRSCAF=404	322	4790	33	0.00	0
Scaffold_332;HRSCAF=418	332	18859	26	0.00	0
Scaffold_340;HRSCAF=429	340	15046	42	0.00	0
Scaffold_342;HRSCAF=431	342	1872	354	0.00	0
Scaffold_345;HRSCAF=435	345	15347	57	0.00	0
Scaffold_347;HRSCAF=437	347	3313	201	0.00	0
Scaffold_356;HRSCAF=448	356	2940	284	0.00	0
Scaffold_362;HRSCAF=458	362	12353	35	0.00	0
Scaffold_364;HRSCAF=461	364	8601	52	0.00	0
Scaffold_372;HRSCAF=471	372	28201	31	0.00	0
Scaffold_373;HRSCAF=473	373	16008	40	0.00	0
Scaffold_374;HRSCAF=474	374	1778	736	0.00	0
Scaffold_376;HRSCAF=476	376	686	92	0.00	0
Scaffold_381;HRSCAF=481	381	5381	30	0.00	0
Scaffold_386;HRSCAF=489	386	21157	34	0.00	0
Scaffold_400;HRSCAF=507	400	27921	39	0.00	0
Scaffold_401;HRSCAF=508	401	3941	9	0.00	0
Scaffold_409;HRSCAF=516	409	8118	30	0.00	0
Scaffold_412;HRSCAF=519	412	2654	20	0.00	0
Scaffold_432;HRSCAF=541	432	2763	88	0.00	0
Scaffold_438;HRSCAF=549	438	19440	51	0.00	0
Scaffold_440;HRSCAF=551	440	3315	61	0.00	0
Scaffold_442;HRSCAF=553	442	9790	46	0.00	0
Scaffold_444;HRSCAF=556	444	789	38	0.00	0
Scaffold_445;HRSCAF=557	445	6053	259	0.00	0
Scaffold_460;HRSCAF=574	460	2286	50	0.00	0
Scaffold_462;HRSCAF=577	462	3162	3	0.00	0
Scaffold_467;HRSCAF=584	467	4741	56	0.00	0
Scaffold_469;HRSCAF=588	469	36814	28	0.00	0
Scaffold_470;HRSCAF=589	470	359	14	0.00	0
Scaffold_473;HRSCAF=592	473	4198	14	0.00	0
Scaffold_478;HRSCAF=597	478	1231	193	0.00	0
Scaffold_479;HRSCAF=598	479	824	279	0.00	0
Scaffold_483;HRSCAF=602	483	1977	186	0.00	0
Scaffold_484;HRSCAF=603	484	28543	23	0.00	0
Scaffold_488;HRSCAF=607	488	7419	139	0.00	0
Scaffold_491;HRSCAF=610	491	15211	71	0.00	0
Scaffold_492;HRSCAF=611	492	1572	54	0.00	0
Scaffold_493;HRSCAF=612	493	2607	27	0.00	0
Scaffold_500;HRSCAF=619	500	933	20	0.00	0
Scaffold_509;HRSCAF=628	509	8357	17	0.00	0
Scaffold_515;HRSCAF=635	515	10272	29	0.00	0
Scaffold_519;HRSCAF=640	519	11444	85	0.00	0
Scaffold_520;HRSCAF=643	520	14650	95	0.00	0
Scaffold_522;HRSCAF=646	522	13843	33	0.00	0
Scaffold_530;HRSCAF=657	530	8974	109	0.00	0
Scaffold_534;HRSCAF=661	534	10716	42	0.00	0
Scaffold_537;HRSCAF=666	537	28158	16	0.00	0
Scaffold_539;HRSCAF=668	539	1881	32	0.00	0
Scaffold_548;HRSCAF=680	548	16258	25	0.00	0
Scaffold_554;HRSCAF=688	554	7282	177	0.00	0
Scaffold_558;HRSCAF=692	558	12245	62	0.00	0
Scaffold_560;HRSCAF=694	560	38198	53	0.00	0
Scaffold_561;HRSCAF=695	561	24369	72	0.00	0
Scaffold_563;HRSCAF=698	563	28887	37	0.00	0
Scaffold_564;HRSCAF=699	564	2426	15	0.00	0
Scaffold_571;HRSCAF=706	571	7934	25	0.00	0
Scaffold_574;HRSCAF=710	574	18317	54	0.00	0
Scaffold_575;HRSCAF=711	575	6359	34	0.00	0
Scaffold_576;HRSCAF=712	576	17182	67	0.00	0
Scaffold_588;HRSCAF=727	588	13977	20	0.00	0
Scaffold_589;HRSCAF=728	589	39549	39	0.00	0
Scaffold_591;HRSCAF=730	591	3604	33	0.00	0
Scaffold_592;HRSCAF=732	592	7570	32	0.00	0
Scaffold_593;HRSCAF=735	593	31860	44	0.00	0
Scaffold_596;HRSCAF=739	596	34243	32	0.00	0
Scaffold_603;HRSCAF=748	603	760	380	0.00	0
Scaffold_605;HRSCAF=751	605	23348	26	0.00	0
Scaffold_609;HRSCAF=757	609	19137	23	0.00	0
Scaffold_620;HRSCAF=770	620	7138	11	0.00	0
Scaffold_621;HRSCAF=771	621	3221	46	0.00	0
Scaffold_623;HRSCAF=773	623	5332	313	0.00	0
Scaffold_634;HRSCAF=786	634	12156	46	0.00	0
Scaffold_638;HRSCAF=790	638	21998	48	0.00	0
Scaffold_640;HRSCAF=792	640	6501	2	0.00	0
Scaffold_644;HRSCAF=796	644	7882	35	0.00	0
Scaffold_647;HRSCAF=799	647	26824	44	0.00	0
Scaffold_653;HRSCAF=806	653	9867	25	0.00	0
Scaffold_662;HRSCAF=816	662	7516	36	0.00	0
Scaffold_663;HRSCAF=817	663	17278	14	0.00	0
Scaffold_664;HRSCAF=818	664	2802	74	0.00	0
Scaffold_666;HRSCAF=820	666	12753	38	0.00	0
Scaffold_680;HRSCAF=837	680	9436	32	0.00	0
Scaffold_687;HRSCAF=848	687	26393	41	0.00	0
Scaffold_688;HRSCAF=849	688	40453	37	0.00	0
Scaffold_692;HRSCAF=853	692	23558	41	0.00	0
Scaffold_696;HRSCAF=858	696	11449	66	0.00	0
Scaffold_698;HRSCAF=861	698	913	46	0.00	0
Scaffold_700;HRSCAF=863	700	10444	31	0.00	0
Scaffold_701;HRSCAF=864	701	4192	141	0.00	0
Scaffold_702;HRSCAF=865	702	7924	131	0.00	0
Scaffold_705;HRSCAF=868	705	7319	45	0.00	0
Scaffold_709;HRSCAF=872	709	16547	15	0.00	0
Scaffold_714;HRSCAF=877	714	11957	34	0.00	0
Scaffold_717;HRSCAF=880	717	442	22	0.00	0
Scaffold_718;HRSCAF=881	718	44763	27	0.00	0
Scaffold_721;HRSCAF=884	721	32296	31	0.00	0
Scaffold_723;HRSCAF=886	723	9793	69	0.00	0
Scaffold_724;HRSCAF=887	724	6087	15	0.00	0
Scaffold_726;HRSCAF=889	726	19804	86	0.00	0
Scaffold_729;HRSCAF=893	729	9610	33	0.00	0
Scaffold_736;HRSCAF=901	736	10752	36	0.00	0
Scaffold_739;HRSCAF=905	739	16305	41	0.00	0
Scaffold_740;HRSCAF=907	740	8897	45	0.00	0
Scaffold_746;HRSCAF=913	746	3796	644	0.00	0
Scaffold_756;HRSCAF=924	756	19647	82	0.00	0
Scaffold_763;HRSCAF=933	763	2007	49	0.00	0
Scaffold_764;HRSCAF=934	764	18010	38	0.00	0
Scaffold_766;HRSCAF=936	766	7146	31	0.00	0
Scaffold_775;HRSCAF=947	775	10232	19	0.00	0
Scaffold_777;HRSCAF=949	777	8992	24	0.00	0
Scaffold_778;HRSCAF=951	778	9926	70	0.00	0
Scaffold_779;HRSCAF=952	779	2013	22	0.00	0
Scaffold_788;HRSCAF=964	788	12839	28	0.00	0
Scaffold_790;HRSCAF=966	790	7929	40	0.00	0
Scaffold_805;HRSCAF=988	805	4229	22	0.00	0
Scaffold_807;HRSCAF=990	807	8234	30	0.00	0
Scaffold_813;HRSCAF=996	813	11951	34	0.00	0
Scaffold_815;HRSCAF=998	815	21593	34	0.00	0
Scaffold_817;HRSCAF=1000	817	6264	89	0.00	0
Scaffold_823;HRSCAF=1009	823	6824	32	0.00	0
Scaffold_826;HRSCAF=1012	826	12718	43	0.00	0
Scaffold_829;HRSCAF=1015	829	2255	23	0.00	0
Scaffold_832;HRSCAF=1018	832	15985	28	0.00	0
Scaffold_834;HRSCAF=1020	834	39215	50	0.00	0
Scaffold_835;HRSCAF=1021	835	11830	36	0.00	0
Scaffold_836;HRSCAF=1022	836	2718	49	0.00	0
Scaffold_845;HRSCAF=1032	845	7842	15	0.00	0
Scaffold_848;HRSCAF=1035	848	17363	35	0.00	0
Scaffold_849;HRSCAF=1036	849	1169	242	0.00	0
Scaffold_851;HRSCAF=1039	851	2251	38	0.00	0
Scaffold_855;HRSCAF=1043	855	4502	388	0.00	0
Scaffold_860;HRSCAF=1050	860	5566	27	0.00	0
Scaffold_861;HRSCAF=1051	861	23492	33	0.00	0
Scaffold_864;HRSCAF=1056	864	11841	125	0.00	0
Scaffold_869;HRSCAF=1063	869	12622	120	0.00	0
Scaffold_874;HRSCAF=1071	874	2468	27	0.00	0
Scaffold_879;HRSCAF=1077	879	1352	306	0.00	0
Scaffold_880;HRSCAF=1078	880	12913	39	0.00	0
Scaffold_889;HRSCAF=1089	889	7876	51	0.00	0
Scaffold_891;HRSCAF=1092	891	6182	26	0.00	0
Scaffold_895;HRSCAF=1096	895	33661	88	0.00	0
Scaffold_896;HRSCAF=1097	896	19139	34	0.00	0
Scaffold_897;HRSCAF=1098	897	23715	42	0.00	0
Scaffold_900;HRSCAF=1101	900	2038	338	0.00	0
Scaffold_901;HRSCAF=1103	901	7901	29	0.00	0
Scaffold_902;HRSCAF=1104	902	4745	15	0.00	0
Scaffold_905;HRSCAF=1107	905	3062	9	0.00	0
Scaffold_907;HRSCAF=1110	907	8916	49	0.00	0
Scaffold_919;HRSCAF=1127	919	14287	31	0.00	0
Scaffold_920;HRSCAF=1128	920	1371	15	0.00	0
Scaffold_922;HRSCAF=1130	922	14746	27	0.00	0
Scaffold_927;HRSCAF=1136	927	1592	21	0.00	0
Scaffold_928;HRSCAF=1137	928	6613	11	0.00	0
Scaffold_936;HRSCAF=1145	936	8108	33	0.00	0
Scaffold_937;HRSCAF=1146	937	4080	58	0.00	0
Scaffold_946;HRSCAF=1157	946	3183	22	0.00	0
Scaffold_947;HRSCAF=1158	947	20857	48	0.00	0
Scaffold_949;HRSCAF=1160	949	11317	43	0.00	0
Scaffold_952;HRSCAF=1163	952	21964	38	0.00	0
Scaffold_953;HRSCAF=1164	953	5720	34	0.00	0
Scaffold_955;HRSCAF=1167	955	5670	85	0.00	0
Scaffold_961;HRSCAF=1174	961	5689	192	0.00	0
Scaffold_962;HRSCAF=1175	962	5879	3	0.00	0
Scaffold_965;HRSCAF=1181	965	4323	29	0.00	0
Scaffold_967;HRSCAF=1183	967	2116	43	0.00	0
Scaffold_969;HRSCAF=1185	969	31482	52	0.00	0
Scaffold_972;HRSCAF=1189	972	10772	28	0.00	0
Scaffold_973;HRSCAF=1190	973	9439	45	0.00	0
Scaffold_976;HRSCAF=1193	976	5071	93	0.00	0
Scaffold_981;HRSCAF=1200	981	4131	319	0.00	0
Scaffold_987;HRSCAF=1209	987	696	170	0.00	0
Scaffold_988;HRSCAF=1210	988	47454	37	0.00	0
Scaffold_991;HRSCAF=1213	991	3167	37	0.00	0
Scaffold_993;HRSCAF=1216	993	32113	33	0.00	0
Scaffold_995;HRSCAF=1218	995	2199	675	0.00	0
Scaffold_996;HRSCAF=1221	996	30441	24	0.00	0
Scaffold_999;HRSCAF=1225	999	17461	31	0.00	0
Scaffold_1003;HRSCAF=1230	1003	10624	24	0.00	0
Scaffold_1005;HRSCAF=1233	1005	2758	99	0.00	0
Scaffold_1010;HRSCAF=1238	1010	14952	30	0.00	0
Scaffold_1012;HRSCAF=1240	1012	22313	34	0.00	0
Scaffold_1013;HRSCAF=1241	1013	2222	30	0.00	0
Scaffold_1015;HRSCAF=1245	1015	9535	55	0.00	0
Scaffold_1017;HRSCAF=1247	1017	22340	32	0.00	0
Scaffold_1021;HRSCAF=1251	1021	2340	9	0.00	0
Scaffold_1033;HRSCAF=1264	1033	2448	12	0.00	0
Scaffold_1034;HRSCAF=1266	1034	2613	533	0.00	0
Scaffold_1037;HRSCAF=1269	1037	726	65	0.00	0
Scaffold_1038;HRSCAF=1270	1038	24339	69	0.00	0
Scaffold_1044;HRSCAF=1278	1044	18069	36	0.00	0
Scaffold_1047;HRSCAF=1281	1047	3788	20	0.00	0
Scaffold_1050;HRSCAF=1285	1050	4147	282	0.00	0
Scaffold_1054;HRSCAF=1291	1054	16276	71	0.00	0
Scaffold_1059;HRSCAF=1298	1059	22370	24	0.00	0
Scaffold_1062;HRSCAF=1302	1062	30344	44	0.00	0
Scaffold_1069;HRSCAF=1310	1069	44668	43	0.00	0
Scaffold_1071;HRSCAF=1312	1071	33504	45	0.00	0
Scaffold_1074;HRSCAF=1317	1074	2481	37	0.00	0
Scaffold_1078;HRSCAF=1321	1078	7037	49	0.00	0
Scaffold_1080;HRSCAF=1323	1080	30525	43	0.00	0
Scaffold_1082;HRSCAF=1326	1082	575	7	0.00	0
Scaffold_1087;HRSCAF=1332	1087	6759	10	0.00	0
Scaffold_1095;HRSCAF=1343	1095	10369	27	0.00	0
Scaffold_1096;HRSCAF=1344	1096	7947	32	0.00	0
Scaffold_1117;HRSCAF=1371	1117	9809	30	0.00	0
Scaffold_1120;HRSCAF=1375	1120	902	26	0.00	0
Scaffold_1122;HRSCAF=1377	1122	971	486	0.00	0
Scaffold_1128;HRSCAF=1388	1128	20987	40	0.00	0
Scaffold_1132;HRSCAF=1395	1132	7681	32	0.00	0
Scaffold_1136;HRSCAF=1399	1136	5303	21	0.00	0
Scaffold_1137;HRSCAF=1400	1137	26486	43	0.00	0
Scaffold_1138;HRSCAF=1401	1138	18796	50	0.00	0
Scaffold_1139;HRSCAF=1402	1139	8449	18	0.00	0
Scaffold_1151;HRSCAF=1416	1151	2641	244	0.00	0
Scaffold_1153;HRSCAF=1418	1153	28633	48	0.00	0
Scaffold_1154;HRSCAF=1419	1154	10477	43	0.00	0
Scaffold_1157;HRSCAF=1422	1157	5047	14	0.00	0
Scaffold_1159;HRSCAF=1424	1159	4969	8	0.00	0
Scaffold_1161;HRSCAF=1427	1161	3037	46	0.00	0
Scaffold_1165;HRSCAF=1433	1165	4582	28	0.00	0
Scaffold_1167;HRSCAF=1436	1167	5763	165	0.00	0
Scaffold_1173;HRSCAF=1444	1173	11196	46	0.00	0
Scaffold_1180;HRSCAF=1456	1180	2813	20	0.00	0
Scaffold_1182;HRSCAF=1458	1182	26453	41	0.00	0
Scaffold_1184;HRSCAF=1461	1184	34949	27	0.00	0
Scaffold_1185;HRSCAF=1462	1185	6828	49	0.00	0
Scaffold_1187;HRSCAF=1465	1187	20785	45	0.00	0
Scaffold_1189;HRSCAF=1467	1189	1981	25	0.00	0
Scaffold_1202;HRSCAF=1482	1202	5735	55	0.00	0
Scaffold_1207;HRSCAF=1487	1207	4622	45	0.00	0
Scaffold_1215;HRSCAF=1495	1215	4578	135	0.00	0
Scaffold_1223;HRSCAF=1503	1223	1654	85	0.00	0
Scaffold_1227;HRSCAF=1508	1227	3654	315	0.00	0
Scaffold_1229;HRSCAF=1510	1229	704	295	0.00	0
Scaffold_1232;HRSCAF=1514	1232	25815	43	0.00	0
Scaffold_1239;HRSCAF=1524	1239	2911	468	0.00	0
Scaffold_1249;HRSCAF=1534	1249	6671	363	0.00	0
Scaffold_1259;HRSCAF=1547	1259	2695	506	0.00	0
Scaffold_1269;HRSCAF=1560	1269	1263	161	0.00	0
Scaffold_1270;HRSCAF=1561	1270	7863	2	0.00	0
Scaffold_1271;HRSCAF=1562	1271	13984	17	0.00	0
Scaffold_1272;HRSCAF=1563	1272	1654	34	0.00	0
Scaffold_1275;HRSCAF=1566	1275	17206	37	0.00	0
Scaffold_1287;HRSCAF=1581	1287	6013	44	0.00	0
Scaffold_1294;HRSCAF=1591	1294	11448	41	0.00	0
Scaffold_1297;HRSCAF=1595	1297	2821	30	0.00	0
Scaffold_1302;HRSCAF=1601	1302	8639	80	0.00	0
Scaffold_1303;HRSCAF=1602	1303	2470	16	0.00	0
Scaffold_1307;HRSCAF=1607	1307	11340	23	0.00	0
Scaffold_1314;HRSCAF=1616	1314	5457	483	0.00	0
Scaffold_1315;HRSCAF=1618	1315	7947	22	0.00	0
Scaffold_1316;HRSCAF=1622	1316	37334	61	0.00	0
Scaffold_1325;HRSCAF=1632	1325	5778	329	0.00	0
Scaffold_1326;HRSCAF=1634	1326	19370	39	0.00	0
Scaffold_1327;HRSCAF=1635	1327	1960	93	0.00	0
Scaffold_1329;HRSCAF=1637	1329	53313	37	0.00	0
Scaffold_1349;HRSCAF=1659	1349	11465	36	0.00	0
Scaffold_1350;HRSCAF=1660	1350	6805	40	0.00	0
Scaffold_1352;HRSCAF=1662	1352	5492	44	0.00	0
Scaffold_1353;HRSCAF=1663	1353	8005	82	0.00	0
Scaffold_1355;HRSCAF=1665	1355	10121	25	0.00	0
Scaffold_1360;HRSCAF=1671	1360	1362	157	0.00	0
Scaffold_1361;HRSCAF=1672	1361	2515	9	0.00	0
Scaffold_1364;HRSCAF=1676	1364	8872	29	0.00	0
Scaffold_1365;HRSCAF=1677	1365	13034	36	0.00	0
Scaffold_1367;HRSCAF=1679	1367	2828	146	0.00	0
Scaffold_1371;HRSCAF=1685	1371	14531	42	0.00	0
Scaffold_1374;HRSCAF=1689	1374	18449	44	0.00	0
Scaffold_1377;HRSCAF=1694	1377	9819	134	0.00	0
Scaffold_1384;HRSCAF=1704	1384	7807	25	0.00	0
Scaffold_1386;HRSCAF=1706	1386	5236	22	0.00	0
Scaffold_1387;HRSCAF=1707	1387	4231	246	0.00	0
Scaffold_1395;HRSCAF=1717	1395	285	25	0.00	0
Scaffold_1400;HRSCAF=1722	1400	41335	26	0.00	0
Scaffold_1402;HRSCAF=1724	1402	13774	16	0.00	0
Scaffold_1405;HRSCAF=1728	1405	19967	45	0.00	0
Scaffold_1408;HRSCAF=1732	1408	2498	45	0.00	0
Scaffold_1419;HRSCAF=1745	1419	30802	28	0.00	0
Scaffold_1420;HRSCAF=1746	1420	11961	44	0.00	0
Scaffold_1424;HRSCAF=1750	1424	19520	51	0.00	0
Scaffold_1425;HRSCAF=1751	1425	27173	19	0.00	0
