WP_066042222.1	K02313	dnaA; chromosomal replication initiator protein	239		
WP_066042225.1	K02338	dnaN; DNA polymerase III subunit beta [EC:2.7.7.7]	203		
WP_066042227.1	K03629	recF; DNA replication and repair protein RecF	127		
WP_066042229.1	K02470	gyrB; DNA gyrase subunit B [EC:5.6.2.2]	570		
WP_066042234.1	K00855	PRK, prkB; phosphoribulokinase [EC:2.7.1.19]	241		
WP_066042236.1			5	K03925	1
WP_066042239.1	K01869	LARS, leuS; leucyl-tRNA synthetase [EC:6.1.1.4]	610		
WP_066042242.1	K17828	pyrDI; dihydroorotate dehydrogenase (NAD+) catalytic subunit [EC:1.3.1.14]	236		
WP_066042245.1	K01935	bioD; dethiobiotin synthetase [EC:6.3.3.3]	69		
WP_066042251.1	K03599	sspA, mglA; stringent starvation protein A	120		
WP_066042254.1	K00412	CYTB, petB; ubiquinol-cytochrome c reductase cytochrome b subunit	318		
WP_066042257.1	K00411	UQCRFS1, RIP1, petA; ubiquinol-cytochrome c reductase iron-sulfur subunit [EC:7.1.1.8]	171		
WP_066042260.1			26	K04042	1
WP_066042263.1	K03070	secA; preprotein translocase subunit SecA [EC:7.4.2.8]	612		
WP_066042265.1	K09001	anmK; anhydro-N-acetylmuramic acid kinase [EC:2.7.1.170]	238		
WP_066042268.1	K03655	recG; ATP-dependent DNA helicase RecG [EC:3.6.4.12]	386		
WP_066042271.1	K01465	URA4, pyrC; dihydroorotase [EC:3.5.2.3]	236		
WP_066042277.1	K11753	ribF; riboflavin kinase / FMN adenylyltransferase [EC:2.7.1.26 2.7.7.2]	167		
WP_066042280.1	K03575	mutY; A/G-specific adenine glycosylase [EC:3.2.2.31]	191		
WP_066042283.1	K00651	metA; homoserine O-succinyltransferase/O-acetyltransferase [EC:2.3.1.46 2.3.1.31]	253		
WP_066042286.1			173		
WP_066042288.1	K14261	alaC; alanine-synthesizing transaminase [EC:2.6.1.-]	380		
WP_066042291.1	K03772	fkpA; FKBP-type peptidyl-prolyl cis-trans isomerase FkpA [EC:5.2.1.8]	64		
WP_066042293.1			234		
WP_066042296.1	K01923	purC; phosphoribosylaminoimidazole-succinocarboxamide synthase [EC:6.3.2.6]	268		
WP_066042300.1			66		
WP_066042304.1	K00099	dxr; 1-deoxy-D-xylulose-5-phosphate reductoisomerase [EC:1.1.1.267]	242		
WP_066042307.1	K00981	E2.7.7.41, CDS1, CDS2, cdsA; phosphatidate cytidylyltransferase [EC:2.7.7.41]	75		
WP_066042313.1			133	K21449	2
WP_066042315.1			2	K03555	1
WP_066042317.1	K07491	rayT; REP-associated tyrosine transposase	132		
WP_066042320.1	K02500	hisF; imidazole glycerol-phosphate synthase subunit HisF [EC:4.3.2.10]	206		
WP_066042324.1			106		
WP_066042329.1	K02257	COX10, ctaB, cyoE; heme o synthase [EC:2.5.1.141]	185		
WP_066042332.1			17		
WP_066042335.1	K02275	coxB, ctaC; cytochrome c oxidase subunit II [EC:7.1.1.9]	233		
WP_066042338.1	K02274	coxA, ctaD; cytochrome c oxidase subunit I [EC:7.1.1.9]	552		
WP_066042342.1	K02258	COX11, ctaG; cytochrome c oxidase assembly protein subunit 11	147		
WP_066042345.1	K02276	coxC, ctaE; cytochrome c oxidase subunit III [EC:7.1.1.9]	230		
WP_066042347.1			18		
WP_066042350.1	K14998	SURF1, SHY1; surfeit locus 1 family protein	102		
WP_066042352.1	K07497	K07497; putative transposase	69		
WP_066042358.1	K03634	lolA; outer membrane lipoprotein carrier protein	57		
WP_066042364.1	K00384	trxB, TRR; thioredoxin reductase (NADPH) [EC:1.8.1.9]	253		
WP_066042366.1	K00609	pyrB, PYR2; aspartate carbamoyltransferase catalytic subunit [EC:2.1.3.2]	215		
WP_066042369.1	K07447	ruvX; putative pre-16S rRNA nuclease [EC:3.1.-.-]	62		
WP_066042372.1	K07478	ycaJ; putative ATPase	250		
WP_066042375.1	K06199	crcB, FEX; fluoride exporter	62		
WP_066042381.1					
WP_066042388.1	K00986	ltrA; RNA-directed DNA polymerase [EC:2.7.7.49]	13		
WP_066042391.1	K00986	ltrA; RNA-directed DNA polymerase [EC:2.7.7.49]	16		
WP_066042394.1			26		
WP_066042397.1			3	K21449	1
WP_066042398.1	K09748	rimP; ribosome maturation factor RimP	126		
WP_066042402.1	K02600	nusA; transcription termination/antitermination protein NusA	312		
WP_066042404.1	K02519	infB, MTIF2; translation initiation factor IF-2	425		
WP_066042407.1	K02834	rbfA; ribosome-binding factor A	64		
WP_066042409.1	K03177	truB, PUS4, TRUB1; tRNA pseudouridine55 synthase [EC:5.4.99.25]	176		
WP_066042412.1			20	K07122	1
WP_066042415.1			28		
WP_066042418.1	K01945	purD; phosphoribosylamine---glycine ligase [EC:6.3.4.13]	312		
WP_066042421.1			189		
WP_066042425.1	K03470	rnhB; ribonuclease HII [EC:3.1.26.4]	143		
WP_066042432.1	K23077	dsrC; dissimilatory sulfite reductase related protein	43	K11179	9
WP_066042437.1	K00374	narI, narV; nitrate reductase gamma subunit [EC:1.7.5.1 1.7.99.-]	149		
WP_066042441.1	K00373	narJ, narW; nitrate reductase molybdenum cofactor assembly chaperone NarJ/NarW	85		
WP_066042444.1	K00371	narH, narY, nxrB; nitrate reductase / nitrite oxidoreductase, beta subunit [EC:1.7.5.1 1.7.99.-]	416		
WP_066042447.1	K00370	narG, narZ, nxrA; nitrate reductase / nitrite oxidoreductase, alpha subunit [EC:1.7.5.1 1.7.99.-]	988		
WP_066042450.1	K02575	NRT, narK, nrtP, nasA; MFS transporter, NNP family, nitrate/nitrite transporter	565		
WP_066042453.1	K02575	NRT, narK, nrtP, nasA; MFS transporter, NNP family, nitrate/nitrite transporter	326		
WP_066042456.1			8	K21563	5
WP_066042460.1	K03470	rnhB; ribonuclease HII [EC:3.1.26.4]	145		
WP_066042462.1			65		
WP_066042466.1	K07460	yraN; putative endonuclease	57		
WP_066042468.1	K07056	rsmI; 16S rRNA (cytidine1402-2'-O)-methyltransferase [EC:2.1.1.198]	220		
WP_066042470.1			77		
WP_066042473.1	K00859	coaE; dephospho-CoA kinase [EC:2.7.1.24]	69		
WP_066042476.1	K00615	E2.2.1.1, tktA, tktB; transketolase [EC:2.2.1.1]	567		
WP_066042479.1	K00134	GAPDH, gapA; glyceraldehyde 3-phosphate dehydrogenase (phosphorylating) [EC:1.2.1.12]	283		
WP_066042481.1			53	K06985	2
WP_066042484.1	K00927	PGK, pgk; phosphoglycerate kinase [EC:2.7.2.3]	423		
WP_066042488.1	K00873	PK, pyk; pyruvate kinase [EC:2.7.1.40]	317		
WP_066042489.1	K01624	FBA, fbaA; fructose-bisphosphate aldolase, class II [EC:4.1.2.13]	346		
WP_066042493.1	K03495	gidA, mnmG, MTO1; tRNA uridine 5-carboxymethylaminomethyl modification enzyme	471		
WP_066042496.1	K03501	gidB, rsmG; 16S rRNA (guanine527-N7)-methyltransferase [EC:2.1.1.170]	103		
WP_066042498.1			20	K01640	1
WP_066042500.1	K07126	K07126; uncharacterized protein	131		
WP_066042502.1	K00558	DNMT1, dcm; DNA (cytosine-5)-methyltransferase 1 [EC:2.1.1.37]	176		
WP_066042505.1	K07454	K07454; putative restriction endonuclease	59	K07451	8
WP_066042508.1	K03424	tatD; TatD DNase family protein [EC:3.1.21.-]	178		
WP_066042512.1	K06179	rluC; 23S rRNA pseudouridine955/2504/2580 synthase [EC:5.4.99.24]	189		
WP_066042515.1	K03179	ubiA; 4-hydroxybenzoate polyprenyltransferase [EC:2.5.1.39]	222		
WP_066042517.1	K00674	dapD; 2,3,4,5-tetrahydropyridine-2,6-dicarboxylate N-succinyltransferase [EC:2.3.1.117]	223		
WP_066042519.1	K09817	znuC; zinc transport system ATP-binding protein [EC:7.2.2.20]	144		
WP_066042523.1	K02335	polA; DNA polymerase I [EC:2.7.7.7]	579		
WP_066042538.1			28		
WP_066042542.1			9	K18843	5
WP_066042545.1	K01887	RARS, argS; arginyl-tRNA synthetase [EC:6.1.1.19]	373		
WP_066042548.1			144		
WP_066042550.1			57		
WP_066042552.1	K16898	addA; ATP-dependent helicase/nuclease subunit A [EC:3.1.-.- 3.6.4.12]	135		
WP_066042555.1	K00788	thiE; thiamine-phosphate pyrophosphorylase [EC:2.5.1.3]	115		
WP_066042559.1			36	K11719	2
WP_066042562.1	K09774	lptA; lipopolysaccharide export system protein LptA	35		
WP_066042565.1	K00958	sat, met3; sulfate adenylyltransferase [EC:2.7.7.4]	420		
WP_066042568.1	K00395	aprB; adenylylsulfate reductase, subunit B [EC:1.8.99.2]	135		
WP_066042572.1	K00394	aprA; adenylylsulfate reductase, subunit A [EC:1.8.99.2]	537		
WP_066042575.1			78		
WP_066042580.1	K03775	slyD; FKBP-type peptidyl-prolyl cis-trans isomerase SlyD [EC:5.2.1.8]	70		
WP_066042583.1			29	K07076	1
WP_066042586.1			70		
WP_066042587.1	K03972	pspE; phage shock protein E	32		
WP_066042590.1	K01875	SARS, serS; seryl-tRNA synthetase [EC:6.1.1.11]	313		
WP_066042593.1	K03210	yajC; preprotein translocase subunit YajC	54		
WP_066042595.1	K03072	secD; preprotein translocase subunit SecD	403		
WP_066042601.1	K00647	fabB; 3-oxoacyl-[acyl-carrier-protein] synthase I [EC:2.3.1.41]	325		
WP_066042605.1	K01716	fabA; 3-hydroxyacyl-[acyl-carrier protein] dehydratase / trans-2-decenoyl-[acyl-carrier protein] isomerase [EC:4.2.1.59 5.3.3.14]	182		
WP_066042610.1	K10764	metZ; O-succinylhomoserine sulfhydrylase [EC:2.5.1.-]	268		
WP_066042613.1			98		
WP_066042616.1	K00764	purF, PPAT; amidophosphoribosyltransferase [EC:2.4.2.14]	383		
WP_066042622.1	K11754	folC; dihydrofolate synthase / folylpolyglutamate synthase [EC:6.3.2.12 6.3.2.17]	203		
WP_066042625.1	K07113	fxsA; UPF0716 protein FxsA	56		
WP_066042627.1	K03439	trmB, METTL1, TRM8; tRNA (guanine-N7-)-methyltransferase [EC:2.1.1.33]	134		
WP_066042630.1	K01142	E3.1.11.2, xthA; exodeoxyribonuclease III [EC:3.1.11.2]	252		
WP_066042633.1	K00762	pyrE; orotate phosphoribosyltransferase [EC:2.4.2.10]	157		
WP_066042636.1			19	K00170	1
WP_066042640.1	K00602	purH; phosphoribosylaminoimidazolecarboxamide formyltransferase / IMP cyclohydrolase [EC:2.1.2.3 3.5.4.10]	478		
WP_066042642.1	K03557	fis; Fis family transcriptional regulator, factor for inversion stimulation protein	31		
WP_066042645.1	K01462	PDF, def; peptide deformylase [EC:3.5.1.88]	108		
WP_066042648.1	K00278	nadB; L-aspartate oxidase [EC:1.4.3.16]	349		
WP_066042651.1	K07003	K07003; uncharacterized protein	465		
WP_066042654.1	K00573	E2.1.1.77, pcm; protein-L-isoaspartate(D-aspartate) O-methyltransferase [EC:2.1.1.77]	125		
WP_066042656.1			3	K03655	1
WP_066042661.1			42	K03196	1
WP_066042663.1			53	K00990	1
WP_066042666.1			46	K02986	2
WP_066042669.1			21	K04079	1
WP_066042672.1			17	K00390	1
WP_066042675.1			53	K14623	21
WP_066042678.1	K00382	DLD, lpd, pdhD; dihydrolipoamide dehydrogenase [EC:1.8.1.4]	324		
WP_066042681.1	K00627	DLAT, aceF, pdhC; pyruvate dehydrogenase E2 component (dihydrolipoamide acetyltransferase) [EC:2.3.1.12]	268		
WP_066042684.1	K01990	ABC-2.A; ABC-2 type transport system ATP-binding protein	193		
WP_066042690.1	K08591	plsY; acyl phosphate:glycerol-3-phosphate acyltransferase [EC:2.3.1.275]	122		
WP_066042693.1	K01633	folB; 7,8-dihydroneopterin aldolase/epimerase/oxygenase [EC:4.1.2.25 5.1.99.8 1.13.11.81]	74		
WP_066042697.1	K00950	folK; 2-amino-4-hydroxy-6-hydroxymethyldihydropteridine diphosphokinase [EC:2.7.6.3]	104		
WP_066042700.1	K03673	dsbA; protein dithiol oxidoreductase (disulfide-forming) [EC:1.8.4.15]	108		
WP_066042703.1	K00817	hisC; histidinol-phosphate aminotransferase [EC:2.6.1.9]	213		
WP_066042706.1			158		
WP_066042712.1	K07491	rayT; REP-associated tyrosine transposase	34		
WP_066042717.1					
WP_066042726.1	K00133	asd; aspartate-semialdehyde dehydrogenase [EC:1.2.1.11]	278		
WP_066042729.1			9	K03297	1
WP_066042733.1	K02501	hisH; imidazole glycerol-phosphate synthase subunit HisH [EC:4.3.2.10]	137		
WP_066042736.1			91		
WP_066042740.1	K10773	NTH; endonuclease III [EC:4.2.99.18]	170		
WP_066042743.1	K01141	sbcB, exoI; exodeoxyribonuclease I [EC:3.1.11.1]	272		
WP_066042751.1	K03321	TC.SULP; sulfate permease, SulP family	365		
WP_066042754.1	K05592	deaD, cshA; ATP-dependent RNA helicase DeaD [EC:3.6.4.13]	361		
WP_066042757.1			41	K01420	15
WP_066042760.1			54		
WP_066042763.1	K00404	ccoN; cytochrome c oxidase cbb3-type subunit I [EC:7.1.1.9]	380		
WP_066042766.1	K00405	ccoO; cytochrome c oxidase cbb3-type subunit II	125		
WP_066042769.1	K00406	ccoP; cytochrome c oxidase cbb3-type subunit III	73		
WP_066042775.1			16	K02411	1
WP_066042778.1	K13256	psiE; protein PsiE	54		
WP_066042782.1			168		
WP_066042788.1	K22132	tcdA; tRNA threonylcarbamoyladenosine dehydratase	147		
WP_066042793.1	K03424	tatD; TatD DNase family protein [EC:3.1.21.-]	78		
WP_066042797.1	K02871	RP-L13, MRPL13, rplM; large subunit ribosomal protein L13	147		
WP_066042799.1	K02996	RP-S9, MRPS9, rpsI; small subunit ribosomal protein S9	138		
WP_066042801.1	K03796	bax; Bax protein	78		
WP_066042804.1	K02226	cobC, phpB; alpha-ribazole phosphatase [EC:3.1.3.73]	82		
WP_066042808.1	K00057	gpsA; glycerol-3-phosphate dehydrogenase (NAD(P)+) [EC:1.1.1.94]	171		
WP_066042811.1	K03676	grxC, GLRX, GLRX2; glutaredoxin 3	39		
WP_066042814.1			55		
WP_066042817.1	K01658	trpG; anthranilate synthase component II [EC:4.1.3.27]	208		
WP_066042820.1	K15256	cmoA; tRNA (cmo5U34)-methyltransferase [EC:2.1.1.-]	140		
WP_066042823.1	K03181	ubiC; chorismate lyase [EC:4.1.3.40]	60		
WP_066042825.1	K03655	recG; ATP-dependent DNA helicase RecG [EC:3.6.4.12]	413		
WP_066042828.1			117		
WP_066042830.1			6	K01735	1
WP_066042833.1	K04655	hypE; hydrogenase expression/formation protein HypE	203		
WP_066042837.1	K04654	hypD; hydrogenase expression/formation protein HypD	386		
WP_066042839.1	K04653	hypC; hydrogenase expression/formation protein HypC	65		
WP_066042846.1	K04652	hypB; hydrogenase nickel incorporation protein HypB	172		
WP_066042850.1	K04651	hypA, hybF; hydrogenase nickel incorporation protein HypA/HybF	60		
WP_066042853.1	K23549	hupV; uptake hydrogenase large subunit [EC:1.12.99.6]	139		
WP_066042856.1			38		
WP_066042864.1	K03618	hyaF; hydrogenase-1 operon protein HyaF	154		
WP_066042867.1	K03619	hyaE; hydrogenase-1 operon protein HyaE	64		
WP_066042870.1	K04653	hypC; hydrogenase expression/formation protein HypC	34		
WP_066042873.1	K03605	hyaD, hybD; hydrogenase maturation protease [EC:3.4.23.-]	171		
WP_066042876.1	K03620	hyaC; Ni/Fe-hydrogenase 1 B-type cytochrome subunit	150		
WP_066042879.1			7	K03192	2
WP_066042882.1	K06281	hyaB, hybC; hydrogenase large subunit [EC:1.12.99.6]	726		
WP_066042885.1	K03092	rpoN; RNA polymerase sigma-54 factor	76		
WP_066042888.1			53		
WP_066042891.1			7	K03406	1
WP_066042898.1	K00325	pntB; H+-translocating NAD(P) transhydrogenase subunit beta [EC:1.6.1.2 7.1.1.1]	377		
WP_066042901.1	K00324	pntA; H+-translocating NAD(P) transhydrogenase subunit alpha [EC:1.6.1.2 7.1.1.1]	332		
WP_066042903.1	K01507	ppa; inorganic pyrophosphatase [EC:3.6.1.1]	158		
WP_066042905.1	K01673	cynT, can; carbonic anhydrase [EC:4.2.1.1]	10		
WP_066042907.1			134		
WP_066042909.1	K03271	gmhA, lpcA; D-sedoheptulose 7-phosphate isomerase [EC:5.3.1.28]	118		
WP_066042911.1	K04656	hypF; hydrogenase maturation protein HypF	380		
WP_066042913.1			20	K01916	1
WP_066042915.1			160		
WP_066042917.1			23	K11891	1
WP_066042919.1	K01902	sucD; succinyl-CoA synthetase alpha subunit [EC:6.2.1.5]	282		
WP_066042921.1	K01903	sucC; succinyl-CoA synthetase beta subunit [EC:6.2.1.5]	251		
WP_066042923.1			165		
WP_066042925.1	K02356	efp; elongation factor P	145		
WP_066042927.1	K04568	epmA, poxA; elongation factor P--(R)-beta-lysine ligase [EC:6.3.1.-]	189		
WP_066042929.1	K07126	K07126; uncharacterized protein	32		
WP_066042931.1	K09160	K09160; uncharacterized protein	121		
WP_066042933.1			35		
WP_066042965.1	K01940	argG, ASS1; argininosuccinate synthase [EC:6.3.4.5]	420		
WP_066042969.1	K01929	murF; UDP-N-acetylmuramoyl-tripeptide--D-alanyl-D-alanine ligase [EC:6.3.2.10]	186		
WP_066042971.1	K01928	murE; UDP-N-acetylmuramoyl-L-alanyl-D-glutamate--2,6-diaminopimelate ligase [EC:6.3.2.13]	223		
WP_066042974.1	K17224	soxB; S-sulfosulfanyl-L-cysteine sulfohydrolase [EC:3.1.6.20]	467		
WP_066042976.1			109		
WP_066042980.1	K06041	kdsD, kpsF; arabinose-5-phosphate isomerase [EC:5.3.1.13]	209		
WP_066042982.1	K02950	RP-S12, MRPS12, rpsL; small subunit ribosomal protein S12	134		
WP_066042986.1	K02992	RP-S7, MRPS7, rpsG; small subunit ribosomal protein S7	165		
WP_066042988.1	K02355	fusA, GFM, EFG; elongation factor G	590		
WP_066042991.1	K02358	tuf, TUFM; elongation factor Tu	354		
WP_066043009.1	K02946	RP-S10, MRPS10, rpsJ; small subunit ribosomal protein S10	121		
WP_066043011.1	K02906	RP-L3, MRPL3, rplC; large subunit ribosomal protein L3	183		
WP_066043013.1	K02926	RP-L4, MRPL4, rplD; large subunit ribosomal protein L4	204		
WP_066043015.1	K02892	RP-L23, MRPL23, rplW; large subunit ribosomal protein L23	54		
WP_066043017.1	K02886	RP-L2, MRPL2, rplB; large subunit ribosomal protein L2	219		
WP_066043018.1	K02965	RP-S19, rpsS; small subunit ribosomal protein S19	73		
WP_066043021.1	K02890	RP-L22, MRPL22, rplV; large subunit ribosomal protein L22	118		
WP_066043033.1	K02982	RP-S3, rpsC; small subunit ribosomal protein S3	172		
WP_066043036.1	K02878	RP-L16, MRPL16, rplP; large subunit ribosomal protein L16	165		
WP_066043064.1	K02904	RP-L29, rpmC; large subunit ribosomal protein L29	31		
WP_066043066.1	K02961	RP-S17, MRPS17, rpsQ; small subunit ribosomal protein S17	73		
WP_066043068.1	K02874	RP-L14, MRPL14, rplN; large subunit ribosomal protein L14	135		
WP_066043070.1	K02895	RP-L24, MRPL24, rplX; large subunit ribosomal protein L24	64		
WP_066043072.1	K02931	RP-L5, MRPL5, rplE; large subunit ribosomal protein L5	141		
WP_066043075.1	K02954	RP-S14, MRPS14, rpsN; small subunit ribosomal protein S14	107		
WP_066043077.1	K02994	RP-S8, rpsH; small subunit ribosomal protein S8	134		
WP_066043079.1	K02933	RP-L6, MRPL6, rplF; large subunit ribosomal protein L6	153		
WP_066043081.1	K02881	RP-L18, MRPL18, rplR; large subunit ribosomal protein L18	66		
WP_066043084.1	K02988	RP-S5, MRPS5, rpsE; small subunit ribosomal protein S5	153		
WP_066043087.1	K03076	secY; preprotein translocase subunit SecY	328		
WP_066043089.1	K02952	RP-S13, rpsM; small subunit ribosomal protein S13	89		
WP_066043090.1	K02948	RP-S11, MRPS11, rpsK; small subunit ribosomal protein S11	144		
WP_066043092.1	K02986	RP-S4, rpsD; small subunit ribosomal protein S4	179		
WP_066043094.1	K02879	RP-L17, MRPL17, rplQ; large subunit ribosomal protein L17	129		
WP_066043096.1	K02970	RP-S21, MRPS21, rpsU; small subunit ribosomal protein S21	72		
WP_066043100.1	K01183	E3.2.1.14; chitinase [EC:3.2.1.14]	114		
WP_066043104.1	K07481	K07481; transposase, IS5 family	112		
WP_066043107.1	K02453	gspD; general secretion pathway protein D	56		
WP_066043109.1			66		
WP_066043111.1	K07090	K07090; uncharacterized protein	130		
WP_066043113.1	K02558	mpl; UDP-N-acetylmuramate: L-alanyl-gamma-D-glutamyl-meso-diaminopimelate ligase [EC:6.3.2.45]	262		
WP_066043115.1	K00974	cca; tRNA nucleotidyltransferase (CCA-adding enzyme) [EC:2.7.7.72 3.1.3.- 3.1.4.-]	176		
WP_066043117.1			16	K09160	1
WP_066043119.1	K16899	addB; ATP-dependent helicase/nuclease subunit B [EC:3.1.-.- 3.6.4.12]	72		
WP_066043120.1	K03978	engB; GTP-binding protein	132		
WP_066043122.1			13	K08738	4
WP_066043124.1			113		
WP_066043128.1	K03545	tig; trigger factor	213		
WP_066043130.1	K01358	clpP, CLPP; ATP-dependent Clp protease, protease subunit [EC:3.4.21.92]	177		
WP_066043132.1	K03544	clpX, CLPX; ATP-dependent Clp protease ATP-binding subunit ClpX	298		
WP_066043134.1	K03665	hflX; GTPase	264		
WP_066043136.1	K01338	lon; ATP-dependent Lon protease [EC:3.4.21.53]	566		
WP_066043138.1	K03500	rsmB, sun; 16S rRNA (cytosine967-C5)-methyltransferase [EC:2.1.1.176]	205		
WP_066043140.1	K03981	dsbC; thiol:disulfide interchange protein DsbC [EC:5.3.4.1]	102		
WP_066043142.1	K09913	ppnP; purine/pyrimidine-nucleoside phosphorylase [EC:2.4.2.1 2.4.2.2]	76		
WP_066043145.1			116		
WP_066043147.1			101		
WP_066043149.1			75		
WP_066043151.1			216		
WP_066043153.1			169		
WP_066043157.1	K00943	tmk, DTYMK; dTMP kinase [EC:2.7.4.9]	134		
WP_066043159.1	K02341	holB; DNA polymerase III subunit delta' [EC:2.7.7.7]	135		
WP_066043161.1	K01845	hemL; glutamate-1-semialdehyde 2,1-aminomutase [EC:5.4.3.8]	329		
WP_066043163.1			145		
WP_066043165.1			106		
WP_066043167.1			116		
WP_066043192.1	K04085	tusA, sirA; tRNA 2-thiouridine synthesizing protein A [EC:2.8.1.-]	62		
WP_066043194.1	K01423	bepA; beta-barrel assembly-enhancing protease [EC:3.4.-.-]	73		
WP_066043196.1	K01807	rpiA; ribose 5-phosphate isomerase A [EC:5.3.1.6]	160		
WP_066043198.1	K02428	rdgB; XTP/dITP diphosphohydrolase [EC:3.6.1.66]	162		
WP_066043200.1			206		
WP_066043202.1			47	K12634	1
WP_066043204.1			375		
WP_066043206.1	K07233	pcoB, copB; copper resistance protein B	132		
WP_066043208.1			40		
WP_066043210.1	K14588	cueO; blue copper oxidase	196		
WP_066043212.1	K00930	argB; acetylglutamate kinase [EC:2.7.2.8]	237		
WP_066043214.1	K02823	pyrDII; dihydroorotate dehydrogenase electron transfer subunit	201		
WP_066043216.1	K06997	yggS, PROSC; PLP dependent protein	138		
WP_066043218.1	K01424	E3.5.1.1, ansA, ansB; L-asparaginase [EC:3.5.1.1]	103		
WP_066043220.1			191		
WP_066043223.1	K03568	tldD; TldD protein	331		
WP_066043225.1	K00330	nuoA; NADH-quinone oxidoreductase subunit A [EC:7.1.1.2]	89		
WP_066043227.1	K00331	nuoB; NADH-quinone oxidoreductase subunit B [EC:7.1.1.2]	219		
WP_066043229.1	K00332	nuoC; NADH-quinone oxidoreductase subunit C [EC:7.1.1.2]	176		
WP_066043231.1	K00333	nuoD; NADH-quinone oxidoreductase subunit D [EC:7.1.1.2]	507		
WP_066043233.1	K00334	nuoE; NADH-quinone oxidoreductase subunit E [EC:7.1.1.2]	105		
WP_066043235.1	K00335	nuoF; NADH-quinone oxidoreductase subunit F [EC:7.1.1.2]	483		
WP_066043237.1			29		
WP_066043239.1	K07076	K07076; uncharacterized protein	26		
WP_066043241.1	K00336	nuoG; NADH-quinone oxidoreductase subunit G [EC:7.1.1.2]	423		
WP_066043243.1	K00337	nuoH; NADH-quinone oxidoreductase subunit H [EC:7.1.1.2]	244		
WP_066043246.1	K00338	nuoI; NADH-quinone oxidoreductase subunit I [EC:7.1.1.2]	128		
WP_066043248.1	K00339	nuoJ; NADH-quinone oxidoreductase subunit J [EC:7.1.1.2]	119		
WP_066043250.1	K00341	nuoL; NADH-quinone oxidoreductase subunit L [EC:7.1.1.2]	461		
WP_066043252.1	K00342	nuoM; NADH-quinone oxidoreductase subunit M [EC:7.1.1.2]	371		
WP_066043254.1	K00343	nuoN; NADH-quinone oxidoreductase subunit N [EC:7.1.1.2]	300		
WP_066043255.1	K02169	bioC; malonyl-CoA O-methyltransferase [EC:2.1.1.197]	157		
WP_066043257.1	K09815	znuA; zinc transport system substrate-binding protein	77		
WP_066043259.1	K15257	cmoB; tRNA (mo5U34)-methyltransferase [EC:2.1.1.-]	161		
WP_066043261.1			29	K06173	1
WP_066043263.1	K02838	frr, MRRF, RRF; ribosome recycling factor	137		
WP_066043265.1	K03701	uvrA; excinuclease ABC subunit A	727		
WP_066043269.1	K11175	purN; phosphoribosylglycinamide formyltransferase 1 [EC:2.1.2.2]	131		
WP_066043271.1	K01933	purM; phosphoribosylformylglycinamidine cyclo-ligase [EC:6.3.3.1]	243		
WP_066043273.1	K08744	CRLS; cardiolipin synthase (CMP-forming) [EC:2.7.8.41]	135		
WP_066043275.1	K10763	hda; DnaA-homolog protein	101		
WP_066043277.1			57		
WP_066043279.1	K02302	cysG; uroporphyrin-III C-methyltransferase / precorrin-2 dehydrogenase / sirohydrochlorin ferrochelatase [EC:2.1.1.107 1.3.1.76 4.99.1.4]	329		
WP_066043281.1			32		
WP_066043283.1	K01079	serB, PSPH; phosphoserine phosphatase [EC:3.1.3.3]	136		
WP_066043285.1	K02198	ccmF; cytochrome c-type biogenesis protein CcmF	505		
WP_066043287.1	K02200	ccmH; cytochrome c-type biogenesis protein CcmH	105		
WP_066043289.1	K07133	K07133; uncharacterized protein	196		
WP_066043291.1	K01439	dapE; succinyl-diaminopimelate desuccinylase [EC:3.5.1.18]	265		
WP_066043324.1	K00554	trmD; tRNA (guanine37-N1)-methyltransferase [EC:2.1.1.228]	142		
WP_066043326.1	K04752	glnK; nitrogen regulatory protein P-II 2	89		
WP_066043328.1	K03320	amt, AMT, MEP; ammonium transporter, Amt family	430		
WP_066043331.1	K01714	dapA; 4-hydroxy-tetrahydrodipicolinate synthase [EC:4.3.3.7]	194		
WP_066043333.1	K07287	bamC; outer membrane protein assembly factor BamC	152		
WP_066043336.1	K04752	glnK; nitrogen regulatory protein P-II 2	86		
WP_066043338.1	K03320	amt, AMT, MEP; ammonium transporter, Amt family	405		
WP_066043341.1	K07183	nasT; two-component system, response regulator / RNA-binding antiterminator	126		
WP_066043343.1	K03118	tatC; sec-independent protein translocase protein TatC	198		
WP_066043345.1	K03117	tatB; sec-independent protein translocase protein TatB	32		
WP_066043347.1	K01523	hisE; phosphoribosyl-ATP pyrophosphohydrolase [EC:3.6.1.31]	67		
WP_066043349.1	K01496	hisI; phosphoribosyl-AMP cyclohydrolase [EC:3.5.4.19]	82	K11755	3
WP_066043479.1			37	K01174	1
WP_066043481.1	K00383	GSR, gor; glutathione reductase (NADPH) [EC:1.8.1.7]	305		
WP_066043483.1	K24136	pgdX; glutathione-dependent peroxiredoxin [EC:1.11.1.27]	179		
WP_066043486.1	K04761	oxyR; LysR family transcriptional regulator, hydrogen peroxide-inducible genes activator	112		
WP_066043492.1	K02517	lpxL, htrB; Kdo2-lipid IVA lauroyltransferase/acyltransferase [EC:2.3.1.241 2.3.1.-]	216		
WP_066043494.1	K02316	dnaG; DNA primase [EC:2.7.7.101]	265		
WP_066043496.1					
WP_066043506.1	K03438	mraW, rsmH; 16S rRNA (cytosine1402-N4)-methyltransferase [EC:2.1.1.199]	190		
WP_066043509.1	K03925	mraZ; MraZ protein	121		
WP_066043512.1			20		
WP_066043515.1	K00029	E1.1.1.40, maeB; malate dehydrogenase (oxaloacetate-decarboxylating)(NADP+) [EC:1.1.1.40]	291		
WP_066043518.1	K03073	secE; preprotein translocase subunit SecE	33		
WP_066043521.1	K02601	nusG; transcription termination/antitermination protein NusG	135		
WP_066043523.1	K02867	RP-L11, MRPL11, rplK; large subunit ribosomal protein L11	121		
WP_066043526.1	K02863	RP-L1, MRPL1, rplA; large subunit ribosomal protein L1	224		
WP_066043530.1	K02864	RP-L10, MRPL10, rplJ; large subunit ribosomal protein L10	142		
WP_066043533.1	K02935	RP-L7, MRPL12, rplL; large subunit ribosomal protein L7/L12	86		
WP_066043536.1	K03043	rpoB; DNA-directed RNA polymerase subunit beta [EC:2.7.7.6]	1040		
WP_066043540.1	K03046	rpoC; DNA-directed RNA polymerase subunit beta' [EC:2.7.7.6]	1089		
WP_066043543.1	K01657	trpE; anthranilate synthase component I [EC:4.1.3.27]	329		
WP_066043546.1	K17226	soxY; sulfur-oxidizing protein SoxY	68		
WP_066043549.1	K17227	soxZ; sulfur-oxidizing protein SoxZ	41		
WP_066043553.1	K17222	soxA; L-cysteine S-thiosulfotransferase [EC:2.8.5.2]	141		
WP_066043556.1			14	K09767	1
WP_066043559.1	K02337	dnaE; DNA polymerase III subunit alpha [EC:2.7.7.7]	679		
WP_066043562.1	K02238	comEC; competence protein ComEC	322		
WP_066043565.1	K13038	coaBC, dfp; phosphopantothenoylcysteine decarboxylase / phosphopantothenate---cysteine ligase [EC:4.1.1.36 6.3.2.5]	214		
WP_066043573.1	K03553	recA; recombination protein RecA	270		
WP_066043578.1	K03565	recX; regulatory protein	40		
WP_066043580.1	K03648	UNG, UDG; uracil-DNA glycosylase [EC:3.2.2.27]	164		
WP_066043583.1			66		
WP_066043585.1			16	K03642	1
WP_066043588.1			19	K03719	1
WP_066043591.1			28	K16329	1
WP_066043594.1			453		
WP_066043597.1	K00569	TPMT, tpmT; thiopurine S-methyltransferase [EC:2.1.1.67]	129		
WP_066043600.1	K03704	cspA; cold shock protein	11		
WP_066043603.1			119		
WP_066043605.1					
WP_066043608.1			218		
WP_066043610.1			21	K02536	1
WP_066043613.1			196		
WP_066043616.1			8	K00456	4
WP_066043620.1			53	K01921	1
WP_066043623.1			16	K03802	13
WP_066043629.1			51		
WP_066043635.1			42	K03088	8
WP_066043638.1			34	K09930	1
WP_066043641.1	K15977	K15977; putative oxidoreductase	58		
WP_066043643.1	K01652	E2.2.1.6L, ilvB, ilvG, ilvI; acetolactate synthase I/II/III large subunit [EC:2.2.1.6]	368		
WP_066043647.1			320		
WP_066043653.1			13	K03723	1
WP_066043659.1			8	K00796	1
WP_066043662.1	K01937	pyrG, CTPS; CTP synthase [EC:6.3.4.2]	429		
WP_066043665.1			24	K01439	1
WP_066043668.1	K03977	engA, der; GTPase	308		
WP_066043674.1	K01892	HARS, hisS; histidyl-tRNA synthetase [EC:6.1.1.21]	280		
WP_066043677.1	K01081	E3.1.3.5; 5'-nucleotidase [EC:3.1.3.5]	251		
WP_066043680.1	K01775	alr; alanine racemase [EC:5.1.1.1]	176		
WP_066043683.1	K02314	dnaB; replicative DNA helicase [EC:3.6.4.12]	288		
WP_066043686.1	K02939	RP-L9, MRPL9, rplI; large subunit ribosomal protein L9	110		
WP_066043690.1	K02963	RP-S18, MRPS18, rpsR; small subunit ribosomal protein S18	72		
WP_066043696.1	K02990	RP-S6, MRPS6, rpsF; small subunit ribosomal protein S6	87		
WP_066043699.1	K03630	radC; DNA repair protein RadC	145		
WP_066043701.1	K05365	mrcB; penicillin-binding protein 1B [EC:2.4.1.129 3.4.16.4]	16	K03814	4
WP_066043704.1	K14742	tsaB; tRNA threonylcarbamoyladenosine biosynthesis protein TsaB	109		
WP_066043707.1	K02195	ccmC; heme exporter protein C	159		
WP_066043709.1	K02197	ccmE; cytochrome c-type biogenesis protein CcmE	111		
WP_066043712.1	K02199	ccmG, dsbE; cytochrome c biogenesis protein CcmG, thiol:disulfide interchange protein DsbE	86		
WP_066043718.1	K03770	ppiD; peptidyl-prolyl cis-trans isomerase D [EC:5.2.1.8]	241		
WP_066043721.1	K00208	fabI; enoyl-[acyl-carrier protein] reductase I [EC:1.3.1.9 1.3.1.10]	204		
WP_066043724.1	K03101	lspA; signal peptidase II [EC:3.4.23.36]	78		
WP_066043727.1			17	K07126	1
WP_066043730.1	K03153	thiO; glycine oxidase [EC:1.4.3.19]	169		
WP_066043733.1	K07462	recJ; single-stranded-DNA-specific exonuclease [EC:3.1.-.-]	342		
WP_066043735.1			116		
WP_066043738.1	K01868	TARS, thrS; threonyl-tRNA synthetase [EC:6.1.1.3]	514		
WP_066043746.1	K02916	RP-L35, MRPL35, rpmI; large subunit ribosomal protein L35	69		
WP_066043750.1	K02887	RP-L20, MRPL20, rplT; large subunit ribosomal protein L20	94		
WP_066043754.1	K06077	slyB; outer membrane lipoprotein SlyB	27		
WP_066043759.1	K01889	FARSA, pheS; phenylalanyl-tRNA synthetase alpha chain [EC:6.1.1.20]	261		
WP_066043762.1	K01890	FARSB, pheT; phenylalanyl-tRNA synthetase beta chain [EC:6.1.1.20]	466		
WP_066043765.1	K04764	ihfA, himA; integration host factor subunit alpha	45		
WP_066043768.1			42	K03406	1
WP_066043771.1	K21029	moeB; molybdopterin-synthase adenylyltransferase [EC:2.7.7.80]	160		
WP_066043774.1	K00088	IMPDH, guaB; IMP dehydrogenase [EC:1.1.1.205]	370		
WP_066043777.1	K07184	ygiM; SH3 domain protein	56		
WP_066043779.1	K01873	VARS, valS; valyl-tRNA synthetase [EC:6.1.1.9]	691		
WP_066043784.1	K07461	K07461; putative endonuclease	53		
WP_066043789.1			195		
WP_066043794.1	K06187	recR; recombination protein RecR	136		
WP_066043797.1	K09747	ebfC; nucleoid-associated protein EbfC	56		
WP_066043799.1	K00992	murU; N-acetyl-alpha-D-muramate 1-phosphate uridylyltransferase [EC:2.7.7.99]	124		
WP_066043804.1	K08305	mltB; membrane-bound lytic murein transglycosylase B [EC:4.2.2.-]	133		
WP_066043807.1	K05837	rodA, mrdB; rod shape determining protein RodA	241	K05515	7
WP_066043810.1			175		
WP_066043813.1			146	K03308	2
WP_066043815.1			7	K07729	2
WP_066043823.1	K07126	K07126; uncharacterized protein	64		
WP_066043825.1	K01885	EARS, gltX; glutamyl-tRNA synthetase [EC:6.1.1.17]	308		
WP_066043828.1	K00275	pdxH, PNPO; pyridoxamine 5'-phosphate oxidase [EC:1.4.3.5]	149		
WP_066043831.1	K00014	aroE; shikimate dehydrogenase [EC:1.1.1.25]	159		
WP_066043833.1	K03793	PTR1; pteridine reductase [EC:1.5.1.33]	150		
WP_066043836.1			197		
WP_066043839.1	K01256	pepN; aminopeptidase N [EC:3.4.11.2]	464		
WP_066043841.1	K03743	pncC; nicotinamide-nucleotide amidase [EC:3.5.1.42]	72		
WP_066043842.1	K07316	mod; adenine-specific DNA-methyltransferase [EC:2.1.1.72]	311		
WP_066043845.1	K01156	res; type III restriction enzyme [EC:3.1.21.5]	512		
WP_066043848.1	K03590	ftsA; cell division protein FtsA	131		
WP_066043851.1	K02535	lpxC; UDP-3-O-[3-hydroxymyristoyl] N-acetylglucosamine deacetylase [EC:3.5.1.108]	297		
WP_066043854.1	K01652	E2.2.1.6L, ilvB, ilvG, ilvI; acetolactate synthase I/II/III large subunit [EC:2.2.1.6]	437		
WP_066043857.1	K01653	E2.2.1.6S, ilvH, ilvN; acetolactate synthase I/III small subunit [EC:2.2.1.6]	101		
WP_066043859.1	K00053	ilvC; ketol-acid reductoisomerase [EC:1.1.1.86]	277		
WP_066043863.1	K17103	CHO1, pssA; CDP-diacylglycerol---serine O-phosphatidyltransferase [EC:2.7.8.8]	164		
WP_066043866.1	K01649	leuA, IMS; 2-isopropylmalate synthase [EC:2.3.3.13]	493		
WP_066043869.1			13	K21929	3
WP_066043872.1	K09765	queH; epoxyqueuosine reductase [EC:1.17.99.6]	212		
WP_066043873.1	K24821	atm1, pexA; ATP-binding cassette, subfamily B, heavy metal transporter	394		
WP_066043875.1			14	K07658	1
WP_066043878.1	K05515	mrdA; penicillin-binding protein 2 [EC:3.4.16.4]	355		
WP_066043881.1	K03571	mreD; rod shape-determining protein MreD	31		
WP_066043884.1	K03570	mreC; rod shape-determining protein MreC	149		
WP_066043886.1	K03569	mreB; rod shape-determining protein MreB and related proteins	254		
WP_066043889.1	K01676	E4.2.1.2A, fumA, fumB; fumarate hydratase, class I [EC:4.2.1.2]	365		
WP_066043892.1	K03215	rumA; 23S rRNA (uracil1939-C5)-methyltransferase [EC:2.1.1.190]	287		
WP_066043895.1			75		
WP_066043898.1			86		
WP_066043901.1	K08218	ampG; MFS transporter, PAT family, beta-lactamase induction signal transducer AmpG	295		
WP_066043916.1			22	K01182	1
WP_066043919.1	K03657	uvrD, pcrA; DNA helicase II / ATP-dependent DNA helicase PcrA [EC:3.6.4.12]	452		
WP_066043921.1			35	K07483	1
WP_066043924.1			54		
WP_066043927.1	K00537	arsC; arsenate reductase (glutaredoxin) [EC:1.20.4.1]	81		
WP_066043930.1	K00799	GST, gst; glutathione S-transferase [EC:2.5.1.18]	108		
WP_066043934.1	K00783	rlmH; 23S rRNA (pseudouridine1915-N3)-methyltransferase [EC:2.1.1.177]	82		
WP_066043938.1	K09710	ybeB; ribosome-associated protein	42		
WP_066043941.1	K00969	nadD; nicotinate-nucleotide adenylyltransferase [EC:2.7.7.18]	110		
WP_066043944.1	K01069	gloB, gloC, HAGH; hydroxyacylglutathione hydrolase [EC:3.1.2.6]	27		
WP_066043947.1			130		
WP_066043949.1			38	K03801	1
WP_066043952.1			5	K02342	1
WP_066043955.1			10	K18830	1
WP_066043958.1			16	K18330	1
WP_066043960.1			10	K19159	1
WP_066043963.1			15	K00554	1
WP_066043968.1			237		
WP_066043971.1					
WP_066043974.1					
WP_066043976.1			22	K01768	1
WP_066043981.1			17	K01029	1
WP_066043984.1			17	K07283	1
WP_066043991.1	K01358	clpP, CLPP; ATP-dependent Clp protease, protease subunit [EC:3.4.21.92]	19		
WP_066043994.1			120		
WP_066043998.1			20	K02470	1
WP_066044001.1			15	K07692	1
WP_066044004.1			20	K25285	1
WP_066044009.1			15	K00058	1
WP_066044012.1			25	K05802	1
WP_066044014.1			12	K01593	1
WP_066044017.1			21	K03814	1
WP_066044022.1			11	K03637	1
WP_066044024.1			8	K00059	1
WP_066044029.1			19	K03199	1
WP_066044031.1			4	K03406	1
WP_066044033.1			5	K03406	2
WP_066044037.1			89	K10555	1
WP_066044040.1			83	K02055	1
WP_066044043.1			26	K19173	1
WP_066044048.1			6	K03417	1
WP_066044054.1			129		
WP_066044057.1			67		
WP_066044060.1			18	K21572	1
WP_066044062.1			2	K00632	1
WP_066044065.1			5	K03687	1
WP_066044068.1			2	K07044	1
WP_066044074.1			20	K07574	1
WP_066044077.1			31	K17736	1
WP_066044079.1	K06180	rluD; 23S rRNA pseudouridine1911/1915/1917 synthase [EC:5.4.99.23]	258		
WP_066044082.1	K05810	yfiH; polyphenol oxidase [EC:1.10.3.-]	163		
WP_066044085.1			18		
WP_066044088.1			18	K03503	3
WP_066044092.1	K10563	mutM, fpg; formamidopyrimidine-DNA glycosylase [EC:3.2.2.23 4.2.99.18]	173		
WP_066044095.1	K06980	ygfZ; tRNA-modifying protein YgfZ	33		
WP_066044098.1			379		
WP_066044101.1	K03525	coaX; type III pantothenate kinase [EC:2.7.1.33]	31		
WP_066044104.1	K01867	WARS, trpS; tryptophanyl-tRNA synthetase [EC:6.1.1.2]	318		
WP_066044108.1	K06178	rluB; 23S rRNA pseudouridine2605 synthase [EC:5.4.99.22]	217		
WP_066044111.1	K01870	IARS, ileS; isoleucyl-tRNA synthetase [EC:6.1.1.5]	665		
WP_066044113.1			14	K03406	1
WP_066044116.1	K02435	gatC, GATC; aspartyl-tRNA(Asn)/glutamyl-tRNA(Gln) amidotransferase subunit C [EC:6.3.5.6 6.3.5.7]	67		
WP_066044119.1	K02433	gatA, QRSL1; aspartyl-tRNA(Asn)/glutamyl-tRNA(Gln) amidotransferase subunit A [EC:6.3.5.6 6.3.5.7]	504		
WP_066044123.1	K03427	hsdM; type I restriction enzyme M protein [EC:2.1.1.72]	213		
WP_066044125.1	K14623	dinD; DNA-damage-inducible protein D	197		
WP_066044128.1	K01154	hsdS; type I restriction enzyme, S subunit [EC:3.1.21.3]	34	K03427	1
WP_066044135.1	K02434	gatB, PET112; aspartyl-tRNA(Asn)/glutamyl-tRNA(Gln) amidotransferase subunit B [EC:6.3.5.6 6.3.5.7]	439		
WP_066044137.1	K08997	SELENOO, selO; serine/tyrosine/threonine adenylyltransferase [EC:2.7.7.-]	183		
WP_066044139.1	K01881	PARS, proS; prolyl-tRNA synthetase [EC:6.1.1.15]	380		
WP_066044141.1			237		
WP_066044145.1	K01689	ENO, eno; enolase [EC:4.2.1.11]	340		
WP_066044147.1	K03686	dnaJ; molecular chaperone DnaJ	242		
WP_066044149.1	K04043	dnaK, HSPA9; molecular chaperone DnaK	508		
WP_066044152.1	K00945	cmk; CMP/dCMP kinase [EC:2.7.4.25]	130		
WP_066044154.1	K02945	RP-S1, rpsA; small subunit ribosomal protein S1	394		
WP_066044155.1	K05788	ihfB, himD; integration host factor subunit beta	35	K03530	8
WP_066044158.1			41		
WP_066044162.1			54	K13683	12
WP_066044165.1	K07497	K07497; putative transposase	27		
WP_066044168.1			58		
WP_066044170.1	K07270	K07270; glycosyl transferase, family 25	147		
WP_066044175.1			34		
WP_066044178.1	K02847	waaL, rfaL; O-antigen ligase [EC:2.4.1.-]	65		
WP_066044180.1			19	K18909	1
WP_066044181.1					
WP_066044184.1			28	K19165	1
WP_066044186.1	K07334	higB-1; toxin HigB-1	12		
WP_066044189.1	K01711	gmd, GMDS; GDPmannose 4,6-dehydratase [EC:4.2.1.47]	250		
WP_066044193.1	K09690	wzm, rfbA; lipopolysaccharide transport system permease protein	197		
WP_066044195.1	K09691	wzt, rbfB; lipopolysaccharide transport system ATP-binding protein	206		
WP_066044199.1	K20151	fucT; alpha(1,3/1,4) fucosyltransferase [EC:2.4.1.65 2.4.1.152]	144		
WP_066044201.1			153		
WP_066044203.1	K07270	K07270; glycosyl transferase, family 25	63		
WP_066044205.1			15	K21402	1
WP_066044208.1			216		
WP_066044210.1			61	K13683	10
WP_066044211.1			21	K19419	5
WP_066044212.1			15	K16556	2
WP_066044213.1	K16698	tuaG; teichuronic acid biosynthesis glycosyltransferase TuaG [EC:2.4.-.-]	149		
WP_066044215.1			153	K02851	28
WP_066044217.1	K01784	galE, GALE; UDP-glucose 4-epimerase [EC:5.1.3.2]	233		
WP_066044219.1	K25307	wzb, etp; low molecular weight protein-tyrosine phosphatase [EC:3.1.3.48]	105		
WP_066044222.1	K01991	wza, gfcE; polysaccharide biosynthesis/export protein	38		
WP_066044223.1	K16692	etk-wzc; tyrosine-protein kinase Etk/Wzc [EC:2.7.10.-]	324		
WP_066044227.1	K00812	aspB; aspartate aminotransferase [EC:2.6.1.1]	290		
WP_066044229.1	K03702	uvrB; excinuclease ABC subunit B	494		
WP_066044231.1	K10026	queE; 7-carboxy-7-deazaguanine synthase [EC:4.3.99.3]	141		
WP_066044233.1	K13993	HSP20; HSP20 family protein	21		
WP_066044235.1	K03321	TC.SULP; sulfate permease, SulP family	332		
WP_066044236.1	K01736	aroC; chorismate synthase [EC:4.2.3.5]	332		
WP_066044240.1			69		
WP_066044242.1	K07126	K07126; uncharacterized protein	10		
WP_066044244.1	K01591	pyrF; orotidine-5'-phosphate decarboxylase [EC:4.1.1.23]	173		
WP_066044246.1			16	K02519	1
WP_066044250.1			230		
WP_066044254.1	K00990	glnD; [protein-PII] uridylyltransferase [EC:2.7.7.59]	424		
WP_066044256.1	K03671	trxA; thioredoxin 1	82		
WP_066044259.1	K03628	rho; transcription termination factor Rho	351		
WP_066044261.1	K07091	lptF; lipopolysaccharide export system permease protein	154		
WP_066044263.1	K09457	queF; 7-cyano-7-deazaguanine reductase [EC:1.7.1.13]	103		
WP_066044264.1			170		
WP_066044266.1	K03602	xseB; exodeoxyribonuclease VII small subunit [EC:3.1.11.6]	32		
WP_066044269.1					
WP_066044272.1	K00648	fabH; 3-oxoacyl-[acyl-carrier-protein] synthase III [EC:2.3.1.180]	226		
WP_066044273.1	K03621	plsX; phosphate acyltransferase [EC:2.3.1.274]	255		
WP_066044274.1	K02911	RP-L32, MRPL32, rpmF; large subunit ribosomal protein L32	58		
WP_066044277.1	K07040	K07040; uncharacterized protein	75		
WP_066044280.1	K03218	rlmB; 23S rRNA (guanosine2251-2'-O)-methyltransferase [EC:2.1.1.185]	147		
WP_066044281.1					
WP_066044283.1	K04744	lptD, imp, ostA; LPS-assembly protein	243		
WP_066044285.1	K04088	hflK; modulator of FtsH protease HflK	228		
WP_066044287.1	K04087	hflC; modulator of FtsH protease HflC	192		
WP_066044289.1	K02502	hisZ; ATP phosphoribosyltransferase regulatory subunit	219		
WP_066044291.1	K01939	purA, ADSS; adenylosuccinate synthase [EC:6.3.4.4]	348		
WP_066044292.1	K12573	rnr, vacB; ribonuclease R [EC:3.1.13.1]	416		
WP_066044294.1	K03654	recQ; ATP-dependent DNA helicase RecQ [EC:3.6.4.12]	451		
WP_066044295.1			204		
WP_066044297.1	K02527	kdtA, waaA; 3-deoxy-D-manno-octulosonic-acid transferase [EC:2.4.99.12 2.4.99.13 2.4.99.14 2.4.99.15]	207		
WP_066044299.1	K03979	obgE, cgtA, MTG2; GTPase [EC:3.6.5.-]	213		
WP_066044301.1	K00931	proB; glutamate 5-kinase [EC:2.7.2.11]	161		
WP_066044303.1	K00950	folK; 2-amino-4-hydroxy-6-hydroxymethyldihydropteridine diphosphokinase [EC:2.7.6.3]	128		
WP_066044304.1	K00606	panB; 3-methyl-2-oxobutanoate hydroxymethyltransferase [EC:2.1.2.11]	160		
WP_066044306.1	K01918	panC; pantoate--beta-alanine ligase [EC:6.3.2.1]	135		
WP_066044308.1	K07400	nfuA; Fe/S biogenesis protein NfuA	141		
WP_066044310.1	K00946	thiL; thiamine-monophosphate kinase [EC:2.7.4.16]	216		
WP_066044312.1	K06204	dksA; DnaK suppressor protein	79		
WP_066044314.1			156		
WP_066044315.1	K01754	E4.3.1.19, ilvA, tdcB; threonine dehydratase [EC:4.3.1.19]	316		
WP_066044317.1			11	K19342	1
WP_066044319.1	K03789	rimI; [ribosomal protein S18]-alanine N-acetyltransferase [EC:2.3.1.266]	43		
WP_066044321.1	K00031	IDH1, IDH2, icd; isocitrate dehydrogenase [EC:1.1.1.42]	444		
WP_066044323.1			16	K03646	1
WP_066044328.1			51		
WP_066044329.1			177		
WP_066044331.1	K16092	btuB; vitamin B12 transporter	148		
WP_066044333.1	K00831	serC, PSAT1; phosphoserine aminotransferase [EC:2.6.1.52]	381		
WP_066044335.1	K00058	serA, PHGDH; D-3-phosphoglycerate dehydrogenase / 2-oxoglutarate reductase [EC:1.1.1.95 1.1.1.399]	276		
WP_066044337.1	K14170	pheA; chorismate mutase / prephenate dehydratase [EC:5.4.99.5 4.2.1.51]	236		
WP_066044339.1	K00817	hisC; histidinol-phosphate aminotransferase [EC:2.6.1.9]	212		
WP_066044341.1	K04517	tyrA2; prephenate dehydrogenase [EC:1.3.1.12]	164		
WP_066044342.1	K00800	aroA; 3-phosphoshikimate 1-carboxyvinyltransferase [EC:2.5.1.19]	207	K24018	69
WP_066044344.1	K11179	tusE, dsrC; tRNA 2-thiouridine synthesizing protein E [EC:2.8.1.-]	44		
WP_066044346.1	K03497	parB, spo0J; ParB family transcriptional regulator, chromosome partitioning protein	153		
WP_066044349.1	K03496	parA, soj; chromosome partitioning protein	167		
WP_066044351.1	K03797	E3.4.21.102, prc, ctpA; carboxyl-terminal processing protease [EC:3.4.21.102]	234		
WP_066044353.1	K07323	mlaC; phospholipid transport system substrate-binding protein	15		
WP_066044355.1			57		
WP_066044357.1			22	K23779	1
WP_066044359.1			35	K01990	1
WP_066044360.1	K03427	hsdM; type I restriction enzyme M protein [EC:2.1.1.72]	438		
WP_066044362.1			185		
WP_066044364.1			15		
WP_066044366.1			59	K01173	1
WP_066044368.1			122		
WP_066044371.1	K13292	lgt, umpA; phosphatidylglycerol---prolipoprotein diacylglyceryl transferase [EC:2.5.1.145]	169		
WP_066044373.1	K00560	thyA, TYMS; thymidylate synthase [EC:2.1.1.45]	255		
WP_066044375.1	K06193	phnA; protein PhnA	82		
WP_066044376.1			138		
WP_066044378.1			148		
WP_066044380.1	K03685	rnc, DROSHA, RNT1; ribonuclease III [EC:3.1.26.3]	127		
WP_066044382.1	K03595	era, ERAL1; GTPase	198		
WP_066044383.1	K03584	recO; DNA repair protein RecO (recombination protein O)	126		
WP_066044385.1	K03474	pdxJ; pyridoxine 5-phosphate synthase [EC:2.6.99.2]	171		
WP_066044386.1	K00997	acpS; holo-[acyl-carrier protein] synthase [EC:2.7.8.7]	67		
WP_066044388.1			15	K24180	1
WP_066044390.1			7	K21919	4
WP_066044392.1	K00568	ubiG; 2-polyprenyl-6-hydroxyphenyl methylase / 3-demethylubiquinone-9 3-methyltransferase [EC:2.1.1.222 2.1.1.64]	176		
WP_066044394.1	K03564	BCP, PRXQ, DOT5; thioredoxin-dependent peroxiredoxin [EC:1.11.1.24]	101		
WP_066044396.1	K03596	lepA; GTP-binding protein LepA	489		
WP_066044398.1			159		
WP_066044400.1	K03106	SRP54, ffh; signal recognition particle subunit SRP54 [EC:3.6.5.4]	317		
WP_066044401.1	K00013	hisD; histidinol dehydrogenase [EC:1.1.1.23]	433		
WP_066044404.1	K00765	hisG; ATP phosphoribosyltransferase [EC:2.4.2.17]	144		
WP_066044406.1	K00790	murA; UDP-N-acetylglucosamine 1-carboxyvinyltransferase [EC:2.5.1.7]	398		
WP_066044408.1	K07323	mlaC; phospholipid transport system substrate-binding protein	52		
WP_066044409.1	K03703	uvrC; excinuclease ABC subunit C	350		
WP_066044412.1			52		
WP_066044414.1	K15738	uup; ABC transport system ATP-binding/permease protein	351		
WP_066044417.1	K02200	ccmH; cytochrome c-type biogenesis protein CcmH	64		
WP_066044419.1			82		
WP_066044421.1			27		
WP_066044423.1			14		
WP_066044426.1	K04567	KARS, lysS; lysyl-tRNA synthetase, class II [EC:6.1.1.6]	377		
WP_066044427.1			12	K06994	1
WP_066044429.1			1		
WP_066044430.1	K00611	OTC, argF, argI; ornithine carbamoyltransferase [EC:2.1.3.3]	227		
WP_066044431.1	K00821	argD; acetylornithine/N-succinyldiaminopimelate aminotransferase [EC:2.6.1.11 2.6.1.17]	292		
WP_066044433.1			24	K11312	1
WP_066044435.1	K05808	yhbH; putative sigma-54 modulation protein	67		
WP_066044437.1	K06213	mgtE; magnesium transporter	278		
WP_066044439.1	K15778	pmm-pgm; phosphomannomutase / phosphoglucomutase [EC:5.4.2.8 5.4.2.2]	389		
WP_066044441.1	K03803	rseC; sigma-E factor negative regulatory protein RseC	32		
WP_066044443.1	K00163	aceE; pyruvate dehydrogenase E1 component [EC:1.2.4.1]	677		
WP_066044445.1			76		
WP_066044447.1			109		
WP_066044449.1	K18850	ycfD; 50S ribosomal protein L16 3-hydroxylase [EC:1.14.11.47]	136		
WP_066044452.1	K00600	glyA, SHMT; glycine hydroxymethyltransferase [EC:2.1.2.1]	342		
WP_066044453.1	K07738	nrdR; transcriptional repressor NrdR	91		
WP_066044455.1	K04485	radA, sms; DNA repair protein RadA/Sms	315		
WP_066044457.1			23	K03307	1
WP_066044458.1	K03760	eptA, pmrC; lipid A ethanolaminephosphotransferase [EC:2.7.8.43]	206		
WP_066044460.1	K11720	lptG; lipopolysaccharide export system permease protein	176		
WP_066044463.1	K01790	rfbC, rmlC; dTDP-4-dehydrorhamnose 3,5-epimerase [EC:5.1.3.13]	162		
WP_066044464.1			121		
WP_066044465.1	K01710	rfbB, rmlB, rffG; dTDP-glucose 4,6-dehydratase [EC:4.2.1.46]	270		
WP_066044466.1	K03775	slyD; FKBP-type peptidyl-prolyl cis-trans isomerase SlyD [EC:5.2.1.8]	83		
WP_066044468.1			116		
WP_066044469.1	K06949	rsgA, engC; ribosome biogenesis GTPase / thiamine phosphate phosphatase [EC:3.6.1.- 3.1.3.100]	175		
WP_066044471.1			27		
WP_066044473.1	K06013	STE24; STE24 endopeptidase [EC:3.4.24.84]	253		
WP_066044475.1	K00928	lysC; aspartate kinase [EC:2.7.2.4]	302		
WP_066044477.1	K00826	E2.6.1.42, ilvE; branched-chain amino acid aminotransferase [EC:2.6.1.42]	355		
WP_066044478.1			23		
WP_066044480.1	K00891	aroK, aroL; shikimate kinase [EC:2.7.1.71]	87		
WP_066044484.1			13	K12340	10
WP_066044485.1			271		
WP_066044487.1	K09946	K09946; uncharacterized protein	51		
WP_066044488.1			63		
WP_066044490.1			11	K19449	4
WP_066044491.1			34		
WP_066044495.1					
WP_066044497.1			4	K07451	1
WP_066044500.1			60	K10005	1
WP_066044501.1	K01950	E6.3.5.1, NADSYN1, QNS1, nadE; NAD+ synthase (glutamine-hydrolysing) [EC:6.3.5.1]	320		
WP_066044504.1	K09969	aapJ, bztA; general L-amino acid transport system substrate-binding protein	224		
WP_066044506.1	K09970	aapQ, bztB; general L-amino acid transport system permease protein	231		
WP_066044507.1	K09971	aapM, bztC; general L-amino acid transport system permease protein	317		
WP_066044513.1			5	K03655	2
WP_066044515.1	K03671	trxA; thioredoxin 1	11	K05838	11
WP_066044517.1	K01772	hemH, FECH; protoporphyrin/coproporphyrin ferrochelatase [EC:4.99.1.1 4.99.1.9]	191		
WP_066044518.1	K00523	ascD, ddhD, rfbI; CDP-4-dehydro-6-deoxyglucose reductase, E3 [EC:1.17.1.1]	77		
WP_066044519.1					
WP_066044521.1	K00525	E1.17.4.1A, nrdA, nrdE; ribonucleoside-diphosphate reductase alpha chain [EC:1.17.4.1]	612		
WP_066044523.1	K00526	E1.17.4.1B, nrdB, nrdF; ribonucleoside-diphosphate reductase beta chain [EC:1.17.4.1]	375		
WP_066044525.1	K11107	yfaE; ferredoxin	17	K07140	1
WP_066044526.1	K06917	selU, mnmH; tRNA 2-selenouridine synthase [EC:2.9.1.3]	187		
WP_066044528.1	K01008	selD, SEPHS; selenide, water dikinase [EC:2.7.9.3]	227		
WP_066044530.1			126		
WP_066044531.1	K07114	yfbK; Ca-activated chloride channel homolog	152		
WP_066044533.1	K07114	yfbK; Ca-activated chloride channel homolog	137		
WP_066044535.1			17	K19303	1
WP_066044537.1			110		
WP_066044541.1	K03924	moxR; MoxR-like ATPase [EC:3.6.3.-]	214		
WP_066044543.1			157		
WP_066044545.1			58		
WP_066044546.1			21		
WP_066044548.1	K07234	K07234; uncharacterized protein involved in response to NO	242		
WP_066044550.1			260		
WP_066044552.1	K09158	K09158; uncharacterized protein	34		
WP_066044554.1	K03801	lipB; lipoyl(octanoyl) transferase [EC:2.3.1.181]	134		
WP_066044556.1	K03644	lipA, LIAS, LIP1, LIP5; lipoyl synthase [EC:2.8.1.8]	237		
WP_066044558.1			161		
WP_066044560.1	K00097	pdxA; 4-hydroxythreonine-4-phosphate dehydrogenase [EC:1.1.1.262]	191		
WP_066044561.1	K02528	ksgA; 16S rRNA (adenine1518-N6/adenine1519-N6)-dimethyltransferase [EC:2.1.1.182]	151		
WP_066044563.1	K06195	apaG; ApaG protein	84		
WP_066044566.1	K01525	apaH; bis(5'-nucleosyl)-tetraphosphatase (symmetrical) [EC:3.6.1.41]	158		
WP_066044568.1	K01778	dapF; diaminopimelate epimerase [EC:5.1.1.7]	169		
WP_066044570.1			83		
WP_066044572.1	K07277	SAM50, TOB55, bamA; outer membrane protein insertion porin family	347		
WP_066044573.1	K02536	lpxD; UDP-3-O-[3-hydroxymyristoyl] glucosamine N-acyltransferase [EC:2.3.1.191]	155		
WP_066044575.1	K02372	fabZ; 3-hydroxyacyl-[acyl-carrier-protein] dehydratase [EC:4.2.1.59]	110		
WP_066044577.1	K00677	lpxA; UDP-N-acetylglucosamine acyltransferase [EC:2.3.1.129]	178		
WP_066044579.1	K03980	murJ, mviN; putative peptidoglycan lipid II flippase	297		
WP_066044581.1			57		
WP_066044582.1	K00942	gmk, GUK1; guanylate kinase [EC:2.7.4.8]	129		
WP_066044584.1	K03089	rpoH; RNA polymerase sigma-32 factor	171		
WP_066044586.1	K04078	groES, HSPE1; chaperonin GroES	82		
WP_066044589.1	K04077	groEL, HSPD1; chaperonin GroEL	487		
WP_066044591.1	K02622	parE; topoisomerase IV subunit B [EC:5.6.2.2]	494		
WP_066044593.1	K06920	queC; 7-cyano-7-deazaguanine synthase [EC:6.3.4.20]	165		
WP_066044594.1	K02078	acpP; acyl carrier protein	51		
WP_066044596.1	K09458	fabF, OXSM, CEM1; 3-oxoacyl-[acyl-carrier-protein] synthase II [EC:2.3.1.179]	324		
WP_066044598.1			23	K00794	1
WP_066044600.1	K01414	prlC; oligopeptidase A [EC:3.4.24.70]	360		
WP_066044603.1	K01874	MARS, metG; methionyl-tRNA synthetase [EC:6.1.1.10]	447		
WP_066044605.1	K03593	mrp, NUBPL; ATP-binding protein involved in chromosome partitioning	245		
WP_066044607.1			67		
WP_066044609.1	K04755	fdx; ferredoxin, 2Fe-2S	89		
WP_066044611.1	K04044	hscA; molecular chaperone HscA	402		
WP_066044612.1	K04082	hscB, HSCB, HSC20; molecular chaperone HscB	65		
WP_066044613.1	K13628	iscA; iron-sulfur cluster assembly protein	113		
WP_066044614.1	K04488	iscU, nifU; nitrogen fixation protein NifU and related proteins	155		
WP_066044615.1	K04487	iscS, NFS1; cysteine desulfurase [EC:2.8.1.7]	342		
WP_066044616.1	K13643	iscR; Rrf2 family transcriptional regulator, iron-sulfur cluster assembly transcription factor	79		
WP_066044617.1	K00640	cysE; serine O-acetyltransferase [EC:2.3.1.30]	202		
WP_066044618.1	K02517	lpxL, htrB; Kdo2-lipid IVA lauroyltransferase/acyltransferase [EC:2.3.1.241 2.3.1.-]	189		
WP_066044619.1	K14058	ttcA; tRNA 2-thiocytidine biosynthesis protein TtcA	178		
WP_066044620.1			55		
WP_066044621.1			66		
WP_066044622.1			18	K09956	1
WP_066044623.1			27	K07339	1
WP_066044625.1	K01657	trpE; anthranilate synthase component I [EC:4.1.3.27]	264		
WP_066044627.1	K03640	pal; peptidoglycan-associated lipoprotein	40		
WP_066044629.1	K03641	tolB; TolB protein	200		
WP_066044631.1			42		
WP_066044634.1	K05807	bamD; outer membrane protein assembly factor BamD	126		
WP_066044637.1			190		
WP_066044639.1	K03111	ssb; single-strand DNA-binding protein	117		
WP_066044641.1			67		
WP_066044643.1			15	K12340	1
WP_066044645.1	K00548	metH, MTR; 5-methyltetrahydrofolate--homocysteine methyltransferase [EC:2.1.1.13]	873		
WP_066044647.1	K03625	nusB; transcription antitermination protein NusB	111		
WP_066044649.1	K00794	ribH, RIB4; 6,7-dimethyl-8-ribityllumazine synthase [EC:2.5.1.78]	113		
WP_066044651.1	K14652	ribBA; 3,4-dihydroxy 2-butanone 4-phosphate synthase / GTP cyclohydrolase II [EC:4.1.99.12 3.5.4.25]	328		
WP_066044654.1	K00793	ribE, RIB5; riboflavin synthase [EC:2.5.1.9]	130		
WP_066044656.1	K07058	K07058; membrane protein	108		
WP_066044658.1			63		
WP_066044660.1			43	K02071	1
WP_066044662.1			418		
WP_066044664.1	K03588	ftsW, spoVE; cell division protein FtsW	168		
WP_066044666.1	K02563	murG; UDP-N-acetylglucosamine--N-acetylmuramyl-(pentapeptide) pyrophosphoryl-undecaprenol N-acetylglucosamine transferase [EC:2.4.1.227]	183		
WP_066044669.1	K01012	bioB; biotin synthase [EC:2.8.1.6]	254		
WP_066044671.1	K01915	glnA, GLUL; glutamine synthetase [EC:6.3.1.2]	559		
WP_066044674.1	K04085	tusA, sirA; tRNA 2-thiouridine synthesizing protein A [EC:2.8.1.-]	34		
WP_066044675.1	K00228	CPOX, hemF; coproporphyrinogen III oxidase [EC:1.3.3.3]	332		
WP_066044677.1	K07566	tsaC, rimN, SUA5; L-threonylcarbamoyladenylate synthase [EC:2.7.7.87]	63		
WP_066044679.1	K03733	xerC; integrase/recombinase XerC	142		
WP_066044681.1	K04079	HSP90A, htpG; molecular chaperone HtpG	434		
WP_066044685.1			32	K02493	1
WP_066044687.1	K01092	E3.1.3.25, IMPA, suhB; myo-inositol-1(or 4)-monophosphatase [EC:3.1.3.25]	254		
WP_066044689.1			160		
WP_066044691.1	K09760	rmuC; DNA recombination protein RmuC	155		
WP_066044693.1	K00655	plsC; 1-acyl-sn-glycerol-3-phosphate acyltransferase [EC:2.3.1.51]	184		
WP_066044694.1	K03683	rnt; ribonuclease T [EC:3.1.13.-]	130		
WP_066044696.1	K14682	argAB; amino-acid N-acetyltransferase [EC:2.3.1.1]	14	K00619	5
WP_066044698.1	K01687	ilvD; dihydroxy-acid dehydratase [EC:4.2.1.9]	647		
WP_066044700.1	K01061	E3.1.1.45; carboxymethylenebutenolidase [EC:3.1.1.45]	19		
WP_066044702.1	K03147	thiC; phosphomethylpyrimidine synthase [EC:4.1.99.17]	519		
WP_066044705.1	K01698	hemB, ALAD; porphobilinogen synthase [EC:4.2.1.24]	309		
WP_066044707.1			35		
WP_066044711.1	K01895	ACSS1_2, acs; acetyl-CoA synthetase [EC:6.2.1.1]	485		
WP_066044713.1	K03060	rpoZ; DNA-directed RNA polymerase subunit omega [EC:2.7.7.6]	38		
WP_066044716.1	K02342	dnaQ; DNA polymerase III subunit epsilon [EC:2.7.7.7]	130		
WP_066044719.1			120		
WP_066044721.1			214		
WP_066044723.1	K04083	hslO; molecular chaperone Hsp33	192		
WP_066044725.1	K06177	rluA; tRNA pseudouridine32 synthase / 23S rRNA pseudouridine746 synthase [EC:5.4.99.28 5.4.99.29]	183		
WP_066044728.1	K03744	lemA; LemA protein	116		
WP_066044730.1			42	K03799	25
WP_066044733.1	K01265	map; methionyl aminopeptidase [EC:3.4.11.18]	245		
WP_066044736.1			152		
WP_066044741.1	K03517	nadA; quinolinate synthase [EC:2.5.1.72]	254		
WP_066044743.1			193		
WP_066044745.1	K01952	PFAS, purL; phosphoribosylformylglycinamidine synthase [EC:6.3.5.3]	849		
WP_066044747.1			75		
WP_066044749.1	K07390	grxD, GLRX5; monothiol glutaredoxin	72		
WP_066044751.1	K00564	rsmC; 16S rRNA (guanine1207-N2)-methyltransferase [EC:2.1.1.172]	135		
WP_066044753.1	K07146	K07146; UPF0176 protein	218		
WP_066044756.1	K01662	dxs; 1-deoxy-D-xylulose-5-phosphate synthase [EC:2.2.1.7]	410		
WP_066044762.1	K03526	gcpE, ispG; (E)-4-hydroxy-3-methylbut-2-enyl-diphosphate synthase [EC:1.17.7.1 1.17.7.3]	352		
WP_066044766.1	K06941	rlmN; 23S rRNA (adenine2503-C2)-methyltransferase [EC:2.1.1.192]	232		
WP_066044768.1	K03530	hupB; DNA-binding protein HU-beta	64		
WP_066044770.1	K03664	smpB; SsrA-binding protein	115		
WP_066044771.1			83		
WP_066044773.1	K06181	rluE; 23S rRNA pseudouridine2457 synthase [EC:5.4.99.20]	139		
WP_066044775.1			181		
WP_066044777.1			62		
WP_066044779.1	K07126	K07126; uncharacterized protein	15	K15475	1
WP_066044781.1			127		
WP_066044783.1			5	K03286	1
WP_066044785.1	K03469	rnhA, RNASEH1; ribonuclease HI [EC:3.1.26.4]	130		
WP_066044787.1	K01953	asnB, ASNS; asparagine synthase (glutamine-hydrolysing) [EC:6.3.5.4]	416		
WP_066044788.1	K01703	leuC, IPMI-L; 3-isopropylmalate/(R)-2-methylmalate dehydratase large subunit [EC:4.2.1.33 4.2.1.35]	487		
WP_066044790.1	K01704	leuD, IPMI-S; 3-isopropylmalate/(R)-2-methylmalate dehydratase small subunit [EC:4.2.1.33 4.2.1.35]	157		
WP_066044792.1	K03550	ruvA; holliday junction DNA helicase RuvA [EC:3.6.4.12]	115		
WP_066044794.1			459		
WP_066044796.1	K06207	typA, bipA; GTP-binding protein	476		
WP_066044798.1	K02523	ispB; octaprenyl-diphosphate synthase [EC:2.5.1.90]	211		
WP_066044800.1	K03722	dinG; ATP-dependent DNA helicase DinG [EC:3.6.4.12]	350		
WP_066044802.1			110		
WP_066044806.1	K12542	lapC; membrane fusion protein, adhesin transport system	180		
WP_066044808.1	K12541	lapB; ATP-binding cassette, subfamily C, bacterial LapB	312		
WP_066044810.1			41	K00574	1
WP_066044812.1	K12543	lapE; outer membrane protein, adhesin transport system	119		
WP_066044814.1	K20276	bapA; large repetitive protein	348		
WP_066044817.1	K07481	K07481; transposase, IS5 family	106		
WP_066044819.1	K15125	fhaB; filamentous hemagglutinin	166		
WP_066044821.1			14	K13584	1
WP_066044823.1	K07491	rayT; REP-associated tyrosine transposase	173		
WP_066044825.1	K03498	trkH, trkG, ktrB, ktrD; trk/ktr system potassium uptake protein	426		
WP_066044828.1	K03499	trkA, ktrA, ktrC; trk/ktr system potassium uptake protein	283		
WP_066044830.1			101		
WP_066044832.1			93	K13598	56
WP_066044834.1	K03684	rnd; ribonuclease D [EC:3.1.13.5]	184		
WP_066044836.1	K01507	ppa; inorganic pyrophosphatase [EC:3.6.1.1]	155		
WP_066044838.1	K08316	rsmD; 16S rRNA (guanine966-N2)-methyltransferase [EC:2.1.1.171]	74		
WP_066044839.1	K00954	E2.7.7.3A, coaD, kdtB; pantetheine-phosphate adenylyltransferase [EC:2.7.7.3]	132		
WP_066044842.1	K00372	nasA; assimilatory nitrate reductase catalytic subunit [EC:1.7.99.-]	181		
WP_066044844.1			218	K12132	34
WP_066044846.1	K02575	NRT, narK, nrtP, nasA; MFS transporter, NNP family, nitrate/nitrite transporter	372		
WP_066044848.1	K00362	nirB; nitrite reductase (NADH) large subunit [EC:1.7.1.15]	449		
WP_066044850.1	K03635	MOCS2B, moaE; molybdopterin synthase catalytic subunit [EC:2.8.1.12]	122		
WP_066044852.1	K03750	moeA; molybdopterin molybdotransferase [EC:2.10.1.1]	235		
WP_066044854.1	K03637	moaC, CNX3; cyclic pyranopterin monophosphate synthase [EC:4.6.1.17]	151		
WP_066044856.1	K03639	moaA, CNX2; GTP 3',8-cyclase [EC:4.1.99.22]	211		
WP_066044859.1	K03636	moaD, cysO; sulfur-carrier protein	51		
WP_066044861.1	K03313	nhaA; Na+:H+ antiporter, NhaA family	367		
WP_066044863.1	K03831	mogA; molybdopterin adenylyltransferase [EC:2.7.7.75]	176		
WP_066044865.1			19	K01963	1
WP_066044867.1	K02448	norD; nitric oxide reductase NorD protein	457		
WP_066044869.1	K04748	norQ; nitric oxide reductase NorQ protein	220		
WP_066044871.1	K01601	rbcL, cbbL; ribulose-bisphosphate carboxylase large chain [EC:4.1.1.39]	583		
WP_066044873.1	K21703	cbbR, cmpR, ndhR; LysR family transcriptional regulator, low CO2-responsive transcriptional regulator	155		
WP_066044875.1	K01433	purU; formyltetrahydrofolate deformylase [EC:3.5.1.10]	180		
WP_066044878.1	K00620	argJ; glutamate N-acetyltransferase / amino-acid N-acetyltransferase [EC:2.3.1.35 2.3.1.1]	326		
WP_066044882.1	K04759	feoB; ferrous iron transport protein B	364		
WP_066044884.1	K04758	feoA; ferrous iron transport protein A	11		
WP_066044886.1			210		
WP_066044888.1	K01159	ruvC; crossover junction endodeoxyribonuclease RuvC [EC:3.1.21.10]	80		
WP_066044890.1	K03671	trxA; thioredoxin 1	80		
WP_066044894.1			53	K00537	4
WP_066044895.1			65		
WP_066044898.1	K01879	glyS; glycyl-tRNA synthetase beta chain [EC:6.1.1.14]	399		
WP_066044900.1	K03610	minC; septum site-determining protein MinC	39		
WP_066044902.1	K03646	tolA; colicin import membrane protein	18		
WP_066044904.1	K03560	tolR; biopolymer transport protein TolR	80		
WP_066044906.1	K03562	tolQ; biopolymer transport protein TolQ	122		
WP_066044909.1	K07107	ybgC; acyl-CoA thioester hydrolase [EC:3.1.2.-]	62	K01075	7
WP_066044911.1	K03551	ruvB; holliday junction DNA helicase RuvB [EC:3.6.4.12]	250		
WP_066044916.1	K02492	hemA; glutamyl-tRNA reductase [EC:1.2.1.70]	238		
WP_066044918.1	K02835	prfA, MTRF1, MRF1; peptide chain release factor 1	309		
WP_066044920.1	K09816	znuB; zinc transport system permease protein	192		
WP_066044922.1	K03711	fur, zur, furB; Fur family transcriptional regulator, ferric uptake regulator	103		
WP_066044924.1	K06186	bamE, smpA; outer membrane protein assembly factor BamE	27		
WP_066044926.1	K02193	ccmA; heme exporter protein A [EC:7.6.2.5]	109		
WP_066044928.1	K02194	ccmB; heme exporter protein B	121		
WP_066044931.1	K00789	metK, MAT; S-adenosylmethionine synthetase [EC:2.5.1.6]	365		
WP_066044933.1	K01251	E3.3.1.1, ahcY; adenosylhomocysteinase [EC:3.3.1.1]	368		
WP_066044935.1					
WP_066044937.1			18	K02883	2
WP_066044939.1	K01878	glyQ; glycyl-tRNA synthetase alpha chain [EC:6.1.1.14]	321		
WP_066044942.1			101		
WP_066044944.1	K06194	nlpD; lipoprotein NlpD	12		
WP_066044946.1	K16052	ynaI, mscMJ; MscS family membrane protein	170		
WP_066044948.1	K06168	miaB; tRNA-2-methylthio-N6-dimethylallyladenosine synthase [EC:2.8.4.3]	333		
WP_066044950.1			11	K03758	1
WP_066044952.1	K07152	SCO1; protein SCO1	60	K23755	3
WP_066044958.1	K06217	phoH, phoL; phosphate starvation-inducible protein PhoH and related proteins	181		
WP_066044960.1	K00566	mnmA, trmU; tRNA-uridine 2-sulfurtransferase [EC:2.8.1.13]	239		
WP_066044962.1	K07153	hflD; high frequency lysogenization protein	78		
WP_066044964.1	K02968	RP-S20, rpsT; small subunit ribosomal protein S20	45		
WP_066044967.1			70		
WP_066044969.1	K03601	xseA; exodeoxyribonuclease VII large subunit [EC:3.1.11.6]	216		
WP_066044971.1			117		
WP_066044972.1			38		
WP_066044975.1					
WP_066044977.1	K00991	ispD; 2-C-methyl-D-erythritol 4-phosphate cytidylyltransferase [EC:2.7.7.60]	124		
WP_066044979.1	K01770	ispF; 2-C-methyl-D-erythritol 2,4-cyclodiphosphate synthase [EC:4.6.1.12]	128		
WP_066044981.1	K01924	murC; UDP-N-acetylmuramate--alanine ligase [EC:6.3.2.8]	283		
WP_066044984.1	K00075	murB; UDP-N-acetylmuramate dehydrogenase [EC:1.3.1.98]	149		
WP_066044987.1	K01921	ddl; D-alanine-D-alanine ligase [EC:6.3.2.4]	173		
WP_066044989.1	K03589	ftsQ; cell division protein FtsQ	40		
WP_066044991.1			91	K08972	1
WP_066044995.1	K05527	bolA; BolA family transcriptional regulator, general stress-responsive regulator	75		
WP_066044997.1	K00523	ascD, ddhD, rfbI; CDP-4-dehydro-6-deoxyglucose reductase, E3 [EC:1.17.1.1]	201		
WP_066044999.1	K00791	miaA, TRIT1; tRNA dimethylallyltransferase [EC:2.5.1.75]	178		
WP_066045001.1	K09951	cas2; CRISPR-associated protein Cas2	73		
WP_066045004.1	K15342	cas1; CRISP-associated protein Cas1	149		
WP_066045006.1	K09952	csn1, cas9; CRISPR-associated endonuclease Csn1 [EC:3.1.-.-]	253		
WP_066045008.1	K01925	murD; UDP-N-acetylmuramoylalanine--D-glutamate ligase [EC:6.3.2.9]	215		
WP_066045010.1	K19416	yccA; modulator of FtsH protease	118		
WP_066045012.1	K08311	nudH; putative (di)nucleoside polyphosphate hydrolase [EC:3.6.1.-]	107		
WP_066045014.1	K00003	hom; homoserine dehydrogenase [EC:1.1.1.3]	257		
WP_066045016.1	K01733	thrC; threonine synthase [EC:4.2.3.1]	387		
WP_066045018.1			251		
WP_066045020.1			72		
WP_066045022.1	K12339	cysM; S-sulfo-L-cysteine synthase (O-acetyl-L-serine-dependent) [EC:2.5.1.144]	286		
WP_066045024.1			147		
WP_066045026.1			205		
WP_066045028.1	K08973	hemJ; protoporphyrinogen IX oxidase [EC:1.3.99.-]	96		
WP_066045031.1			697		
WP_066045033.1			71		
WP_066045035.1	K07263	pqqL; zinc protease [EC:3.4.24.-]	216		
WP_066045037.1	K07263	pqqL; zinc protease [EC:3.4.24.-]	200		
WP_066045039.1	K07147	msrP; methionine sulfoxide reductase catalytic subunit [EC:1.8.-.-]	239		
WP_066045041.1	K03110	ftsY; fused signal recognition particle receptor	175		
WP_066045043.1			185		
WP_066045045.1			61		
WP_066045049.1			5	K02005	2
WP_066045052.1			19	K11749	1
WP_066045054.1	K01749	hemC, HMBS; hydroxymethylbilane synthase [EC:2.5.1.61]	293		
WP_066045056.1			18	K03671	1
WP_066045058.1	K01755	argH, ASL; argininosuccinate lyase [EC:4.3.2.1]	353		
WP_066045063.1	K00604	MTFMT, fmt; methionyl-tRNA formyltransferase [EC:2.1.2.9]	184		
WP_066045064.1			270	K16669	9
WP_066045067.1			72		
WP_066045069.1			153		
WP_066045072.1	K03216	trmL, cspR; tRNA (cytidine/uridine-2'-O-)-methyltransferase [EC:2.1.1.207]	133		
WP_066045074.1	K03695	clpB; ATP-dependent Clp protease ATP-binding subunit ClpB	642		
WP_066045076.1	K03613	rnfE; H+/Na+-translocating ferredoxin:NAD+ oxidoreductase subunit E	178		
WP_066045077.1	K02493	hemK, prmC, HEMK; release factor glutamine methyltransferase [EC:2.1.1.297]	135		
WP_066045080.1			334		
WP_066045085.1			278		
WP_066045087.1	K11473	glcF; glycolate oxidase iron-sulfur subunit	240		
WP_066045089.1			202		
WP_066045092.1			7		
WP_066045094.1	K11472	glcE; glycolate oxidase FAD binding subunit	57		
WP_066045097.1	K00104	glcD; glycolate oxidase [EC:1.1.3.15]	492		
WP_066045099.1			28	K19092	1
WP_066045101.1	K00830	AGXT; alanine-glyoxylate transaminase / serine-glyoxylate transaminase / serine-pyruvate transaminase [EC:2.6.1.44 2.6.1.45 2.6.1.51]	302		
WP_066045103.1			56		
WP_066045105.1	K03767	PPIA; peptidyl-prolyl cis-trans isomerase A (cyclophilin A) [EC:5.2.1.8]	146		
WP_066045107.1	K01000	mraY; phospho-N-acetylmuramoyl-pentapeptide-transferase [EC:2.7.8.13]	299		
WP_066045109.1	K01493	comEB; dCMP deaminase [EC:3.5.4.12]	69		
WP_066045111.1	K02837	prfC; peptide chain release factor 3	415		
WP_066045113.1	K12267	msrAB; peptide methionine sulfoxide reductase msrA/msrB [EC:1.8.4.11 1.8.4.12]	144		
WP_066045115.1	K06218	relE, stbE; mRNA interferase RelE/StbE	41		
WP_066045116.1	K18918	relB; RHH-type transcriptional regulator, rel operon repressor / antitoxin RelB	40		
WP_066045118.1	K02469	gyrA; DNA gyrase subunit A [EC:5.6.2.2]	644		
WP_066045120.1	K01626	E2.5.1.54, aroF, aroG, aroH; 3-deoxy-7-phosphoheptulonate synthase [EC:2.5.1.54]	312		
WP_066045121.1	K09007	folE2; GTP cyclohydrolase IB [EC:3.5.4.16]	195		
WP_066045123.1	K01737	queD, ptpS, PTS; 6-pyruvoyltetrahydropterin/6-carboxytetrahydropterin synthase [EC:4.2.3.12 4.1.2.50]	116		
WP_066045125.1	K02621	parC; topoisomerase IV subunit A [EC:5.6.2.2]	539		
WP_066045127.1	K00281	GLDC, gcvP; glycine dehydrogenase [EC:1.4.4.2]	594		
WP_066045128.1	K02503	HINT1, hinT, hit; histidine triad (HIT) family protein	79		
WP_066045130.1	K17218	sqr; sulfide:quinone oxidoreductase [EC:1.8.5.4]	278		
WP_066045132.1			16	K00799	1
WP_066045134.1	K09019	rutE; 3-hydroxypropanoate dehydrogenase [EC:1.1.1.-]	180		
WP_066045136.1	K01153	hsdR; type I restriction enzyme, R subunit [EC:3.1.21.3]	773		
WP_066045138.1	K01154	hsdS; type I restriction enzyme, S subunit [EC:3.1.21.3]	106	K03427	4
WP_066045140.1			247		
WP_066045143.1	K03427	hsdM; type I restriction enzyme M protein [EC:2.1.1.72]	446		
WP_066045145.1			6	K07216	1
WP_066045147.1			31		
WP_066045150.1			166		
WP_066045152.1			65		
WP_066045154.1			27	K17223	1
WP_066045156.1	K19302	bcrC; undecaprenyl-diphosphatase [EC:3.6.1.27]	31		
WP_066045158.1			472		
WP_066045160.1	K21563	dnr; CRP/FNR family transcriptional regulator, dissimilatory nitrate respiration regulator	22		
WP_066045162.1			120		
WP_066045164.1	K17725	ETHE1; sulfur dioxygenase [EC:1.13.11.18]	61		
WP_066045166.1	K09780	K09780; uncharacterized protein	83		
WP_066045168.1	K00215	dapB; 4-hydroxy-tetrahydrodipicolinate reductase [EC:1.17.1.8]	165		
WP_066045170.1	K01627	kdsA; 2-dehydro-3-deoxyphosphooctonate aldolase (KDO 8-P synthase) [EC:2.5.1.55]	305		
WP_066045172.1	K01609	trpC; indole-3-glycerol phosphate synthase [EC:4.1.1.48]	174		
WP_066045174.1	K07397	yhfA; putative redox protein	128		
WP_066045176.1			13	K16052	
WP_066045178.1	K03149	thiG; thiazole synthase [EC:2.8.1.10]	203		
WP_066045180.1	K06218	relE, stbE; mRNA interferase RelE/StbE	27		
WP_066045181.1			8	K19164	1
WP_066045185.1	K00980	tagD; glycerol-3-phosphate cytidylyltransferase [EC:2.7.7.39]	32	K00968	3
WP_066045187.1			11	K01874	1
WP_066045188.1			60		
WP_066045191.1			187		
WP_066045193.1	K00652	bioF; 8-amino-7-oxononanoate synthase [EC:2.3.1.47]	201		
WP_066045195.1	K02170	bioH; pimeloyl-[acyl-carrier protein] methyl ester esterase [EC:3.1.1.85]	107		
WP_066045197.1	K01588	purE; 5-(carboxyamino)imidazole ribonucleotide mutase [EC:5.4.99.18]	181		
WP_066045199.1	K01589	purK; 5-(carboxyamino)imidazole ribonucleotide synthase [EC:6.3.4.18]	257		
WP_066045201.1			8	K04564	1
WP_066045202.1			61		
WP_066045204.1	K01491	folD; methylenetetrahydrofolate dehydrogenase (NADP+) / methenyltetrahydrofolate cyclohydrolase [EC:1.5.1.5 3.5.4.9]	184		
WP_066045205.1	K00979	kdsB; 3-deoxy-manno-octulosonate cytidylyltransferase (CMP-KDO synthetase) [EC:2.7.7.38]	148		
WP_066045207.1	K00912	lpxK; tetraacyldisaccharide 4'-kinase [EC:2.7.1.130]	153		
WP_066045209.1	K09808	lolC_E; lipoprotein-releasing system permease protein	253		
WP_066045212.1	K09810	lolD; lipoprotein-releasing system ATP-binding protein [EC:7.6.2.-]	136		
WP_066045215.1			24	K00099	1
WP_066045217.1	K02517	lpxL, htrB; Kdo2-lipid IVA lauroyltransferase/acyltransferase [EC:2.3.1.241 2.3.1.-]	20		
WP_066045223.1					
WP_066045225.1					
WP_066045227.1	K01579	panD; aspartate 1-decarboxylase [EC:4.1.1.11]	98		
WP_066045229.1	K20509	madB, oadB, gcdB, mmdB; carboxybiotin decarboxylase [EC:7.2.4.1]	394		
WP_066045231.1	K01573	oadG; oxaloacetate decarboxylase (Na+ extruding) subunit gamma	20		
WP_066045232.1	K00297	metF, MTHFR; methylenetetrahydrofolate reductase (NADH) [EC:1.5.1.54]	186		
WP_066045234.1			11	K00523	3
WP_066045236.1			19	K00658	1
WP_066045238.1	K13628	iscA; iron-sulfur cluster assembly protein	15		
WP_066045241.1	K02224	cobB-cbiA; cobyrinic acid a,c-diamide synthase [EC:6.3.5.9 6.3.5.11]	274		
WP_066045243.1			297		
WP_066045245.1	K08358	ttrB; tetrathionate reductase subunit B	162		
WP_066045246.1			28		
WP_066045248.1			435		
WP_066045250.1			374		
WP_066045252.1	K00374	narI, narV; nitrate reductase gamma subunit [EC:1.7.5.1 1.7.99.-]	159		
WP_066045254.1	K23077	dsrC; dissimilatory sulfite reductase related protein	87		
WP_066045256.1	K07237	tusB, dsrH; tRNA 2-thiouridine synthesizing protein B	54		
WP_066045258.1	K07236	tusC, dsrF; tRNA 2-thiouridine synthesizing protein C	140		
WP_066045260.1	K07235	tusD, dsrE; tRNA 2-thiouridine synthesizing protein D [EC:2.8.1.-]	109		
WP_066045263.1	K11181	dsrB; dissimilatory sulfite reductase beta subunit [EC:1.8.99.5]	313		
WP_066045264.1	K11180	dsrA; dissimilatory sulfite reductase alpha subunit [EC:1.8.99.5]	314		
WP_066045266.1	K00266	gltD; glutamate synthase (NADPH) small chain [EC:1.4.1.13]	350		
WP_066045268.1	K02884	RP-L19, MRPL19, rplS; large subunit ribosomal protein L19	124		
WP_066045270.1	K04763	xerD; integrase/recombinase XerD	177		
WP_066045272.1	K03624	greA; transcription elongation factor GreA	116		
WP_066045274.1	K01955	carB, CPA2; carbamoyl-phosphate synthase large subunit [EC:6.3.5.5]	846		
WP_066045276.1	K04754	mlaA, vacJ; phospholipid-binding lipoprotein MlaA	135		
WP_066045277.1	K01956	carA, CPA1; carbamoyl-phosphate synthase small subunit [EC:6.3.5.5]	278		
WP_066045279.1	K07213	ATOX1, ATX1, copZ, golB; copper chaperone	36		
WP_066045281.1	K03154	thiS; sulfur carrier protein	34	K03149	1
WP_066045283.1	K07171	mazF, ndoA, chpA; mRNA interferase MazF [EC:3.1.-.-]	60		
WP_066045287.1	K00566	mnmA, trmU; tRNA-uridine 2-sulfurtransferase [EC:2.8.1.13]	278		
WP_066045290.1	K02687	prmA; ribosomal protein L11 methyltransferase [EC:2.1.1.-]	146		
WP_066045292.1	K23077	dsrC; dissimilatory sulfite reductase related protein	61	K11179	13
WP_066045294.1	K01872	AARS, alaS; alanyl-tRNA synthetase [EC:6.1.1.7]	595		
WP_066045296.1			165		
WP_066045300.1	K00820	glmS, GFPT; glutamine---fructose-6-phosphate transaminase (isomerizing) [EC:2.6.1.16]	440		
WP_066045303.1			39	K12340	4
WP_066045306.1	K01810	GPI, pgi; glucose-6-phosphate isomerase [EC:5.3.1.9]	258		
WP_066045308.1	K01886	QARS, glnS; glutaminyl-tRNA synthetase [EC:6.1.1.18]	598		
WP_066045310.1			150	K12975	2
WP_066045312.1	K03787	surE; 5'-nucleotidase [EC:3.1.3.5]	163		
WP_066045314.1	K03694	clpA; ATP-dependent Clp protease ATP-binding subunit ClpA	531		
WP_066045316.1	K06891	clpS; ATP-dependent Clp protease adaptor protein ClpS	67		
WP_066045318.1	K01951	guaA, GMPS; GMP synthase (glutamine-hydrolysing) [EC:6.3.5.2]	418		
WP_066045320.1	K11991	tadA; tRNA(adenine34) deaminase [EC:3.5.4.33]	83	K01563/K11991	2
WP_066045322.1	K00059	fabG, OAR1; 3-oxoacyl-[acyl-carrier protein] reductase [EC:1.1.1.100]	182		
WP_066045325.1	K02899	RP-L27, MRPL27, rpmA; large subunit ribosomal protein L27	64		
WP_066045328.1	K02888	RP-L21, MRPL21, rplU; large subunit ribosomal protein L21	88		
WP_066045331.1	K03269	lpxH; UDP-2,3-diacylglucosamine hydrolase [EC:3.6.1.54]	134		
WP_066045332.1	K01147	rnb; exoribonuclease II [EC:3.1.13.1]	324		
WP_066045335.1	K02437	gcvH, GCSH; glycine cleavage system H protein	70		
WP_066045337.1	K00605	gcvT, AMT; aminomethyltransferase [EC:2.1.2.10]	243		
WP_066045339.1	K06190	ispZ; intracellular septation protein	74		
WP_066045342.1			16	K03671	6
WP_066045344.1	K07568	queA; S-adenosylmethionine:tRNA ribosyltransferase-isomerase [EC:2.4.99.17]	285		
WP_066045346.1	K03612	rnfG; H+/Na+-translocating ferredoxin:NAD+ oxidoreductase subunit G	111		
WP_066045349.1	K03614	rnfD; H+/Na+-translocating ferredoxin:NAD+ oxidoreductase subunit D [EC:7.1.1.11 7.2.1.2]	222		
WP_066045352.1	K03615	rnfC; H+/Na+-translocating ferredoxin:NAD+ oxidoreductase subunit C [EC:7.1.1.11 7.2.1.2]	241		
WP_066045355.1	K03616	rnfB; H+/Na+-translocating ferredoxin:NAD+ oxidoreductase subunit B [EC:7.1.1.11 7.2.1.2]	109		
WP_066045357.1	K03617	rnfA; H+/Na+-translocating ferredoxin:NAD+ oxidoreductase subunit A	152		
WP_066045361.1			9	K03470	1
WP_066045363.1	K07090	K07090; uncharacterized protein	129		
WP_066045366.1	K03431	glmM; phosphoglucosamine mutase [EC:5.4.2.10]	288		
WP_066045368.1	K00796	folP; dihydropteroate synthase [EC:2.5.1.15]	162		
WP_066045369.1	K03798	ftsH, hflB; cell division protease FtsH [EC:3.4.24.-]	460		
WP_066045371.1					
WP_066045373.1	K02340	holA; DNA polymerase III subunit delta [EC:2.7.7.7]	172		
WP_066045376.1	K00147	proA; glutamate-5-semialdehyde dehydrogenase [EC:1.2.1.41]	386		
WP_066045378.1	K11927	rhlE; ATP-dependent RNA helicase RhlE [EC:3.6.4.13]	285		
WP_066045382.1			44		
WP_066045384.1	K03306	TC.PIT; inorganic phosphate transporter, PiT family	290		
WP_066045386.1	K07220	K07220; uncharacterized protein	140		
WP_066045388.1	K01962	accA; acetyl-CoA carboxylase carboxyl transferase subunit alpha [EC:6.4.1.2 2.1.3.15]	237		
WP_066045390.1	K04075	tilS, mesJ; tRNA(Ile)-lysidine synthase [EC:6.3.4.19]	173		
WP_066045392.1	K07042	ybeY, yqfG; probable rRNA maturation factor	41		
WP_066045394.1	K04066	priA; primosomal protein N' (replication factor Y) (superfamily II helicase) [EC:3.6.4.-]	391		
WP_066045398.1	K00833	bioA; adenosylmethionine---8-amino-7-oxononanoate aminotransferase [EC:2.6.1.62]	312		
WP_066045400.1	K01091	gph; phosphoglycolate phosphatase [EC:3.1.3.18]	167		
WP_066045402.1	K00286	proC; pyrroline-5-carboxylate reductase [EC:1.5.1.2]	155		
WP_066045403.1			16	K19168	1
WP_066045405.1			70		
WP_066045407.1	K09761	rsmE; 16S rRNA (uracil1498-N3)-methyltransferase [EC:2.1.1.193]	161		
WP_066045409.1	K00059	fabG, OAR1; 3-oxoacyl-[acyl-carrier protein] reductase [EC:1.1.1.100]	154		
WP_066045411.1			64		
WP_066045413.1			112		
WP_066045417.1			26		
WP_066045420.1			125		
WP_066045422.1					
WP_066045424.1			221		
WP_066045426.1			10	K06190	1
WP_066045428.1	K02078	acpP; acyl carrier protein	42		
WP_066045431.1			30		
WP_066045435.1			27		
WP_066045437.1			186		
WP_066045440.1	K01992	ABC-2.P; ABC-2 type transport system permease protein	130		
WP_066045443.1					
WP_066045446.1			36		
WP_066045449.1	K00648	fabH; 3-oxoacyl-[acyl-carrier-protein] synthase III [EC:2.3.1.180]	207		
WP_066045452.1			125		
WP_066045457.1	K01262	pepP; Xaa-Pro aminopeptidase [EC:3.4.11.9]	221		
WP_066045459.1	K00766	trpD; anthranilate phosphoribosyltransferase [EC:2.4.2.18]	231		
WP_066045462.1	K13288	orn, REX2, REXO2; oligoribonuclease [EC:3.1.-.-]	131		
WP_066045465.1	K00919	ispE; 4-diphosphocytidyl-2-C-methyl-D-erythritol kinase [EC:2.7.1.148]	142		
WP_066045468.1	K00948	PRPS, prsA; ribose-phosphate pyrophosphokinase [EC:2.7.6.1]	241		
WP_066045471.1	K03086	rpoD; RNA polymerase primary sigma factor	387		
WP_066045480.1	K00748	lpxB; lipid-A-disaccharide synthase [EC:2.4.1.182]	202		
WP_066045483.1	K07574	yhbY; RNA-binding protein	53		
WP_066045486.1			18		
WP_066045491.1	K00684	aat; leucyl/phenylalanyl-tRNA---protein transferase [EC:2.3.2.6]	123		
WP_066045495.1	K08312	nudE; ADP-ribose diphosphatase [EC:3.6.1.-]	171		
WP_066045498.1			37		
WP_066045504.1			5	K05555	1
WP_066045508.1	K03741	arsC; arsenate reductase (thioredoxin) [EC:1.20.4.4]	68		
WP_066045511.1			39		
WP_066045514.1			109		
WP_066045517.1			28	K02071	1
WP_066045520.1			118		
WP_066045523.1	K21563	dnr; CRP/FNR family transcriptional regulator, dissimilatory nitrate respiration regulator	20		
WP_066045526.1	K07089	K07089; uncharacterized protein	255		
WP_066045529.1	K03892	arsR; ArsR family transcriptional regulator, arsenate/arsenite/antimonite-responsive transcriptional repressor	38	K23988	3
WP_066045532.1			224		
WP_066045535.1			120		
WP_066045538.1	K01069	gloB, gloC, HAGH; hydroxyacylglutathione hydrolase [EC:3.1.2.6]	149		
WP_066045540.1			144	K05555	14
WP_066045544.1			28	K04019	1
WP_066045547.1	K03676	grxC, GLRX, GLRX2; glutaredoxin 3	34		
WP_066045550.1	K00052	leuB, IMDH; 3-isopropylmalate dehydrogenase [EC:1.1.1.85]	275		
WP_066045554.1			30	K05297	1
WP_066045557.1	K03386	PRDX2_4, ahpC; peroxiredoxin 2/4 [EC:1.11.1.24]	159		
WP_066045560.1	K01883	CARS, cysS; cysteinyl-tRNA synthetase [EC:6.1.1.16]	333		
WP_066045563.1	K20881	yrfG; 5'-nucleotidase [EC:3.1.3.5]	124		
WP_066045566.1	K07095	K07095; uncharacterized protein	60		
WP_066045572.1			426		
WP_066045575.1			125		
WP_066045578.1	K07684	narL; two-component system, NarL family, nitrate/nitrite response regulator NarL	132		
WP_066045581.1	K07673	narX; two-component system, NarL family, nitrate/nitrite sensor histidine kinase NarX [EC:2.7.13.3]	220		
WP_066045584.1	K03650	mnmE, trmE, MSS1; tRNA modification GTPase [EC:3.6.-.-]	273		
WP_066045588.1	K01919	gshA; glutamate--cysteine ligase [EC:6.3.2.2]	296		
WP_066045591.1	K03574	mutT, NUDT15, MTH2; 8-oxo-dGTP diphosphatase [EC:3.6.1.55]	134		
WP_066045594.1			8	K07726	1
WP_066045597.1	K00558	DNMT1, dcm; DNA (cytosine-5)-methyltransferase 1 [EC:2.1.1.37]	283		
WP_066045600.1			116	K01881	1
WP_066045603.1	K07726	K07726; putative transcriptional regulator	58		
WP_066045606.1			13	K07000	1
WP_066045609.1			6	K07726	1
WP_066045612.1			102		
WP_066045615.1			13	K12940	1
WP_066045618.1			50	K00347	3
WP_066045621.1	K07391	comM; magnesium chelatase family protein	27		
WP_066045625.1			8	K07726	1
WP_066045628.1			20	K21567	1
WP_066045631.1			206	K20276	1
WP_066045634.1	K07391	comM; magnesium chelatase family protein	242		
WP_066045637.1	K06218	relE, stbE; mRNA interferase RelE/StbE	52		
WP_066045640.1	K18923	stbD; antitoxin StbD	41		
WP_066045643.1	K02902	RP-L28, MRPL28, rpmB; large subunit ribosomal protein L28	97		
WP_066045648.1	K02913	RP-L33, MRPL33, rpmG; large subunit ribosomal protein L33	43		
WP_066045651.1	K01682	acnB; aconitate hydratase 2 / 2-methylisocitrate dehydratase [EC:4.2.1.3 4.2.1.99]	647		
WP_066045654.1	K01756	purB, ADSL; adenylosuccinate lyase [EC:4.3.2.2]	343		
WP_066045658.1	K02959	RP-S16, MRPS16, rpsP; small subunit ribosomal protein S16	22		
WP_066045665.1	K01673	cynT, can; carbonic anhydrase [EC:4.2.1.1]	125		
WP_066045670.1			24	K02408	1
WP_066045673.1			18	K06941	1
WP_066045676.1			448		
WP_066045682.1	K03576	metR; LysR family transcriptional regulator, regulator for metE and metH	161		
WP_066045685.1	K00549	metE; 5-methyltetrahydropteroyltriglutamate--homocysteine methyltransferase [EC:2.1.1.14]	567		
WP_066045688.1	K06173	truA, PUS1; tRNA pseudouridine38-40 synthase [EC:5.4.99.12]	221		
WP_066045693.1	K00901	dgkA, DGK; diacylglycerol kinase (ATP) [EC:2.7.1.107]	84		
WP_066045695.1	K03524	birA; BirA family transcriptional regulator, biotin operon repressor / biotin---[acetyl-CoA-carboxylase] ligase [EC:6.3.4.15]	109		
WP_066045698.1			35		
WP_066045701.1	K06861	lptB; lipopolysaccharide export system ATP-binding protein [EC:7.5.2.5]	165		
WP_066045705.1	K07391	comM; magnesium chelatase family protein	299		
WP_066045708.1	K01814	hisA; phosphoribosylformimino-5-aminoimidazole carboxamide ribotide isomerase [EC:5.3.1.16]	191		
WP_066045711.1	K09801	K09801; uncharacterized protein	59		
WP_066045714.1	K06189	corC; magnesium and cobalt transporter	162		
WP_066045717.1	K03592	pmbA; PmbA protein	264		
WP_066045719.1			66		
WP_066045722.1	K09861	K09861; uncharacterized protein	162		
WP_066045725.1	K00265	gltB; glutamate synthase (NADPH) large chain [EC:1.4.1.13]	1124		
WP_066045728.1	K02357	tsf, TSFM; elongation factor Ts	196		
WP_066045732.1	K02967	RP-S2, MRPS2, rpsB; small subunit ribosomal protein S2	149		
WP_066045737.1	K01783	rpe, RPE; ribulose-phosphate 3-epimerase [EC:5.1.3.1]	188		
WP_066045740.1	K15633	gpmI; 2,3-bisphosphoglycerate-independent phosphoglycerate mutase [EC:5.4.2.12]	347		
WP_066045743.1	K06942	ychF; ribosome-binding ATPase	277		
WP_066045746.1	K01056	PTH1, pth, spoVC; peptidyl-tRNA hydrolase, PTH1 family [EC:3.1.1.29]	164		
WP_066045749.1	K02897	RP-L25, rplY; large subunit ribosomal protein L25	133		
WP_066045751.1	K03688	ubiB, aarF; ubiquinone biosynthesis protein	306		
WP_066045753.1	K03690	ubiJ; ubiquinone biosynthesis accessory factor UbiJ	18		
WP_066045757.1	K01647	CS, gltA; citrate synthase [EC:2.3.3.1]	353		
WP_066045759.1			200		
WP_066045762.1	K15724	erpA; iron-sulfur cluster insertion protein	126		
WP_066045765.1	K00145	argC; N-acetyl-gamma-glutamyl-phosphate reductase [EC:1.2.1.38]	229		
WP_066045768.1	K01961	accC; acetyl-CoA carboxylase, biotin carboxylase subunit [EC:6.4.1.2 6.3.4.14]	354		
WP_066045771.1	K02160	accB, bccP; acetyl-CoA carboxylase biotin carboxyl carrier protein	81		
WP_066045774.1	K03786	aroQ, qutE; 3-dehydroquinate dehydratase II [EC:4.2.1.10]	88		
WP_066045778.1	K04084	dsbD, dipZ; thioredoxin:protein disulfide reductase [EC:1.8.4.16]	364		
WP_066045781.1			140		
WP_066045785.1	K00939	adk, AK; adenylate kinase [EC:2.7.4.3]	161		
WP_066045789.1	K00858	ppnK, NADK; NAD+ kinase [EC:2.7.1.23]	152		
WP_066045792.1	K03631	recN; DNA repair protein RecN (Recombination protein N)	248		
WP_066045795.1			86		
WP_066045798.1	K17218	sqr; sulfide:quinone oxidoreductase [EC:1.8.5.4]	315		
WP_066045801.1	K02108	ATPF0A, atpB; F-type H+-transporting ATPase subunit a	270		
WP_066045805.1	K02110	ATPF0C, atpE; F-type H+-transporting ATPase subunit c	61		
WP_066045807.1	K02109	ATPF0B, atpF; F-type H+-transporting ATPase subunit b	86		
WP_066045810.1	K02113	ATPF1D, atpH; F-type H+-transporting ATPase subunit delta	65		
WP_066045815.1	K02111	ATPF1A, atpA; F-type H+/Na+-transporting ATPase subunit alpha [EC:7.1.2.2 7.2.2.1]	440		
WP_066045818.1	K02115	ATPF1G, atpG; F-type H+-transporting ATPase subunit gamma	288		
WP_066045821.1	K02112	ATPF1B, atpD; F-type H+/Na+-transporting ATPase subunit beta [EC:7.1.2.2 7.2.2.1]	404		
WP_066045824.1	K02114	ATPF1E, atpC; F-type H+-transporting ATPase subunit epsilon	84		
WP_066045826.1	K00567	ogt, MGMT; methylated-DNA-[protein]-cysteine S-methyltransferase [EC:2.1.1.63]	61	K10778	2
WP_066045829.1	K03270	kdsC; 3-deoxy-D-manno-octulosonate 8-phosphate phosphatase (KDO 8-P phosphatase) [EC:3.1.3.45]	109		
WP_066045832.1	K03806	ampD; N-acetyl-anhydromuramoyl-L-alanine amidase [EC:3.5.1.28]	89		
WP_066045835.1			4	K21919	1
WP_066045838.1			11	K09022	1
WP_066045841.1			146		
WP_066045844.1	K03217	yidC, spoIIIJ, OXA1, ccfA; YidC/Oxa1 family membrane protein insertase	278		
WP_066045848.1	K08998	K08998; uncharacterized protein	66		
WP_066045851.1	K03536	rnpA; ribonuclease P protein component [EC:3.1.26.5]	40		
WP_066045854.1	K02914	RP-L34, MRPL34, rpmH; large subunit ribosomal protein L34	39		
WP_066045857.1	K04096	smf; DNA processing protein	200		
WP_066045861.1	K03747	smg; Smg protein	115		
WP_066045866.1	K03168	topA; DNA topoisomerase I [EC:5.6.2.1]	487		
WP_066045868.1			142		
WP_066045871.1			44	K07001	1
WP_066045874.1			8	K01155	1
WP_066045879.1			35	K17244	1
WP_066045884.1			71		
WP_066045887.1	K01817	trpF; phosphoribosylanthranilate isomerase [EC:5.3.1.24]	177		
WP_066045890.1	K01696	trpB; tryptophan synthase beta chain [EC:4.2.1.20]	350		
WP_066045893.1	K04042	glmU; bifunctional UDP-N-acetylglucosamine pyrophosphorylase / glucosamine-1-phosphate N-acetyltransferase [EC:2.7.7.23 2.3.1.157]	286		
WP_066045897.1	K02909	RP-L31, rpmE; large subunit ribosomal protein L31	57		
WP_066045899.1	K01599	hemE, UROD; uroporphyrinogen decarboxylase [EC:4.1.1.37]	352		
WP_066045905.1			13	K13623	1
WP_066045909.1	K01695	trpA; tryptophan synthase alpha chain [EC:4.2.1.20]	171		
WP_066045912.1	K01963	accD; acetyl-CoA carboxylase carboxyl transferase subunit beta [EC:6.4.1.2 2.1.3.15]	211		
WP_066045915.1	K03774	slpA; FKBP-type peptidyl-prolyl cis-trans isomerase SlpA [EC:5.2.1.8]	33		
WP_066045918.1	K03527	ispH, lytB; 4-hydroxy-3-methylbut-2-en-1-yl diphosphate reductase [EC:1.17.7.4]	217		
WP_066045921.1	K00856	ADK, adoK; adenosine kinase [EC:2.7.1.20]	232		
WP_066045924.1			13	K12373	1
WP_066045927.1	K03723	mfd; transcription-repair coupling factor (superfamily II helicase) [EC:3.6.4.-]	704		
WP_066045933.1	K03075	secG; preprotein translocase subunit SecG	43		
WP_066045936.1	K01803	TPI, tpiA; triosephosphate isomerase (TIM) [EC:5.3.1.1]	222		
WP_066045939.1	K07240	chrA; chromate transporter	351		
WP_066045948.1	K02259	COX15, ctaA; heme a synthase [EC:1.17.99.9]	198		
WP_066045951.1	K09895	K09895; uncharacterized protein	57		
WP_066045958.1	K07493	K07493; putative transposase	286		
WP_066045961.1			137		
WP_066045965.1	K05591	dbpA; ATP-dependent RNA helicase DbpA [EC:3.6.4.13]	325		
WP_066045970.1	K10747	LIG1; DNA ligase 1 [EC:6.5.1.1 6.5.1.6 6.5.1.7]	145		
WP_066045976.1	K01693	hisB; imidazoleglycerol-phosphate dehydratase [EC:4.2.1.19]	157		
WP_066045985.1	K07493	K07493; putative transposase	286		
WP_066045996.1	K02876	RP-L15, MRPL15, rplO; large subunit ribosomal protein L15	107		
WP_066045999.1	K03040	rpoA; DNA-directed RNA polymerase subunit alpha [EC:2.7.7.6]	252		
WP_066046006.1	K07493	K07493; putative transposase	285		
WP_066046012.1	K00340	nuoK; NADH-quinone oxidoreductase subunit K [EC:7.1.1.2]	71		
WP_066046016.1	K09903	pyrH; uridylate kinase [EC:2.7.4.22]	170		
WP_066046022.1	K03116	tatA; sec-independent protein translocase protein TatA	26		
WP_066046026.1	K03587	ftsI; cell division protein FtsI (penicillin-binding protein 3) [EC:3.4.16.4]	205		
WP_066046029.1	K17223	soxX; L-cysteine S-thiosulfotransferase [EC:2.8.5.2]	59		
WP_066046032.1	K03473	pdxB; erythronate-4-phosphate dehydrogenase [EC:1.1.1.290]	197		
WP_066046044.1			338		
WP_066046047.1			11	K06186	2
WP_066046050.1	K11085	msbA; ATP-binding cassette, subfamily B, bacterial MsbA [EC:7.5.2.6]	317		
WP_066046052.1	K03651	cpdA; 3',5'-cyclic-AMP phosphodiesterase [EC:3.1.4.53]	127		
WP_066046056.1			253		
WP_066046058.1	K01759	GLO1, gloA; lactoylglutathione lyase [EC:4.4.1.5]	87		
WP_066046066.1			32		
WP_066046068.1	K05539	dusA; tRNA-dihydrouridine synthase A [EC:1.-.-.-]	218		
WP_066046070.1	K00773	tgt; queuine tRNA-ribosyltransferase [EC:2.4.2.29]	379		
WP_066046073.1	K19810	epmB; L-lysine 2,3-aminomutase [EC:5.4.3.-]	138		
WP_066046079.1	K01735	aroB; 3-dehydroquinate synthase [EC:4.2.3.4]	241		
WP_066046082.1			120		
WP_066046084.1	K01613	psd, PISD; phosphatidylserine decarboxylase [EC:4.1.1.65]	174		
WP_066046087.1			27	K00800	1
WP_066046090.1	K00970	pcnB; poly(A) polymerase [EC:2.7.7.19]	197		
WP_066046093.1			19	K02411	1
WP_066046096.1					
WP_066046099.1			192		
WP_066046107.1	K01139	spoT; GTP diphosphokinase / guanosine-3',5'-bis(diphosphate) 3'-diphosphatase [EC:2.7.6.5 3.1.7.2]	396		
WP_066046111.1	K15396	trmJ; tRNA (cytidine32/uridine32-2'-O)-methyltransferase [EC:2.1.1.200]	136	K02533	10
WP_066046117.1	K01876	DARS2, aspS; aspartyl-tRNA synthetase [EC:6.1.1.12]	435		
WP_066046126.1	K07493	K07493; putative transposase	286		
WP_066046137.1			26	K02450	1
WP_066046144.1			22	K00982	
WP_066046156.1	K02518	infA; translation initiation factor IF-1	61		
WP_066046163.1	K06925	tsaE; tRNA threonylcarbamoyladenosine biosynthesis protein TsaE	74		
WP_066046172.1	K06950	K06950; uncharacterized protein	18		
WP_066046178.1	K01866	YARS, tyrS; tyrosyl-tRNA synthetase [EC:6.1.1.1]	283		
WP_066046182.1	K00647	fabB; 3-oxoacyl-[acyl-carrier-protein] synthase I [EC:2.3.1.41]	206		
WP_066046185.1	K07493	K07493; putative transposase	285		
WP_066046188.1	K06992	K06992; uncharacterized protein	65		
WP_066046191.1	K01409	KAE1, tsaD, QRI7; N6-L-threonylcarbamoyladenine synthase [EC:2.3.1.234]	245		
WP_066046197.1	K01934	MTHFS; 5-formyltetrahydrofolate cyclo-ligase [EC:6.3.3.2]	104		
WP_066046200.1	K03183	ubiE; demethylmenaquinone methyltransferase / 2-methoxy-6-polyprenyl-1,4-benzoquinol methylase [EC:2.1.1.163 2.1.1.201]	174		
WP_066046206.1			9	K02116	8
WP_066046209.1	K00287	DHFR, folA; dihydrofolate reductase [EC:1.5.1.3]	135		
WP_070104543.1	K00413	CYC1, CYT1, petC; ubiquinol-cytochrome c reductase cytochrome c1 subunit	129		
WP_070104545.1	K03704	cspA; cold shock protein	60		
WP_070104546.1	K11066	E3.5.1.28D, amiD; N-acetylmuramoyl-L-alanine amidase [EC:3.5.1.28]	117		
WP_070104552.1	K07102	amgK; N-acetylmuramate 1-kinase [EC:2.7.1.221]	151		
WP_070104553.1	K07493	K07493; putative transposase	10		
WP_070104555.1			31	K11085	1
WP_070104556.1	K07483	K07483; transposase	20	K07497	2
WP_070104559.1	K03100	lepB; signal peptidase I [EC:3.4.21.89]	143		
WP_070104562.1	K02427	rlmE, rrmJ, ftsJ; 23S rRNA (uridine2552-2'-O)-methyltransferase [EC:2.1.1.166]	139		
WP_070104563.1	K03752	mobA; molybdenum cofactor guanylyltransferase [EC:2.7.7.77]	73	K13818	5
WP_070104564.1	K09796	pccA; periplasmic copper chaperone A	51		
WP_070104565.1	K08307	mltD, dniR; membrane-bound lytic murein transglycosylase D [EC:4.2.2.-]	217		
WP_070104567.1	K17247	msrQ; methionine sulfoxide reductase heme-binding subunit	103		
WP_070104568.1			268		
WP_070104571.1			18	K03074	1
WP_070104572.1	K03654	recQ; ATP-dependent DNA helicase RecQ [EC:3.6.4.12]	310		
WP_070104573.1	K01719	hemD, UROS; uroporphyrinogen-III synthase [EC:4.2.1.75]	65		
WP_070104574.1			11	K00790	1
WP_070104581.1			166		
WP_070104584.1			54		
WP_070104588.1			46		
WP_070104591.1			8	K07723	2
WP_083502934.1	K08305	mltB; membrane-bound lytic murein transglycosylase B [EC:4.2.2.-]	195		
WP_083502935.1	K03734	apbE; FAD:protein FMN transferase [EC:2.7.1.180]	120		
WP_083502937.1	K03074	secF; preprotein translocase subunit SecF	208		
WP_083502938.1	K00558	DNMT1, dcm; DNA (cytosine-5)-methyltransferase 1 [EC:2.1.1.37]	148		
WP_083502940.1					
WP_083502941.1	K00558	DNMT1, dcm; DNA (cytosine-5)-methyltransferase 1 [EC:2.1.1.37]	177		
WP_083502942.1	K02907	RP-L30, MRPL30, rpmD; large subunit ribosomal protein L30	21		
WP_083502943.1	K02919	RP-L36, MRPL36, rpmJ; large subunit ribosomal protein L36	46		
WP_083502944.1	K09117	K09117; uncharacterized protein	85		
WP_083502945.1					
WP_083502947.1			21	K08738	1
WP_083502948.1	K01255	CARP, pepA; leucyl aminopeptidase [EC:3.4.11.1]	234		
WP_083502949.1	K07082	K07082; UPF0755 protein	59	K02619	4
WP_083502952.1	K01972	E6.5.1.2, ligA, ligB; DNA ligase (NAD+) [EC:6.5.1.2]	375		
WP_083502953.1	K02836	prfB; peptide chain release factor 2	324		
WP_083502954.1			11	K03586	5
WP_083502955.1			4	K03750	1
WP_083502956.1			26	K01115	1
WP_083502958.1			27		
WP_083502959.1	K02520	infC, MTIF3; translation initiation factor IF-3	127		
WP_083502961.1	K08300	rne; ribonuclease E [EC:3.1.26.12]	322		
WP_083502963.1			12	K06286	1
WP_083502964.1			10	K03686	1
WP_083502965.1			19		
WP_083502966.1			148		
WP_083502970.1			31		
WP_083502971.1	K19221	cobA, btuR; cob(I)alamin adenosyltransferase [EC:2.5.1.17]	129		
WP_083502977.1	K00558	DNMT1, dcm; DNA (cytosine-5)-methyltransferase 1 [EC:2.1.1.37]	295		
WP_083502979.1			218		
WP_083502980.1			813		
WP_083502981.1			37		
WP_083502982.1			8	K12685	1
WP_083502984.1	K09928	K09928; uncharacterized protein	138		
WP_083502985.1			119		
WP_083502986.1	K02494	lolB; outer membrane lipoprotein LolB	12		
WP_083502987.1					
WP_083502989.1			236		
WP_083502990.1	K09791	K09791; uncharacterized protein	34		
WP_083502992.1	K01571	oadA; oxaloacetate decarboxylase (Na+ extruding) subunit alpha [EC:7.2.4.2]	435		
WP_083502994.1	K07053	E3.1.3.97; 3',5'-nucleoside bisphosphate phosphatase [EC:3.1.3.97]	154		
WP_083502996.1	K00963	UGP2, galU, galF; UTP--glucose-1-phosphate uridylyltransferase [EC:2.7.7.9]	180		
WP_083502997.1	K03768	PPIB, ppiB; peptidyl-prolyl cis-trans isomerase B (cyclophilin B) [EC:5.2.1.8]	70	K03767	4
WP_083502999.1	K01082	cysQ, MET22, BPNT1; 3'(2'), 5'-bisphosphate nucleotidase [EC:3.1.3.7]	129		
WP_083503000.1	K00767	nadC, QPRT; nicotinate-nucleotide pyrophosphorylase (carboxylating) [EC:2.4.2.19]	158		
WP_083503001.1	K01586	lysA; diaminopimelate decarboxylase [EC:4.1.1.20]	283		
WP_083503003.1	K21071	pfk, pfp; ATP-dependent phosphofructokinase / diphosphate-dependent phosphofructokinase [EC:2.7.1.11 2.7.1.90]	499		
WP_083503004.1					
WP_083503006.1	K03687	GRPE; molecular chaperone GrpE	77		
WP_083503008.1	K00806	uppS; undecaprenyl diphosphate synthase [EC:2.5.1.31]	177		
WP_083503009.1	K07168	K07168; CBS domain-containing membrane protein	30		
WP_083503011.1	K05540	dusB; tRNA-dihydrouridine synthase B [EC:1.-.-.-]	190		
WP_083503012.1	K01992	ABC-2.P; ABC-2 type transport system permease protein	210		
WP_083503013.1	K00941	thiD; hydroxymethylpyrimidine/phosphomethylpyrimidine kinase [EC:2.7.1.49 2.7.4.7]	117		
WP_083503014.1			118		
WP_083503015.1	K25307	wzb, etp; low molecular weight protein-tyrosine phosphatase [EC:3.1.3.48]	87	K01104	5
WP_083503016.1	K11752	ribD; diaminohydroxyphosphoribosylaminopyrimidine deaminase / 5-amino-6-(5-phosphoribosylamino)uracil reductase [EC:3.5.4.26 1.1.1.193]	186		
WP_083503017.1			52		
WP_083503020.1	K01207	nagZ; beta-N-acetylhexosaminidase [EC:3.2.1.52]	229		
WP_083503022.1					
WP_083503026.1			56		
WP_083503027.1			74		
WP_083503028.1	K06938	K06938; uncharacterized protein	22		
WP_083503029.1					
WP_157059347.1	K03600	sspB; stringent starvation protein B	61		
WP_157059348.1			26	K18586	1
WP_157059349.1			18	K01784	2
WP_157059350.1					
WP_157059352.1					
WP_157059353.1			18	K18640	1
WP_157059354.1	K19147	mcrC; 5-methylcytosine-specific restriction enzyme subunit McrC	183		
WP_157059355.1			58	K03558	2
WP_157059356.1			26	K03814	1
WP_157059357.1					
WP_157059359.1			29		
WP_157059360.1					
WP_157059361.1			10	K02439	1
WP_157059362.1			19	K01657	1
WP_157059363.1			24	K16639	1
WP_157059364.1			2	K07481	2
WP_157059365.1			21	K08715	1
WP_157059366.1			13	K07755	1
WP_157059367.1			2	K14974	1
WP_157059368.1	K02196	ccmD; heme exporter protein D	13		
WP_157059371.1	K00824	dat; D-alanine transaminase [EC:2.6.1.21]	171		
WP_157059372.1	K07258	dacC, dacA, dacD; serine-type D-Ala-D-Ala carboxypeptidase (penicillin-binding protein 5/6) [EC:3.4.16.4]	208		
WP_157059374.1			33	K05823	1
WP_157059375.1			9		
WP_157059376.1					
WP_157059377.1			7		
WP_157059378.1			1	K04096	1
WP_157059379.1			2		
WP_157059380.1			1	K03483	1
WP_157059381.1			16	K21567	1
WP_157059382.1			31	K09667	1
WP_157059383.1			5	K07246	1
WP_157059384.1			5	K11720	1
WP_157059385.1					
WP_157059388.1					
WP_157059389.1			9	K02340	1
WP_157059390.1					
WP_157059391.1					
WP_157059396.1			106		
WP_157059397.1			172		
WP_157059398.1	K01011	TST, MPST, sseA; thiosulfate/3-mercaptopyruvate sulfurtransferase [EC:2.8.1.1 2.8.1.2]	273		
WP_157059399.1	K18800	ubiI; 2-polyprenylphenol 6-hydroxylase [EC:1.14.13.240]	195		
WP_157059402.1	K10747	LIG1; DNA ligase 1 [EC:6.5.1.1 6.5.1.6 6.5.1.7]	142		
WP_157059404.1	K07452	mcrB; 5-methylcytosine-specific restriction enzyme B [EC:3.1.21.-]	61		
WP_157059405.1			20	K03705	1
WP_157059406.1					
WP_162262070.1			11	K02242	2
WP_162262071.1			111	K21449	2
WP_162262072.1	K21449	ata, sadA, emaA; trimeric autotransporter adhesin	11	K13735	2
WP_162262073.1					
WP_162262074.1	K19641	hupR, hoxA; two-component system, NtrC family, response regulator HupR/HoxA	167		
WP_162262075.1	K00995	pgsA, PGS1; CDP-diacylglycerol---glycerol-3-phosphate 3-phosphatidyltransferase [EC:2.7.8.5]	135	K08744	12
WP_162262076.1			10	K01183	1
WP_162262077.1			124	K21449	2
WP_162262078.1	K07491	rayT; REP-associated tyrosine transposase	42		
WP_162262079.1	K03530	hupB; DNA-binding protein HU-beta	64		
WP_162262080.1	K07493	K07493; putative transposase	30		
WP_162262081.1			28		
WP_162262082.1			38		
WP_162262083.1	K07497	K07497; putative transposase	19		
WP_162262084.1	K07270	K07270; glycosyl transferase, family 25	54		
WP_162262085.1			56		
WP_162262086.1	K07491	rayT; REP-associated tyrosine transposase	76		
WP_162262087.1	K22292	mupP; N-acetyl-D-muramate 6-phosphate phosphatase [EC:3.1.3.105]	108		
WP_162262088.1			8	K01091	1
WP_162262089.1	K07491	rayT; REP-associated tyrosine transposase	60		
WP_162262090.1			57		
WP_162262091.1	K03367	dltA; D-alanine--poly(phosphoribitol) ligase subunit 1 [EC:6.1.1.13]	62		
WP_162262092.1	K07171	mazF, ndoA, chpA; mRNA interferase MazF [EC:3.1.-.-]	39		
WP_162262093.1			183		
WP_162262094.1			26		
WP_162262095.1			148		
WP_162262097.1			23	K12132	1
WP_173636493.1	K06282	hyaA, hybO; hydrogenase small subunit [EC:1.12.99.6]	393		
WP_173636494.1	K09930	K09930; uncharacterized protein	184		
WP_173636497.1	K07301	yrbG; cation:H+ antiporter	169		
WP_173636498.1			62		
WP_173636499.1			80		
WP_173636500.1	K02956	RP-S15, MRPS15, rpsO; small subunit ribosomal protein S15	72		
WP_173636501.1	K02377	TSTA3, fcl; GDP-L-fucose synthase [EC:1.1.1.271]	238		
WP_173636502.1	K00645	fabD, MCAT, MCT1; [acyl-carrier-protein] S-malonyltransferase [EC:2.3.1.39]	255		
WP_173636503.1	K02860	rimM; 16S rRNA processing protein RimM	75		
WP_173636504.1	K25422	yceF; 7-methyl-GTP pyrophosphatase [EC:3.6.1.-]	128		
WP_197649983.1	K03466	ftsK, spoIIIE; DNA segregation ATPase FtsK/SpoIIIE, S-DNA-T family	406		
WP_197649984.1	K09972	aapP, bztD; general L-amino acid transport system ATP-binding protein [EC:7.4.2.1]	188		
