scis1_1					
scis1_2			139		
scis1_3					
scis1_4			7		
scis1_5	K01874	MARS, metG; methionyl-tRNA synthetase [EC:6.1.1.10]	301		
scis1_6	K07396	K07396; putative protein-disulfide isomerase	76		
scis1_7	K05800	ybaO; Lrp/AsnC family transcriptional regulator	62		
scis1_8	K02049	ABC.SN.A; NitT/TauT family transport system ATP-binding protein	42	K10831	3
scis1_9	K02051	ABC.SN.S; NitT/TauT family transport system substrate-binding protein	189		
scis1_10	K02050	ABC.SN.P; NitT/TauT family transport system permease protein	121		
scis1_11			104		
scis1_12			79		
scis1_13	K01907	AACS, acsA; acetoacetyl-CoA synthetase [EC:6.2.1.16]	346		
scis1_14	K00626	ACAT, atoB; acetyl-CoA C-acetyltransferase [EC:2.3.1.9]	239		
scis1_15	K00140	mmsA, iolA, ALDH6A1; malonate-semialdehyde dehydrogenase (acetylating) / methylmalonate-semialdehyde dehydrogenase [EC:1.2.1.18 1.2.1.27]	288		
scis1_16			196		
scis1_17					
scis1_18			320		
scis1_19			56		
scis1_20			130		
scis1_21	K00010	iolG; myo-inositol 2-dehydrogenase / D-chiro-inositol 1-dehydrogenase [EC:1.1.1.18 1.1.1.369]	136		
scis1_22	K00010	iolG; myo-inositol 2-dehydrogenase / D-chiro-inositol 1-dehydrogenase [EC:1.1.1.18 1.1.1.369]	133		
scis1_23	K03335	iolE; inosose dehydratase [EC:4.2.1.44]	125		
scis1_24	K03336	iolD; 3D-(3,5/4)-trihydroxycyclohexane-1,2-dione acylhydrolase (decyclizing) [EC:3.7.1.22]	351		
scis1_25	K02056	ABC.SS.A; simple sugar transport system ATP-binding protein [EC:7.5.2.-]	185		
scis1_26	K02057	ABC.SS.P; simple sugar transport system permease protein	255		
scis1_27	K02058	ABC.SS.S; simple sugar transport system substrate-binding protein	195		
scis1_28	K02510	hpaI, hpcH; 4-hydroxy-2-oxoheptanedioate aldolase [EC:4.1.2.52]	114		
scis1_29	K00135	gabD; succinate-semialdehyde dehydrogenase / glutarate-semialdehyde dehydrogenase [EC:1.2.1.16 1.2.1.79 1.2.1.20]	189		
scis1_30	K03427	hsdM; type I restriction enzyme M protein [EC:2.1.1.72]	399		
scis1_31	K01154	hsdS; type I restriction enzyme, S subunit [EC:3.1.21.3]	176		
scis1_32			231	K07459	24
scis1_33	K01153	hsdR; type I restriction enzyme, R subunit [EC:3.1.21.3]	773		
scis1_34	K00611	OTC, argF, argI; ornithine carbamoyltransferase [EC:2.1.3.3]	168		
scis1_35	K00821	argD; acetylornithine/N-succinyldiaminopimelate aminotransferase [EC:2.6.1.11 2.6.1.17]	191		
scis1_36			10	K03496	1
scis1_37	K05808	yhbH; putative sigma-54 modulation protein	46		
scis1_38	K06213	mgtE; magnesium transporter	198		
scis1_39	K09903	pyrH; uridylate kinase [EC:2.7.4.22]	119		
scis1_40			76		
scis1_41	K23886	CISD3; CDGSH iron-sulfur domain-containing protein 3	37	K22083	2
scis1_42	K09984	K09984; uncharacterized protein	44		
scis1_43	K08303	prtC, trhP; U32 family peptidase [EC:3.4.-.-]	278		
scis1_44	K11085	msbA; ATP-binding cassette, subfamily B, bacterial MsbA [EC:7.5.2.6]	250		
scis1_45			85		
scis1_46			145		
scis1_47			186		
scis1_48	K07027	K07027; glycosyltransferase 2 family protein	32		
scis1_49	K01937	pyrG, CTPS; CTP synthase [EC:6.3.4.2]	351		
scis1_50	K12573	rnr, vacB; ribonuclease R [EC:3.1.13.1]	261		
scis1_51	K02517	lpxL, htrB; Kdo2-lipid IVA lauroyltransferase/acyltransferase [EC:2.3.1.241 2.3.1.-]	107		
scis1_52	K00640	cysE; serine O-acetyltransferase [EC:2.3.1.30]	130		
scis1_53	K03431	glmM; phosphoglucosamine mutase [EC:5.4.2.10]	216		
scis1_54	K00796	folP; dihydropteroate synthase [EC:2.5.1.15]	119		
scis1_55	K03798	ftsH, hflB; cell division protease FtsH [EC:3.4.24.-]	399		
scis1_56			3	K03643	1
scis1_57	K02340	holA; DNA polymerase III subunit delta [EC:2.7.7.7]	60		
scis1_58	K00147	proA; glutamate-5-semialdehyde dehydrogenase [EC:1.2.1.41]	332		
scis1_59	K00523	ascD, ddhD, rfbI; CDP-4-dehydro-6-deoxyglucose reductase, E3 [EC:1.17.1.1]	120		
scis1_60	K05527	bolA; BolA family transcriptional regulator, general stress-responsive regulator	45		
scis1_61	K08307	mltD, dniR; membrane-bound lytic murein transglycosylase D [EC:4.2.2.-]	173		
scis1_62			22	K02429	1
scis1_63			376		
scis1_64			64		
scis1_65			9	K00762	1
scis1_66	K07058	K07058; membrane protein	66		
scis1_67	K00793	ribE, RIB5; riboflavin synthase [EC:2.5.1.9]	103		
scis1_68	K14652	ribBA; 3,4-dihydroxy 2-butanone 4-phosphate synthase / GTP cyclohydrolase II [EC:4.1.99.12 3.5.4.25]	222		
scis1_69	K00794	ribH, RIB4; 6,7-dimethyl-8-ribityllumazine synthase [EC:2.5.1.78]	56		
scis1_70	K03625	nusB; transcription antitermination protein NusB	45		
scis1_71			117		
scis1_72	K04044	hscA; molecular chaperone HscA	306		
scis1_73	K04755	fdx; ferredoxin, 2Fe-2S	92		
scis1_74			3	K13687	1
scis1_75	K02455	gspF; general secretion pathway protein F	134		
scis1_76	K02454	gspE; general secretion pathway protein E [EC:7.4.2.8]	241		
scis1_77	K02453	gspD; general secretion pathway protein D	171		
scis1_78	K02452	gspC; general secretion pathway protein C	34		
scis1_79	K15633	gpmI; 2,3-bisphosphoglycerate-independent phosphoglycerate mutase [EC:5.4.2.12]	272		
scis1_80	K08997	SELENOO, selO; serine/tyrosine/threonine adenylyltransferase [EC:2.7.7.-]	104		
scis1_81	K03683	rnt; ribonuclease T [EC:3.1.13.-]	87		
scis1_82					
scis1_83	K11754	folC; dihydrofolate synthase / folylpolyglutamate synthase [EC:6.3.2.12 6.3.2.17]	120		
scis1_84			16	K06147	1
scis1_85	K00764	purF, PPAT; amidophosphoribosyltransferase [EC:2.4.2.14]	314		
scis1_86	K10764	metZ; O-succinylhomoserine sulfhydrylase [EC:2.5.1.-]	201		
scis1_87	K00767	nadC, QPRT; nicotinate-nucleotide pyrophosphorylase (carboxylating) [EC:2.4.2.19]	110		
scis1_88	K07053	E3.1.3.97; 3',5'-nucleoside bisphosphate phosphatase [EC:3.1.3.97]	104		
scis1_89	K00833	bioA; adenosylmethionine---8-amino-7-oxononanoate aminotransferase [EC:2.6.1.62]	248		
scis1_90	K00228	CPOX, hemF; coproporphyrinogen III oxidase [EC:1.3.3.3]	264		
scis1_91	K00334	nuoE; NADH-quinone oxidoreductase subunit E [EC:7.1.1.2]	88		
scis1_92	K00335	nuoF; NADH-quinone oxidoreductase subunit F [EC:7.1.1.2]	395		
scis1_93	K00336	nuoG; NADH-quinone oxidoreductase subunit G [EC:7.1.1.2]	205		
scis1_94	K00337	nuoH; NADH-quinone oxidoreductase subunit H [EC:7.1.1.2]	204		
scis1_95	K00338	nuoI; NADH-quinone oxidoreductase subunit I [EC:7.1.1.2]	109		
scis1_96	K00339	nuoJ; NADH-quinone oxidoreductase subunit J [EC:7.1.1.2]	76		
scis1_97	K00340	nuoK; NADH-quinone oxidoreductase subunit K [EC:7.1.1.2]	82		
scis1_98	K00341	nuoL; NADH-quinone oxidoreductase subunit L [EC:7.1.1.2]	348		
scis1_99	K00342	nuoM; NADH-quinone oxidoreductase subunit M [EC:7.1.1.2]	290		
scis1_100	K00343	nuoN; NADH-quinone oxidoreductase subunit N [EC:7.1.1.2]	183		
scis1_101	K02909	RP-L31, rpmE; large subunit ribosomal protein L31	52		
scis1_102	K01682	acnB; aconitate hydratase 2 / 2-methylisocitrate dehydratase [EC:4.2.1.3 4.2.1.99]	553		
scis1_103	K02837	prfC; peptide chain release factor 3	21		
scis1_104	K02837	prfC; peptide chain release factor 3	236		
scis1_105	K00791	miaA, TRIT1; tRNA dimethylallyltransferase [EC:2.5.1.75]	127		
scis1_106					
scis1_107					
scis1_108					
scis1_109	K02460	gspK; general secretion pathway protein K	14		
scis1_110					
scis1_111	K02458	gspI; general secretion pathway protein I	14	K02671	1
scis1_112	K06013	STE24; STE24 endopeptidase [EC:3.4.24.84]	188		
scis1_113	K01525	apaH; bis(5'-nucleosyl)-tetraphosphatase (symmetrical) [EC:3.6.1.41]	85		
scis1_114	K02528	ksgA; 16S rRNA (adenine1518-N6/adenine1519-N6)-dimethyltransferase [EC:2.1.1.182]	106		
scis1_115	K00163	aceE; pyruvate dehydrogenase E1 component [EC:1.2.4.1]	578		
scis1_116			109	K03427	2
scis1_117	K03427	hsdM; type I restriction enzyme M protein [EC:2.1.1.72]	120		
scis1_118	K19221	cobA, btuR; cob(I)alamin adenosyltransferase [EC:2.5.1.17]	89		
scis1_119			16	K17319	1
scis1_120	K16092	btuB; vitamin B12 transporter	86		
scis1_121	K00831	serC, PSAT1; phosphoserine aminotransferase [EC:2.6.1.52]	283		
scis1_122	K14170	pheA; chorismate mutase / prephenate dehydratase [EC:5.4.99.5 4.2.1.51]	169		
scis1_123	K04517	tyrA2; prephenate dehydrogenase [EC:1.3.1.12]	88		
scis1_124	K03424	tatD; TatD DNase family protein [EC:3.1.21.-]	57		
scis1_125	K02493	hemK, prmC, HEMK; release factor glutamine methyltransferase [EC:2.1.1.297]	85		
scis1_126	K03613	rnfE; Na+-translocating ferredoxin:NAD+ oxidoreductase subunit E	104		
scis1_127	K00817	hisC; histidinol-phosphate aminotransferase [EC:2.6.1.9]	138		
scis1_128			175		
scis1_129					
scis1_130	K01657	trpE; anthranilate synthase component I [EC:4.1.3.27]	256		
scis1_131	K19416	yccA; modulator of FtsH protease	76		
scis1_132	K08311	nudH; putative (di)nucleoside polyphosphate hydrolase [EC:3.6.1.-]	79		
scis1_133			13		
scis1_134			67		
scis1_135	K15256	cmoA; tRNA (cmo5U34)-methyltransferase [EC:2.1.1.-]	101		
scis1_136	K03181	ubiC; chorismate lyase [EC:4.1.3.40]	24		
scis1_137	K01207	nagZ; beta-N-acetylhexosaminidase [EC:3.2.1.52]	157		
scis1_138	K08218	ampG; MFS transporter, PAT family, beta-lactamase induction signal transducer AmpG	177		
scis1_139			44	K19235	2
scis1_140	K17938	sbmA, bacA; peptide/bleomycin uptake transporter	161		
scis1_141			33		
scis1_142	K01870	IARS, ileS; isoleucyl-tRNA synthetase [EC:6.1.1.5]	519		
scis1_143	K10763	hda; DnaA-homolog protein	35		
scis1_144	K08744	CRLS; cardiolipin synthase (CMP-forming) [EC:2.7.8.41]	77		
scis1_145	K01933	purM; phosphoribosylformylglycinamidine cyclo-ligase [EC:6.3.3.1]	194		
scis1_146	K03595	era, ERAL1; GTPase	128		
scis1_147	K03584	recO; DNA repair protein RecO (recombination protein O)	52		
scis1_148	K03593	mrp, NUBPL; ATP-binding protein involved in chromosome partitioning	194		
scis1_149			11		
scis1_150			9	K01163	1
scis1_151			2	K03634	1
scis1_152					
scis1_153	K06178	rluB; 23S rRNA pseudouridine2605 synthase [EC:5.4.99.22]	151		
scis1_154			53		
scis1_155	K03636	moaD, cysO; sulfur-carrier protein	26		
scis1_156	K03639	moaA, CNX2; GTP 3',8-cyclase [EC:4.1.99.22]	147		
scis1_157	K03637	moaC, CNX3; cyclic pyranopterin monophosphate synthase [EC:4.6.1.17]	78		
scis1_158	K03750	moeA; molybdopterin molybdotransferase [EC:2.10.1.1]	163		
scis1_159	K03671	trxA; thioredoxin 1	74		
scis1_160	K01159	ruvC; crossover junction endodeoxyribonuclease RuvC [EC:3.1.22.4]	87		
scis1_161	K09972	aapP, bztD; general L-amino acid transport system ATP-binding protein [EC:7.4.2.1]	187		
scis1_162	K09971	aapM, bztC; general L-amino acid transport system permease protein	201		
scis1_163	K09970	aapQ, bztB; general L-amino acid transport system permease protein	14		
scis1_164	K09970	aapQ, bztB; general L-amino acid transport system permease protein	44		
scis1_165	K09969	aapJ, bztA; general L-amino acid transport system substrate-binding protein	212		
scis1_166			46		
scis1_167			21		
scis1_168	K00330	nuoA; NADH-quinone oxidoreductase subunit A [EC:7.1.1.2]	82		
scis1_169	K00331	nuoB; NADH-quinone oxidoreductase subunit B [EC:7.1.1.2]	172		
scis1_170	K00332	nuoC; NADH-quinone oxidoreductase subunit C [EC:7.1.1.2]	132		
scis1_171	K00333	nuoD; NADH-quinone oxidoreductase subunit D [EC:7.1.1.2]	437		
scis1_172			51		
scis1_173	K03685	rnc, DROSHA, RNT1; ribonuclease III [EC:3.1.26.3]	92		
scis1_174	K11175	purN; phosphoribosylglycinamide formyltransferase 1 [EC:2.1.2.2]	112		
scis1_175			14	K01462	1
scis1_176	K00031	IDH1, IDH2, icd; isocitrate dehydrogenase [EC:1.1.1.42]	411		
scis1_177	K01647	CS, gltA; citrate synthase [EC:2.3.3.1]	296		
scis1_178	K03183	ubiE; demethylmenaquinone methyltransferase / 2-methoxy-6-polyprenyl-1,4-benzoquinol methylase [EC:2.1.1.163 2.1.1.201]	151		
scis1_179					
scis1_180	K03688	ubiB, aarF; ubiquinone biosynthesis protein	192		
scis1_181	K06217	phoH, phoL; phosphate starvation-inducible protein PhoH and related proteins	134		
scis1_182	K00566	mnmA, trmU; tRNA-uridine 2-sulfurtransferase [EC:2.8.1.13]	193		
scis1_183	K07153	hflD; high frequency lysogenization protein	55		
scis1_184	K02968	RP-S20, rpsT; small subunit ribosomal protein S20	44		
scis1_185			36		
scis1_186	K03601	xseA; exodeoxyribonuclease VII large subunit [EC:3.1.11.6]	145		
scis1_187	K02654	pilD, pppA; leader peptidase (prepilin peptidase) / N-methyltransferase [EC:3.4.23.43 2.1.1.-]	57		
scis1_188	K09928	K09928; uncharacterized protein	56		
scis1_189	K01662	dxs; 1-deoxy-D-xylulose-5-phosphate synthase [EC:2.2.1.7]	290		
scis1_190	K03977	engA, der; GTPase	231		
scis1_191			22		
scis1_192	K01892	HARS, hisS; histidyl-tRNA synthetase [EC:6.1.1.21]	200		
scis1_193	K03497	parB, spo0J; ParB family transcriptional regulator, chromosome partitioning protein	122		
scis1_194	K03496	parA, soj; chromosome partitioning protein	140		
scis1_195	K03797	E3.4.21.102, prc, ctpA; carboxyl-terminal processing protease [EC:3.4.21.102]	188		
scis1_196			51		
scis1_197	K13292	lgt, umpA; phosphatidylglycerol---prolipoprotein diacylglyceryl transferase [EC:2.5.1.145]	170		
scis1_198	K00560	thyA, TYMS; thymidylate synthase [EC:2.1.1.45]	238		
scis1_199	K01772	hemH, FECH; protoporphyrin/coproporphyrin ferrochelatase [EC:4.99.1.1 4.99.1.9]	157		
scis1_200	K19810	epmB; L-lysine 2,3-aminomutase [EC:5.4.3.-]	101		
scis1_201	K03657	uvrD, pcrA; DNA helicase II / ATP-dependent DNA helicase PcrA [EC:3.6.4.12]	305		
scis1_202			27	K06196	3
scis1_203	K00537	arsC; arsenate reductase (glutaredoxin) [EC:1.20.4.1]	33		
scis1_204	K00856	E2.7.1.20, ADK; adenosine kinase [EC:2.7.1.20]	240		
scis1_205	K07462	recJ; single-stranded-DNA-specific exonuclease [EC:3.1.-.-]	250		
scis1_206					
scis1_207	K02169	bioC; malonyl-CoA O-methyltransferase [EC:2.1.1.197]	75		
scis1_208	K00941	thiD; hydroxymethylpyrimidine/phosphomethylpyrimidine kinase [EC:2.7.1.49 2.7.4.7]	56		
scis1_209	K00384	trxB, TRR; thioredoxin reductase (NADPH) [EC:1.8.1.9]	182		
scis1_210	K00281	GLDC, gcvP; glycine dehydrogenase [EC:1.4.4.2]	498		
scis1_211	K01950	E6.3.5.1, NADSYN1, QNS1, nadE; NAD+ synthase (glutamine-hydrolysing) [EC:6.3.5.1]	185		
scis1_212			2	K03655	1
scis1_213	K01007	pps, ppsA; pyruvate, water dikinase [EC:2.7.9.2]	470		
scis1_214	K03664	smpB; SsrA-binding protein	109		
scis1_215			59		
scis1_216			27	K13687	1
scis1_217	K00652	bioF; 8-amino-7-oxononanoate synthase [EC:2.3.1.47]	156		
scis1_218			30	K13687	1
scis1_219	K02170	bioH; pimeloyl-[acyl-carrier protein] methyl ester esterase [EC:3.1.1.85]	40	K02169	1
scis1_220	K02427	rlmE, rrmJ, ftsJ; 23S rRNA (uridine2552-2'-O)-methyltransferase [EC:2.1.1.166]	109		
scis1_221	K03767	PPIA; peptidyl-prolyl cis-trans isomerase A (cyclophilin A) [EC:5.2.1.8]	76		
scis1_222	K01000	mraY; phospho-N-acetylmuramoyl-pentapeptide-transferase [EC:2.7.8.13]	226		
scis1_223	K01494	dcd; dCTP deaminase [EC:3.5.4.13]	167		
scis1_224	K02314	dnaB; replicative DNA helicase [EC:3.6.4.12]	174		
scis1_225	K03527	ispH, lytB; 4-hydroxy-3-methylbut-2-en-1-yl diphosphate reductase [EC:1.17.7.4]	179		
scis1_226	K03774	slpA; FKBP-type peptidyl-prolyl cis-trans isomerase SlpA [EC:5.2.1.8]	30		
scis1_227	K02010	afuC, fbpC; iron(III) transport system ATP-binding protein [EC:7.2.2.7]	72		
scis1_228	K02012	afuA, fbpA; iron(III) transport system substrate-binding protein	179		
scis1_229	K02011	afuB, fbpB; iron(III) transport system permease protein	241		
scis1_230	K01963	accD; acetyl-CoA carboxylase carboxyl transferase subunit beta [EC:6.4.1.2 2.1.3.15]	176		
scis1_231	K01695	trpA; tryptophan synthase alpha chain [EC:4.2.1.20]	132		
scis1_232	K01599	hemE, UROD; uroporphyrinogen decarboxylase [EC:4.1.1.37]	217		
scis1_233			107		
scis1_234	K03495	gidA, mnmG, MTO1; tRNA uridine 5-carboxymethylaminomethyl modification enzyme	376		
scis1_235			7	K08978	4
scis1_236	K11107	yfaE; ferredoxin	21	K02639	1
scis1_237	K00526	E1.17.4.1B, nrdB, nrdF; ribonucleoside-diphosphate reductase beta chain [EC:1.17.4.1]	334		
scis1_238	K00525	E1.17.4.1A, nrdA, nrdE; ribonucleoside-diphosphate reductase alpha chain [EC:1.17.4.1]	554		
scis1_239	K04066	priA; primosomal protein N' (replication factor Y) (superfamily II helicase) [EC:3.6.4.-]	227		
scis1_240	K07042	ybeY, yqfG; probable rRNA maturation factor	34		
scis1_241			56	K21478	14
scis1_242	K03100	lepB; signal peptidase I [EC:3.4.21.89]	86		
scis1_243			43	K02945	1
scis1_244	K00806	uppS; undecaprenyl diphosphate synthase [EC:2.5.1.31]	144		
scis1_245	K07400	nfuA; Fe/S biogenesis protein NfuA	88		
scis1_246	K01918	panC; pantoate--beta-alanine ligase [EC:6.3.2.1]	105		
scis1_247	K04085	tusA, sirA; tRNA 2-thiouridine synthesizing protein A [EC:2.8.1.-]	60		
scis1_248			109		
scis1_249			101		
scis1_250			36	K07390	1
scis1_251	K02039	phoU; phosphate transport system protein	93		
scis1_252	K02036	pstB; phosphate transport system ATP-binding protein [EC:7.3.2.1]	180		
scis1_253	K02038	pstA; phosphate transport system permease protein	240		
scis1_254	K02037	pstC; phosphate transport system permease protein	201		
scis1_255	K02040	pstS; phosphate transport system substrate-binding protein	188		
scis1_256			309		
scis1_257			318		
scis1_258			54		
scis1_259	K03641	tolB; TolB protein	120		
scis1_260	K03640	pal; peptidoglycan-associated lipoprotein	22		
scis1_261	K01657	trpE; anthranilate synthase component I [EC:4.1.3.27]	184		
scis1_262					
scis1_263					
scis1_264			23		
scis1_265	K02503	HINT1, hinT, hit; histidine triad (HIT) family protein	71		
scis1_266	K03787	surE; 5'-nucleotidase [EC:3.1.3.5]	162		
scis1_267	K03694	clpA; ATP-dependent Clp protease ATP-binding subunit ClpA	390		
scis1_268	K06891	clpS; ATP-dependent Clp protease adaptor protein ClpS	45		
scis1_269	K11720	lptG; lipopolysaccharide export system permease protein	77		
scis1_270	K01951	guaA, GMPS; GMP synthase (glutamine-hydrolysing) [EC:6.3.5.2]	365		
scis1_271	K11991	tadA; tRNA(adenine34) deaminase [EC:3.5.4.33]	18		
scis1_272	K11991	tadA; tRNA(adenine34) deaminase [EC:3.5.4.33]	14		
scis1_273			11	K01921	1
scis1_274			7	K07180	1
scis1_275			1	K11103	1
scis1_276			5		
scis1_277			2	K05833	1
scis1_278			73		
scis1_279					
scis1_280			1	K03076	1
scis1_281			158		
scis1_282	K07793	tctA; putative tricarboxylic transport membrane protein	240		
scis1_283	K07794	tctB; putative tricarboxylic transport membrane protein	20		
scis1_284			112		
scis1_285	K19333	kdgR; IclR family transcriptional regulator, KDG regulon repressor	52		
scis1_286			38	K12262	2
scis1_287			11	K02030	1
scis1_288	K07451	mcrA; 5-methylcytosine-specific restriction enzyme A [EC:3.1.21.-]	15		
scis1_289			3	K07056	1
scis1_290			18	K03561	1
scis1_291			24	K06413	1
scis1_292	K00111	glpA, glpD; glycerol-3-phosphate dehydrogenase [EC:1.1.5.3]	235		
scis1_293	K02444	glpR; DeoR family transcriptional regulator, glycerol-3-phosphate regulon repressor	119		
scis1_294	K17321	glpV; glycerol transport system substrate-binding protein	632		
scis1_295	K17324	glpS; glycerol transport system ATP-binding protein	185		
scis1_296	K17325	K17325, glpT; glycerol transport system ATP-binding protein	212		
scis1_297	K17322	K17322, glpP; glycerol transport system permease protein	302		
scis1_298	K17323	glpQ; glycerol transport system permease protein	207		
scis1_299			42		
scis1_300	K03658	helD; DNA helicase IV [EC:3.6.4.12]	71		
scis1_301	K03658	helD; DNA helicase IV [EC:3.6.4.12]	24		
scis1_302	K00616	E2.2.1.2, talA, talB; transaldolase [EC:2.2.1.2]	175		
scis1_303			68		
scis1_304	K10554	frcA; fructose transport system ATP-binding protein	188		
scis1_305	K10553	frcC; fructose transport system permease protein	293		
scis1_306	K10552	frcB; fructose transport system substrate-binding protein	219		
scis1_307			161		
scis1_308	K18816	aac6-I, aacA7; aminoglycoside 6'-N-acetyltransferase I [EC:2.3.1.82]	52		
scis1_309			2	K09471	1
scis1_310			144		
scis1_311	K21622	tag6PK; D-tagatose 6-phosphate 4-epimerase [EC:5.1.3.40]	175	K16371	43
scis1_312	K21621	fk; tagatose kinase [EC:2.7.1.101]	172		
scis1_313	K10227	smoE, mtlE; sorbitol/mannitol transport system substrate-binding protein	253	K02027	59
scis1_314					
scis1_315	K10229	smoG, mtlG; sorbitol/mannitol transport system permease protein	167		
scis1_316	K10111	malK, mtlK, thuK; multiple sugar transport system ATP-binding protein [EC:7.5.2.-]	255		
scis1_317	K21620	sorbD; galactitol 2-dehydrogenase [EC:1.1.1.16]	201		
scis1_318			49	K17818	13
scis1_319					
scis1_320	K24180	mleP; malate permease and related proteins	139		
scis1_321	K10191	lacK; lactose/L-arabinose transport system ATP-binding protein	211		
scis1_322	K02027	ABC.MS.S; multiple sugar transport system substrate-binding protein	233		
scis1_323	K02025	ABC.MS.P; multiple sugar transport system permease protein	251		
scis1_324	K02026	ABC.MS.P1; multiple sugar transport system permease protein	272		
scis1_325	K07407	E3.2.1.22B, galA, rafA; alpha-galactosidase [EC:3.2.1.22]	422		
scis1_326	K22215	galD; galactose dehydrogenase [EC:1.1.1.48 1.1.1.120]	151		
scis1_327	K00883	dgoK; 2-dehydro-3-deoxygalactonokinase [EC:2.7.1.58]	148		
scis1_328	K01631	dgoA; 2-dehydro-3-deoxyphosphogalactonate aldolase [EC:4.1.2.21]	94		
scis1_329	K12308	bgaB, lacA; beta-galactosidase [EC:3.2.1.23]	349		
scis1_330	K00111	glpA, glpD; glycerol-3-phosphate dehydrogenase [EC:1.1.5.3]	242		
scis1_331	K00864	glpK, GK; glycerol kinase [EC:2.7.1.30]	298		
scis1_332	K10227	smoE, mtlE; sorbitol/mannitol transport system substrate-binding protein	253	K02027	59
scis1_333	K10228	smoF, mtlF; sorbitol/mannitol transport system permease protein	265		
scis1_334	K10229	smoG, mtlG; sorbitol/mannitol transport system permease protein	159		
scis1_335	K00007	dalD; D-arabinitol 4-dehydrogenase [EC:1.1.1.11]	122		
scis1_336	K00847	E2.7.1.4, scrK; fructokinase [EC:2.7.1.4]	75		
scis1_337	K18983	gci; D-galactarolactone cycloisomerase [EC:5.5.1.27]	374		
scis1_338	K00135	gabD; succinate-semialdehyde dehydrogenase / glutarate-semialdehyde dehydrogenase [EC:1.2.1.16 1.2.1.79 1.2.1.20]	289		
scis1_339			60	K23107	26
scis1_340	K10544	xylH; D-xylose transport system permease protein	137		
scis1_341	K10545	xylG; D-xylose transport system ATP-binding protein [EC:7.5.2.10]	119		
scis1_342	K10543	xylF; D-xylose transport system substrate-binding protein	121		
scis1_343			42	K19776	13
scis1_344	K03149	thiG; thiazole synthase [EC:2.8.1.10]	175		
scis1_345	K00020	HIBADH, mmsB; 3-hydroxyisobutyrate dehydrogenase [EC:1.1.1.31]	100		
scis1_346			52		
scis1_347	K01939	purA, ADSS; adenylosuccinate synthase [EC:6.3.4.4]	380		
scis1_348	K02502	hisZ; ATP phosphoribosyltransferase regulatory subunit	78		
scis1_349	K04087	hflC; modulator of FtsH protease HflC	181		
scis1_350	K04088	hflK; modulator of FtsH protease HflK	165		
scis1_351	K00997	acpS; holo-[acyl-carrier protein] synthase [EC:2.7.8.7]	63		
scis1_352	K03474	pdxJ; pyridoxine 5-phosphate synthase [EC:2.6.99.2]	132		
scis1_353			149		
scis1_354	K09761	rsmE; 16S rRNA (uracil1498-N3)-methyltransferase [EC:2.1.1.193]	79		
scis1_355	K03438	mraW, rsmH; 16S rRNA (cytosine1402-N4)-methyltransferase [EC:2.1.1.199]	139		
scis1_356			3	K03586	2
scis1_357	K03587	ftsI; cell division protein FtsI (penicillin-binding protein 3) [EC:3.4.16.4]	67		
scis1_358	K01465	URA4, pyrC; dihydroorotase [EC:3.5.2.3]	229		
scis1_359	K09001	anmK; anhydro-N-acetylmuramic acid kinase [EC:2.7.1.170]	125		
scis1_360	K03070	secA; preprotein translocase subunit SecA [EC:7.4.2.8]	503		
scis1_361	K05807	bamD; outer membrane protein assembly factor BamD	85		
scis1_362			121		
scis1_363	K03111	ssb; single-strand DNA-binding protein	70		
scis1_364	K00240	sdhB, frdB; succinate dehydrogenase / fumarate reductase, iron-sulfur subunit [EC:1.3.5.1 1.3.5.4]	145		
scis1_365	K00239	sdhA, frdA; succinate dehydrogenase / fumarate reductase, flavoprotein subunit [EC:1.3.5.1 1.3.5.4]	409		
scis1_366	K00241	sdhC, frdC; succinate dehydrogenase / fumarate reductase, cytochrome b subunit	20		
scis1_367	K11690	dctM; C4-dicarboxylate transporter, DctM subunit	230		
scis1_368	K11689	dctQ; C4-dicarboxylate transporter, DctQ subunit	65		
scis1_369	K11688	dctP; C4-dicarboxylate-binding protein DctP	165		
scis1_370			58		
scis1_371			139		
scis1_372	K07003	K07003; uncharacterized protein	312		
scis1_373	K07071	K07071; uncharacterized protein	95		
scis1_374	K03106	SRP54, ffh; signal recognition particle subunit SRP54 [EC:3.6.5.4]	250		
scis1_375			32		
scis1_376	K04082	hscB, HSCB, HSC20; molecular chaperone HscB	38		
scis1_377	K13628	iscA; iron-sulfur cluster assembly protein	103		
scis1_378	K04488	iscU, nifU; nitrogen fixation protein NifU and related proteins	143		
scis1_379	K04487	iscS, NFS1; cysteine desulfurase [EC:2.8.1.7]	303		
scis1_380	K13643	iscR; Rrf2 family transcriptional regulator, iron-sulfur cluster assembly transcription factor	74		
scis1_381	K01755	argH, ASL; argininosuccinate lyase [EC:4.3.2.1]	297		
scis1_382	K00604	MTFMT, fmt; methionyl-tRNA formyltransferase [EC:2.1.2.9]	118		
scis1_383			5	K03892	1
scis1_384			4	K01791	1
scis1_385	K07090	K07090; uncharacterized protein	108		
scis1_386			2	K01854	1
scis1_387			4	K02342	1
scis1_388	K00602	purH; phosphoribosylaminoimidazolecarboxamide formyltransferase / IMP cyclohydrolase [EC:2.1.2.3 3.5.4.10]	382		
scis1_389	K00943	tmk, DTYMK; dTMP kinase [EC:2.7.4.9]	90		
scis1_390	K02341	holB; DNA polymerase III subunit delta' [EC:2.7.7.7]	53		
scis1_391	K01845	hemL; glutamate-1-semialdehyde 2,1-aminomutase [EC:5.4.3.8]	257		
scis1_392			85		
scis1_393			33		
scis1_394	K05589	ftsB; cell division protein FtsB	10		
scis1_395	K00991	ispD; 2-C-methyl-D-erythritol 4-phosphate cytidylyltransferase [EC:2.7.7.60]	62		
scis1_396	K00606	panB; 3-methyl-2-oxobutanoate hydroxymethyltransferase [EC:2.1.2.11]	111		
scis1_397	K03588	ftsW, spoVE; cell division protein FtsW	119		
scis1_398	K02563	murG; UDP-N-acetylglucosamine--N-acetylmuramyl-(pentapeptide) pyrophosphoryl-undecaprenol N-acetylglucosamine transferase [EC:2.4.1.227]	120		
scis1_399	K02200	ccmH; cytochrome c-type biogenesis protein CcmH	46		
scis1_400	K04764	ihfA, himA; integration host factor subunit alpha	51		
scis1_401	K01890	FARSB, pheT; phenylalanyl-tRNA synthetase beta chain [EC:6.1.1.20]	335		
scis1_402	K01889	FARSA, pheS; phenylalanyl-tRNA synthetase alpha chain [EC:6.1.1.20]	219		
scis1_403	K02887	RP-L20, MRPL20, rplT; large subunit ribosomal protein L20	85		
scis1_404	K02916	RP-L35, MRPL35, rpmI; large subunit ribosomal protein L35	66		
scis1_405	K02520	infC, MTIF3; translation initiation factor IF-3	75		
scis1_406	K01423	bepA; beta-barrel assembly-enhancing protease [EC:3.4.-.-]	22		
scis1_407	K07566	tsaC, rimN, SUA5; L-threonylcarbamoyladenylate synthase [EC:2.7.7.87]	59		
scis1_408	K03733	xerC; integrase/recombinase XerC	94		
scis1_409			16	K03540	1
scis1_410	K09158	K09158; uncharacterized protein	32		
scis1_411	K03801	lipB; lipoyl(octanoyl) transferase [EC:2.3.1.181]	87		
scis1_412			6	K02013	1
scis1_413	K03075	secG; preprotein translocase subunit SecG	46		
scis1_414	K01803	TPI, tpiA; triosephosphate isomerase (TIM) [EC:5.3.1.1]	192		
scis1_415			9	K07289	1
scis1_416	K03501	gidB, rsmG; 16S rRNA (guanine527-N7)-methyltransferase [EC:2.1.1.170]	58		
scis1_417	K03644	lipA, LIAS, LIP1, LIP5; lipoyl synthase [EC:2.8.1.8]	182		
scis1_418			11	K06178	1
scis1_419	K00950	folK; 2-amino-4-hydroxy-6-hydroxymethyldihydropteridine diphosphokinase [EC:2.7.6.3]	71		
scis1_420	K00931	proB; glutamate 5-kinase [EC:2.7.2.11]	86		
scis1_421	K03979	obgE, cgtA, MTG2; GTPase [EC:3.6.5.-]	162		
scis1_422	K02527	kdtA, waaA; 3-deoxy-D-manno-octulosonic-acid transferase [EC:2.4.99.12 2.4.99.13 2.4.99.14 2.4.99.15]	94		
scis1_423	K03719	lrp; Lrp/AsnC family transcriptional regulator, leucine-responsive regulatory protein	47		
scis1_424	K00259	ald; alanine dehydrogenase [EC:1.4.1.1]	224		
scis1_425	K03297	emrE, qac, mmr, smr; small multidrug resistance pump	46	K11815	3
scis1_426	K01953	asnB, ASNS; asparagine synthase (glutamine-hydrolysing) [EC:6.3.5.4]	344		
scis1_427					
scis1_428			30	K05834	6
scis1_429	K03526	gcpE, ispG; (E)-4-hydroxy-3-methylbut-2-enyl-diphosphate synthase [EC:1.17.7.1 1.17.7.3]	312		
scis1_430	K01733	thrC; threonine synthase [EC:4.2.3.1]	313		
scis1_431	K00003	hom; homoserine dehydrogenase [EC:1.1.1.3]	168		
scis1_432	K03215	rumA; 23S rRNA (uracil1939-C5)-methyltransferase [EC:2.1.1.190]	194		
scis1_433	K11473	glcF; glycolate oxidase iron-sulfur subunit	169		
scis1_434			310		
scis1_435	K21029	moeB; molybdopterin-synthase adenylyltransferase [EC:2.7.7.80]	120		
scis1_436	K01588	purE; 5-(carboxyamino)imidazole ribonucleotide mutase [EC:5.4.99.18]	95		
scis1_437	K01589	purK; 5-(carboxyamino)imidazole ribonucleotide synthase [EC:6.3.4.18]	119		
scis1_438	K01139	spoT; GTP diphosphokinase / guanosine-3',5'-bis(diphosphate) 3'-diphosphatase [EC:2.7.6.5 3.1.7.2]	263		
scis1_439	K01012	bioB; biotin synthase [EC:2.8.1.6]	208		
scis1_440	K09747	ebfC; nucleoid-associated protein EbfC	30		
scis1_441	K06187	recR; recombination protein RecR	96		
scis1_442	K11748	kefG; glutathione-regulated potassium-efflux system ancillary protein KefG	66		
scis1_443			71		
scis1_444	K11472	glcE; glycolate oxidase FAD binding subunit	26		
scis1_445	K00104	glcD; glycolate oxidase [EC:1.1.3.15]	269		
scis1_446	K00830	AGXT; alanine-glyoxylate transaminase / serine-glyoxylate transaminase / serine-pyruvate transaminase [EC:2.6.1.44 2.6.1.45 2.6.1.51]	263		
scis1_447	K03455	TC.KEF; monovalent cation:H+ antiporter-2, CPA2 family	213		
scis1_448	K01719	hemD, UROS; uroporphyrinogen-III synthase [EC:4.2.1.75]	47	K13543	1
scis1_449	K03635	MOCS2B, moaE; molybdopterin synthase catalytic subunit [EC:2.8.1.12]	80		
scis1_450	K03473	pdxB; erythronate-4-phosphate dehydrogenase [EC:1.1.1.290]	119		
scis1_451			11	K05540	1
scis1_452			263		
scis1_453			62		
scis1_454			289		
scis1_455			2	K12132	1
scis1_456	K06941	rlmN; 23S rRNA (adenine2503-C2)-methyltransferase [EC:2.1.1.192]	187		
scis1_457	K00940	ndk, NME; nucleoside-diphosphate kinase [EC:2.7.4.6]	108		
scis1_458	K03530	hupB; DNA-binding protein HU-beta	60		
scis1_459	K02343	dnaX; DNA polymerase III subunit gamma/tau [EC:2.7.7.7]	107		
scis1_460	K03614	rnfD; Na+-translocating ferredoxin:NAD+ oxidoreductase subunit D [EC:7.2.1.2]	102		
scis1_461	K03615	rnfC; Na+-translocating ferredoxin:NAD+ oxidoreductase subunit C [EC:7.2.1.2]	131		
scis1_462	K03616	rnfB; Na+-translocating ferredoxin:NAD+ oxidoreductase subunit B [EC:7.2.1.2]	88		
scis1_463	K03617	rnfA; Na+-translocating ferredoxin:NAD+ oxidoreductase subunit A	125		
scis1_464	K01704	leuD, IPMI-S; 3-isopropylmalate/(R)-2-methylmalate dehydratase small subunit [EC:4.2.1.33 4.2.1.35]	156		
scis1_465			51		
scis1_466	K00748	lpxB; lipid-A-disaccharide synthase [EC:2.4.1.182]	120		
scis1_467	K07574	yhbY; RNA-binding protein	23		
scis1_468	K01586	lysA; diaminopimelate decarboxylase [EC:4.1.1.20]	231		
scis1_469			2	K01677	1
scis1_470	K08312	nudE; ADP-ribose diphosphatase [EC:3.6.1.-]	125		
scis1_471	K01749	hemC, HMBS; hydroxymethylbilane synthase [EC:2.5.1.61]	153		
scis1_472			11	K03671	1
scis1_473	K03046	rpoC; DNA-directed RNA polymerase subunit beta' [EC:2.7.7.6]	933		
scis1_474	K03043	rpoB; DNA-directed RNA polymerase subunit beta [EC:2.7.7.6]	924		
scis1_475					
scis1_476	K02935	RP-L7, MRPL12, rplL; large subunit ribosomal protein L7/L12	74		
scis1_477	K02864	RP-L10, MRPL10, rplJ; large subunit ribosomal protein L10	104		
scis1_478	K02863	RP-L1, MRPL1, rplA; large subunit ribosomal protein L1	198		
scis1_479	K02867	RP-L11, MRPL11, rplK; large subunit ribosomal protein L11	113		
scis1_480	K02601	nusG; transcription termination/antitermination protein NusG	111		
scis1_481	K03073	secE; preprotein translocase subunit SecE	28		
scis1_482	K02358	tuf, TUFM; elongation factor Tu	330		
scis1_483	K02558	mpl; UDP-N-acetylmuramate: L-alanyl-gamma-D-glutamyl-meso-diaminopimelate ligase [EC:6.3.2.45]	190		
scis1_484	K07113	fxsA; UPF0716 protein FxsA	51		
scis1_485	K03648	UNG, UDG; uracil-DNA glycosylase [EC:3.2.2.27]	152		
scis1_486					
scis1_487	K06867	K06867; uncharacterized protein	17		
scis1_488	K06867	K06867; uncharacterized protein	11		
scis1_489					
scis1_490	K01972	E6.5.1.2, ligA, ligB; DNA ligase (NAD+) [EC:6.5.1.2]	300		
scis1_491	K07287	bamC; outer membrane protein assembly factor BamC	119		
scis1_492	K01714	dapA; 4-hydroxy-tetrahydrodipicolinate synthase [EC:4.3.3.7]	172		
scis1_493			1		
scis1_494	K03320	amt, AMT, MEP; ammonium transporter, Amt family	268		
scis1_495	K04752	glnK; nitrogen regulatory protein P-II 2	68		
scis1_496	K03980	murJ, mviN; putative peptidoglycan lipid II flippase	194		
scis1_497	K06168	miaB; tRNA-2-methylthio-N6-dimethylallyladenosine synthase [EC:2.8.4.3]	276		
scis1_498			120		
scis1_499	K03517	nadA; quinolinate synthase [EC:2.5.1.72]	173		
scis1_500			173		
scis1_501			7	K12340	3
scis1_502			42		
scis1_503			51		
scis1_504	K01669	phrB; deoxyribodipyrimidine photo-lyase [EC:4.1.99.3]	244		
scis1_505			65		
scis1_506			87		
scis1_507			80		
scis1_508	K03292	TC.GPH; glycoside/pentoside/hexuronide:cation symporter, GPH family	101		
scis1_509			55		
scis1_510	K00574	cfa; cyclopropane-fatty-acyl-phospholipid synthase [EC:2.1.1.79]	175		
scis1_511	K09701	K09701; uncharacterized protein	81		
scis1_512	K06954	K06954; uncharacterized protein	193		
scis1_513	K05837	rodA, mrdB; rod shape determining protein RodA	207		
scis1_514			1	K01992	1
scis1_515			3	K08970	1
scis1_516	K03703	uvrC; excinuclease ABC subunit C	234		
scis1_517	K07323	mlaC; phospholipid transport system substrate-binding protein	28		
scis1_518	K00790	murA; UDP-N-acetylglucosamine 1-carboxyvinyltransferase [EC:2.5.1.7]	298		
scis1_519	K00765	hisG; ATP phosphoribosyltransferase [EC:2.4.2.17]	110		
scis1_520	K00013	hisD; histidinol dehydrogenase [EC:1.1.1.23]	367		
scis1_521			56		
scis1_522			5	K01673	1
scis1_523	K05835	rhtC; threonine efflux protein	26		
scis1_524	K01868	TARS, thrS; threonyl-tRNA synthetase [EC:6.1.1.3]	448		
scis1_525	K08305	mltB; membrane-bound lytic murein transglycosylase B [EC:4.2.2.-]	90		
scis1_526	K07258	dacC, dacA, dacD; serine-type D-Ala-D-Ala carboxypeptidase (penicillin-binding protein 5/6) [EC:3.4.16.4]	181		
scis1_527	K00824	dat; D-alanine transaminase [EC:2.6.1.21]	141		
scis1_528	K07102	amgK; N-acetylmuramate 1-kinase [EC:2.7.1.221]	86		
scis1_529	K00992	murU; N-acetyl-alpha-D-muramate 1-phosphate uridylyltransferase [EC:2.7.7.99]	47		
scis1_530	K09915	K09915; uncharacterized protein	60		
scis1_531	K01627	kdsA; 2-dehydro-3-deoxyphosphooctonate aldolase (KDO 8-P synthase) [EC:2.5.1.55]	203		
scis1_532	K01609	trpC; indole-3-glycerol phosphate synthase [EC:4.1.1.48]	130		
scis1_533	K07397	yhfA; putative redox protein	76		
scis1_534			14	K03811	1
scis1_535	K01770	ispF; 2-C-methyl-D-erythritol 2,4-cyclodiphosphate synthase [EC:4.6.1.12]	87		
scis1_536			11		
scis1_537	K03566	gcvA; LysR family transcriptional regulator, glycine cleavage system transcriptional activator	87		
scis1_538	K03168	topA; DNA topoisomerase I [EC:5.6.2.1]	375		
scis1_539	K03747	smg; Smg protein	22		
scis1_540	K04096	smf; DNA processing protein	141		
scis1_541	K02914	RP-L34, MRPL34, rpmH; large subunit ribosomal protein L34	45		
scis1_542	K03536	rnpA; ribonuclease P protein component [EC:3.1.26.5]	22		
scis1_543	K08998	K08998; uncharacterized protein	58		
scis1_544	K03217	yidC, spoIIIJ, OXA1, ccfA; YidC/Oxa1 family membrane protein insertase	230		
scis1_545	K06041	kdsD, kpsF; arabinose-5-phosphate isomerase [EC:5.3.1.13]	161		
scis1_546			9	K06287	1
scis1_547	K07301	yrbG; cation:H+ antiporter	132		
scis1_548	K06925	tsaE; tRNA threonylcarbamoyladenosine biosynthesis protein TsaE	55		
scis1_549	K01448	amiABC; N-acetylmuramoyl-L-alanine amidase [EC:3.5.1.28]	86		
scis1_550	K06179	rluC; 23S rRNA pseudouridine955/2504/2580 synthase [EC:5.4.99.24]	118		
scis1_551	K03179	ubiA; 4-hydroxybenzoate polyprenyltransferase [EC:2.5.1.39]	114		
scis1_552	K03551	ruvB; holliday junction DNA helicase RuvB [EC:3.6.4.12]	197		
scis1_553			160		
scis1_554	K02428	rdgB; XTP/dITP diphosphohydrolase [EC:3.6.1.66]	116		
scis1_555	K01807	rpiA; ribose 5-phosphate isomerase A [EC:5.3.1.6]	130		
scis1_556	K00567	ogt, MGMT; methylated-DNA-[protein]-cysteine S-methyltransferase [EC:2.1.1.63]	32	K10778	5
scis1_557	K04078	groES, HSPE1; chaperonin GroES	48		
scis1_558	K04077	groEL, HSPD1; chaperonin GroEL	401		
scis1_559	K02518	infA; translation initiation factor IF-1	59		
scis1_560	K01573	oadG; oxaloacetate decarboxylase (Na+ extruding) subunit gamma	20		
scis1_561	K01571	oadA; oxaloacetate decarboxylase (Na+ extruding) subunit alpha [EC:7.2.4.2]	391		
scis1_562	K20509	madB, oadB, gcdB, mmdB; carboxybiotin decarboxylase [EC:7.2.4.1]	255		
scis1_563	K01579	panD; aspartate 1-decarboxylase [EC:4.1.1.11]	73		
scis1_564	K17247	msrQ; methionine sulfoxide reductase heme-binding subunit	71		
scis1_565	K07147	msrP; methionine sulfoxide reductase catalytic subunit [EC:1.8.-.-]	212		
scis1_566			65		
scis1_567	K03147	thiC; phosphomethylpyrimidine synthase [EC:4.1.99.17]	231		
scis1_568	K03147	thiC; phosphomethylpyrimidine synthase [EC:4.1.99.17]	55		
scis1_569			31	K01174	8
scis1_570	K01496	hisI; phosphoribosyl-AMP cyclohydrolase [EC:3.5.4.19]	68	K11755	6
scis1_571	K01523	hisE; phosphoribosyl-ATP pyrophosphohydrolase [EC:3.6.1.31]	51		
scis1_572	K03116	tatA; sec-independent protein translocase protein TatA	26		
scis1_573	K03117	tatB; sec-independent protein translocase protein TatB	21		
scis1_574	K03118	tatC; sec-independent protein translocase protein TatC	121		
scis1_575					
scis1_576	K03574	mutT, NUDT15, MTH2; 8-oxo-dGTP diphosphatase [EC:3.6.1.55]	80		
scis1_577	K01919	gshA; glutamate--cysteine ligase [EC:6.3.2.2]	195		
scis1_578	K03650	mnmE, trmE, MSS1; tRNA modification GTPase [EC:3.6.-.-]	180		
scis1_579	K07795	tctC; putative tricarboxylic transport membrane protein	150		
scis1_580	K07794	tctB; putative tricarboxylic transport membrane protein	19		
scis1_581	K07793	tctA; putative tricarboxylic transport membrane protein	313		
scis1_582	K14261	alaC; alanine-synthesizing transaminase [EC:2.6.1.-]	303		
scis1_583	K03723	mfd; transcription-repair coupling factor (superfamily II helicase) [EC:3.6.4.-]	435		
scis1_584			83	K06287	4
scis1_585	K00287	DHFR, folA; dihydrofolate reductase [EC:1.5.1.3]	82		
scis1_586	K01879	glyS; glycyl-tRNA synthetase beta chain [EC:6.1.1.14]	249		
scis1_587	K07560	dtd, DTD; D-aminoacyl-tRNA deacylase [EC:3.1.1.96]	101		
scis1_588			30		
scis1_589			1	K01971	1
scis1_590			1		
scis1_591			1	K14665	1
scis1_592			63		
scis1_593	K00564	rsmC; 16S rRNA (guanine1207-N2)-methyltransferase [EC:2.1.1.172]	86		
scis1_594	K01915	glnA, GLUL; glutamine synthetase [EC:6.3.1.2]	476	K20712	49
scis1_595	K06153	bacA; undecaprenyl-diphosphatase [EC:3.6.1.27]	119		
scis1_596			77		
scis1_597			141		
scis1_598	K14058	ttcA; tRNA 2-thiocytidine biosynthesis protein TtcA	145		
scis1_599	K07504	K07504; predicted type IV restriction endonuclease	170		
scis1_600			128		
scis1_601			57		
scis1_602	K06080	rcsF; RcsF protein	13		
scis1_603			11	K01887	1
scis1_604	K01491	folD; methylenetetrahydrofolate dehydrogenase (NADP+) / methenyltetrahydrofolate cyclohydrolase [EC:1.5.1.5 3.5.4.9]	154		
scis1_605	K00979	kdsB; 3-deoxy-manno-octulosonate cytidylyltransferase (CMP-KDO synthetase) [EC:2.7.7.38]	95		
scis1_606	K09791	K09791; uncharacterized protein	22		
scis1_607	K00912	lpxK; tetraacyldisaccharide 4'-kinase [EC:2.7.1.130]	112		
scis1_608	K09808	lolC_E; lipoprotein-releasing system permease protein	149		
scis1_609	K09810	lolD; lipoprotein-releasing system ATP-binding protein [EC:7.6.2.-]	88		
scis1_610	K03793	PTR1; pteridine reductase [EC:1.5.1.33]	119		
scis1_611			6	K12132	1
scis1_612			14	K12132	1
scis1_613	K22132	tcdA; tRNA threonylcarbamoyladenosine dehydratase	109		
scis1_614	K04042	glmU; bifunctional UDP-N-acetylglucosamine pyrophosphorylase / glucosamine-1-phosphate N-acetyltransferase [EC:2.7.7.23 2.3.1.157]	220		
scis1_615	K02844	waaG, rfaG; UDP-glucose:(heptosyl)LPS alpha-1,3-glucosyltransferase [EC:2.4.1.-]	142		
scis1_616			13	K02843	6
scis1_617			5	K02843	2
scis1_618			15		
scis1_619			19	K15521	1
scis1_620			12	K22721	1
scis1_621	K00568	ubiG; 2-polyprenyl-6-hydroxyphenyl methylase / 3-demethylubiquinone-9 3-methyltransferase [EC:2.1.1.222 2.1.1.64]	11		
scis1_622			23	K00754	16
scis1_623			92		
scis1_624			105		
scis1_625	K02849	waaQ, rfaQ; heptosyltransferase III [EC:2.4.-.-]	143		
scis1_626			104		
scis1_627	K02841	waaC, rfaC; heptosyltransferase I [EC:2.4.-.-]	142		
scis1_628	K03271	gmhA, lpcA; D-sedoheptulose 7-phosphate isomerase [EC:5.3.1.28]	92		
scis1_629	K03272	gmhC, hldE, waaE, rfaE; D-beta-D-heptose 7-phosphate kinase / D-beta-D-heptose 1-phosphate adenosyltransferase [EC:2.7.1.167 2.7.7.70]	232		
scis1_630	K03274	gmhD, rfaD; ADP-L-glycero-D-manno-heptose 6-epimerase [EC:5.1.3.20]	186		
scis1_631	K03550	ruvA; holliday junction DNA helicase RuvA [EC:3.6.4.12]	69		
scis1_632			60		
scis1_633	K05540	dusB; tRNA-dihydrouridine synthase B [EC:1.-.-.-]	135		
scis1_634	K04485	radA, sms; DNA repair protein RadA/Sms	234		
scis1_635			5	K01939	1
scis1_636			40		
scis1_637					
scis1_638	K01881	PARS, proS; prolyl-tRNA synthetase [EC:6.1.1.15]	339		
scis1_639			89		
scis1_640	K01925	murD; UDP-N-acetylmuramoylalanine--D-glutamate ligase [EC:6.3.2.9]	112		
scis1_641			129		
scis1_642			5	K00059	1
scis1_643	K10947	padR; PadR family transcriptional regulator, regulatory protein PadR	27		
scis1_644	K00133	asd; aspartate-semialdehyde dehydrogenase [EC:1.2.1.11]	246		
scis1_645	K01693	hisB; imidazoleglycerol-phosphate dehydratase [EC:4.2.1.19]	174		
scis1_646	K02501	hisH; imidazole glycerol-phosphate synthase subunit HisH [EC:4.3.2.10]	111		
scis1_647					
scis1_648	K03310	TC.AGCS; alanine or glycine:cation symporter, AGCS family	302		
scis1_649	K03592	pmbA; PmbA protein	161		
scis1_650	K06189	corC; magnesium and cobalt transporter	110		
scis1_651	K09801	K09801; uncharacterized protein	47		
scis1_652	K01814	hisA; phosphoribosylformimino-5-aminoimidazole carboxamide ribotide isomerase [EC:5.3.1.16]	144		
scis1_653	K01990	ABC-2.A; ABC-2 type transport system ATP-binding protein	158		
scis1_654	K00970	pcnB; poly(A) polymerase [EC:2.7.7.19]	119		
scis1_655	K09457	queF; 7-cyano-7-deazaguanine reductase [EC:1.7.1.13]	80		
scis1_656	K00954	E2.7.7.3A, coaD, kdtB; pantetheine-phosphate adenylyltransferase [EC:2.7.7.3]	111		
scis1_657	K09780	K09780; uncharacterized protein	55		
scis1_658	K03711	fur, zur, furB; Fur family transcriptional regulator, ferric uptake regulator	80		
scis1_659	K06186	bamE, smpA; outer membrane protein assembly factor BamE	16		
scis1_660	K01652	E2.2.1.6L, ilvB, ilvG, ilvI; acetolactate synthase I/II/III large subunit [EC:2.2.1.6]	285		
scis1_661	K00101	lldD; L-lactate dehydrogenase (cytochrome) [EC:1.1.2.3]	223		
scis1_662	K02342	dnaQ; DNA polymerase III subunit epsilon [EC:2.7.7.7]	56		
scis1_663	K07182	K07182; CBS domain-containing protein	214		
scis1_664	K09760	rmuC; DNA recombination protein RmuC	103		
scis1_665	K22292	mupP; N-acetyl-D-muramate 6-phosphate phosphatase [EC:3.1.3.105]	64		
scis1_666	K00655	plsC; 1-acyl-sn-glycerol-3-phosphate acyltransferase [EC:2.3.1.51]	148		
scis1_667			32	K07145	3
scis1_668	K06195	apaG; ApaG protein	57		
scis1_669	K00208	fabI; enoyl-[acyl-carrier protein] reductase I [EC:1.3.1.9 1.3.1.10]	170		
scis1_670	K00795	ispA; farnesyl diphosphate synthase [EC:2.5.1.1 2.5.1.10]	97	K13789	25
scis1_671	K03602	xseB; exodeoxyribonuclease VII small subunit [EC:3.1.11.6]	24		
scis1_672	K02902	RP-L28, MRPL28, rpmB; large subunit ribosomal protein L28	90		
scis1_673	K02913	RP-L33, MRPL33, rpmG; large subunit ribosomal protein L33	53		
scis1_674			21		
scis1_675			14	K03503	2
scis1_676	K05834	rhtB; homoserine/homoserine lactone efflux protein	62		
scis1_677	K02194	ccmB; heme exporter protein B	81		
scis1_678	K02193	ccmA; heme exporter protein A [EC:7.6.2.5]	73		
scis1_679	K04773	sppA; protease IV [EC:3.4.21.-]	92		
scis1_680	K01082	cysQ, MET22, BPNT1; 3'(2'), 5'-bisphosphate nucleotidase [EC:3.1.3.7]	86		
scis1_681			2	K05837	1
scis1_682			1	K03787	1
scis1_683	K16652	dprE2; decaprenylphospho-beta-D-erythro-pentofuranosid-2-ulose 2-reductase [EC:1.1.1.333]	56		
scis1_684	K16653	dprE1; decaprenylphospho-beta-D-ribofuranose 2-oxidase [EC:1.1.98.3]	340		
scis1_685			59		
scis1_686			40	K14136	29
scis1_687					
scis1_688	K11529	gck, gckA, GLYCTK; glycerate 2-kinase [EC:2.7.1.165]	165		
scis1_689	K09988	lyxA; D-lyxose ketol-isomerase [EC:5.3.1.15]	160		
scis1_690			237		
scis1_691	K10112	msmX, msmK, malK, sugC, ggtA, msiK; multiple sugar transport system ATP-binding protein	204		
scis1_692	K02026	ABC.MS.P1; multiple sugar transport system permease protein	227		
scis1_693	K02025	ABC.MS.P; multiple sugar transport system permease protein	222		
scis1_694	K02027	ABC.MS.S; multiple sugar transport system substrate-binding protein	253		
scis1_695			2	K18912	2
scis1_696			2	K01823	1
scis1_697			3	K01915	1
scis1_698			5	K11960	1
scis1_699	K01724	PCBD, phhB; 4a-hydroxytetrahydrobiopterin dehydratase [EC:4.2.1.96]	43		
scis1_700	K01872	AARS, alaS; alanyl-tRNA synthetase [EC:6.1.1.7]	492		
scis1_701			10	K03286	1
scis1_702			345		
scis1_703	K00374	narI, narV; nitrate reductase gamma subunit [EC:1.7.5.1 1.7.99.-]	155		
scis1_704	K23077	dsrC; dissimilatory sulfite reductase related protein	95	K11179	6
scis1_705	K07237	tusB, dsrH; tRNA 2-thiouridine synthesizing protein B	39		
scis1_706	K07236	tusC, dsrF; tRNA 2-thiouridine synthesizing protein C	88		
scis1_707	K07235	tusD, dsrE; tRNA 2-thiouridine synthesizing protein D [EC:2.8.1.-]	118		
scis1_708					
scis1_709			1	K07533	1
scis1_710	K00266	gltD; glutamate synthase (NADPH) small chain [EC:1.4.1.13]	69		
scis1_711	K00266	gltD; glutamate synthase (NADPH) small chain [EC:1.4.1.13]	85		
scis1_712	K02884	RP-L19, MRPL19, rplS; large subunit ribosomal protein L19	108		
scis1_713	K01740	metY; O-acetylhomoserine (thiol)-lyase [EC:2.5.1.49]	336		
scis1_714	K04763	xerD; integrase/recombinase XerD	133		
scis1_715			8	K07064	2
scis1_716			3	K02005	1
scis1_717	K00286	proC; pyrroline-5-carboxylate reductase [EC:1.5.1.2]	87		
scis1_718	K04075	tilS, mesJ; tRNA(Ile)-lysidine synthase [EC:6.3.4.19]	107		
scis1_719	K01962	accA; acetyl-CoA carboxylase carboxyl transferase subunit alpha [EC:6.4.1.2 2.1.3.15]	195		
scis1_720	K03439	trmB, METTL1, TRM8; tRNA (guanine-N7-)-methyltransferase [EC:2.1.1.33]	95		
scis1_721	K01142	E3.1.11.2, xthA; exodeoxyribonuclease III [EC:3.1.11.2]	195		
scis1_722					
scis1_723	K09895	K09895; uncharacterized protein	29		
scis1_724	K02469	gyrA; DNA gyrase subunit A [EC:5.6.2.2]	530		
scis1_725			13	K09167	2
scis1_726			12	K17467	1
scis1_727	K00946	thiL; thiamine-monophosphate kinase [EC:2.7.4.16]	108		
scis1_728	K01775	alr; alanine racemase [EC:5.1.1.1]	91		
scis1_729	K09765	queH; epoxyqueuosine reductase [EC:1.17.99.6]	140		
scis1_730			1	K06959	1
scis1_731	K01649	leuA, IMS; 2-isopropylmalate synthase [EC:2.3.3.13]	365		
scis1_732	K03687	GRPE; molecular chaperone GrpE	63		
scis1_733	K00858	ppnK, NADK; NAD+ kinase [EC:2.7.1.23]	103		
scis1_734	K03631	recN; DNA repair protein RecN (Recombination protein N)	153		
scis1_735	K02619	pabC; 4-amino-4-deoxychorismate lyase [EC:4.1.3.38]	80	K07082	2
scis1_736	K07082	K07082; UPF0755 protein	82		
scis1_737			185		
scis1_738			60	K11689	4
scis1_739			375		
scis1_740			1	K06949	1
scis1_741			8	K06178	1
scis1_742			2	K14058	1
scis1_743	K02996	RP-S9, MRPS9, rpsI; small subunit ribosomal protein S9	127		
scis1_744	K02871	RP-L13, MRPL13, rplM; large subunit ribosomal protein L13	94		
scis1_745	K11753	ribF; riboflavin kinase / FMN adenylyltransferase [EC:2.7.1.26 2.7.7.2]	108		
scis1_746	K00648	fabH; 3-oxoacyl-[acyl-carrier-protein] synthase III [EC:2.3.1.180]	190		
scis1_747	K03621	plsX; phosphate acyltransferase [EC:2.3.1.274]	171		
scis1_748	K02911	RP-L32, MRPL32, rpmF; large subunit ribosomal protein L32	57		
scis1_749	K07040	K07040; uncharacterized protein	26		
scis1_750			54	K00990	1
scis1_751			3	K02477	1
scis1_752					
scis1_753	K03498	trkH, trkG, ktrB, ktrD; trk/ktr system potassium uptake protein	369		
scis1_754	K03499	trkA, ktrA, ktrC; trk/ktr system potassium uptake protein	220		
scis1_755			54		
scis1_756	K10563	mutM, fpg; formamidopyrimidine-DNA glycosylase [EC:3.2.2.23 4.2.99.18]	133		
scis1_757			126		
scis1_758	K24821	atm1, pexA; ATP-binding cassette, subfamily B, heavy metal transporter	313		
scis1_759					
scis1_760			11	K15923	1
scis1_761	K03086	rpoD; RNA polymerase primary sigma factor	308		
scis1_762	K00948	PRPS, prsA; ribose-phosphate pyrophosphokinase [EC:2.7.6.1]	215		
scis1_763	K00919	ispE; 4-diphosphocytidyl-2-C-methyl-D-erythritol kinase [EC:2.7.1.148]	92		
scis1_764	K16899	addB; ATP-dependent helicase/nuclease subunit B [EC:3.1.-.- 3.6.4.12]	27		
scis1_765	K00052	leuB, IMDH; 3-isopropylmalate dehydrogenase [EC:1.1.1.85]	271		
scis1_766			29	K05297	1
scis1_767					
scis1_768	K03470	rnhB; ribonuclease HII [EC:3.1.26.4]	32		
scis1_769			34		
scis1_770	K07460	yraN; putative endonuclease	41		
scis1_771	K07056	rsmI; 16S rRNA (cytidine1402-2'-O)-methyltransferase [EC:2.1.1.198]	152		
scis1_772	K01883	CARS, cysS; cysteinyl-tRNA synthetase [EC:6.1.1.16]	260		
scis1_773	K00995	pgsA, PGS1; CDP-diacylglycerol---glycerol-3-phosphate 3-phosphatidyltransferase [EC:2.7.8.5]	76	K08744	13
scis1_774	K00762	pyrE; orotate phosphoribosyltransferase [EC:2.4.2.10]	127		
scis1_775			3	K07017	1
scis1_776	K00554	trmD; tRNA (guanine37-N1)-methyltransferase [EC:2.1.1.228]	138		
scis1_777					
scis1_778			3	K02791	1
scis1_779			67		
scis1_780			2	K12342	1
scis1_781			14	K20276	1
scis1_782			5	K02000	1
scis1_783			1	K03772	1
scis1_784	K00383	GSR, gor; glutathione reductase (NADPH) [EC:1.8.1.7]	221	K23076	22
scis1_785	K01756	purB, ADSL; adenylosuccinate lyase [EC:4.3.2.2]	300		
scis1_786			121		
scis1_787			16	K05835	10
scis1_788					
scis1_789	K13581	ccrM; modification methylase [EC:2.1.1.72]	150	K00571	41
scis1_790	K14998	SURF1, SHY1; surfeit locus 1 family protein	44		
scis1_791			15	K02033	1
scis1_792	K02276	coxC, ctaE; cytochrome c oxidase subunit III [EC:7.1.1.9]	205		
scis1_793	K02258	COX11, ctaG; cytochrome c oxidase assembly protein subunit 11	80		
scis1_794					
scis1_795	K02274	coxA, ctaD; cytochrome c oxidase subunit I [EC:7.1.1.9]	528		
scis1_796	K02275	coxB, ctaC; cytochrome c oxidase subunit II [EC:7.1.1.9]	207		
scis1_797	K02259	COX15, ctaA; heme a synthase [EC:1.17.99.9]	105		
scis1_798	K07152	SCO1; protein SCO1	33		
scis1_799			11	K03292	1
scis1_800	K02257	COX10, ctaB, cyoE; heme o synthase [EC:2.5.1.141]	157		
scis1_801			21		
scis1_802	K04761	oxyR; LysR family transcriptional regulator, hydrogen peroxide-inducible genes activator	67		
scis1_803	K07568	queA; S-adenosylmethionine:tRNA ribosyltransferase-isomerase [EC:2.4.99.17]	163		
scis1_804	K03612	rnfG; Na+-translocating ferredoxin:NAD+ oxidoreductase subunit G	81		
scis1_805					
scis1_806	K02535	lpxC; UDP-3-O-[3-hydroxymyristoyl] N-acetylglucosamine deacetylase [EC:3.5.1.108]	114		
scis1_807			5	K21919	1
scis1_808					
scis1_809	K03590	ftsA; cell division protein FtsA	33		
scis1_810	K05539	dusA; tRNA-dihydrouridine synthase A [EC:1.-.-.-]	176		
scis1_811	K06949	rsgA, engC; ribosome biogenesis GTPase / thiamine phosphate phosphatase [EC:3.6.1.- 3.1.3.100]	79		
scis1_812			3	K02457	1
scis1_813	K02456	gspG; general secretion pathway protein G	31		
scis1_814			71		
scis1_815	K03704	cspA; cold shock protein	10		
scis1_816			52		
scis1_817	K03701	uvrA; excinuclease ABC subunit A	598		
scis1_818			34	K21147	1
scis1_819	K01658	trpG; anthranilate synthase component II [EC:4.1.3.27]	135		
scis1_820			43		
scis1_821	K03676	grxC, GLRX, GLRX2; glutaredoxin 3	28		
scis1_822	K00057	gpsA; glycerol-3-phosphate dehydrogenase (NAD(P)+) [EC:1.1.1.94]	122		
scis1_823	K03796	bax; Bax protein	77		
scis1_824			26	K15539	1
scis1_825	K01940	argG, ASS1; argininosuccinate synthase [EC:6.3.4.5]	350		
scis1_826	K02956	RP-S15, MRPS15, rpsO; small subunit ribosomal protein S15	54		
scis1_827	K02517	lpxL, htrB; Kdo2-lipid IVA lauroyltransferase/acyltransferase [EC:2.3.1.241 2.3.1.-]	156		
scis1_828	K02316	dnaG; DNA primase [EC:2.7.7.101]	157		
scis1_829			54		
scis1_830					
scis1_831			4	K03497	1
scis1_832			37		
scis1_833			3	K18325	1
scis1_834			5	K03497	2
scis1_835			2	K03634	2
scis1_836	K03466	ftsK, spoIIIE; DNA segregation ATPase FtsK/SpoIIIE, S-DNA-T family	286		
scis1_837	K00265	gltB; glutamate synthase (NADPH) large chain [EC:1.4.1.13]	859		
scis1_838	K03500	rsmB, sun; 16S rRNA (cytosine967-C5)-methyltransferase [EC:2.1.1.176]	124		
scis1_839	K03981	dsbC; thiol:disulfide interchange protein DsbC [EC:5.3.4.1]	74		
scis1_840	K01255	CARP, pepA; leucyl aminopeptidase [EC:3.4.11.1]	177		
scis1_841			14	K07451	1
scis1_842	K01698	hemB, ALAD; porphobilinogen synthase [EC:4.2.1.24]	279		
scis1_843	K00677	lpxA; UDP-N-acetylglucosamine acyltransferase [EC:2.3.1.129]	129		
scis1_844	K02372	fabZ; 3-hydroxyacyl-[acyl-carrier-protein] dehydratase [EC:4.2.1.59]	81		
scis1_845	K02536	lpxD; UDP-3-O-[3-hydroxymyristoyl] glucosamine N-acyltransferase [EC:2.3.1.191]	113		
scis1_846	K06142	hlpA, ompH; outer membrane protein	22		
scis1_847	K07277	SAM50, TOB55, bamA; outer membrane protein insertion porin family	245		
scis1_848			61		
scis1_849	K02357	tsf, TSFM; elongation factor Ts	160		
scis1_850	K02967	RP-S2, MRPS2, rpsB; small subunit ribosomal protein S2	167		
scis1_851	K15257	cmoB; tRNA (mo5U34)-methyltransferase [EC:2.1.1.-]	102		
scis1_852	K02838	frr, MRRF, RRF; ribosome recycling factor	121		
scis1_853	K03610	minC; septum site-determining protein MinC	23		
scis1_854					
scis1_855	K03560	tolR; biopolymer transport protein TolR	59		
scis1_856	K03562	tolQ; biopolymer transport protein TolQ	90		
scis1_857			5	K18814	3
scis1_858	K02114	ATPF1E, atpC; F-type H+-transporting ATPase subunit epsilon	69		
scis1_859	K02112	ATPF1B, atpD; F-type H+/Na+-transporting ATPase subunit beta [EC:7.1.2.2 7.2.2.1]	383		
scis1_860	K02115	ATPF1G, atpG; F-type H+-transporting ATPase subunit gamma	187		
scis1_861	K02111	ATPF1A, atpA; F-type H+/Na+-transporting ATPase subunit alpha [EC:7.1.2.2 7.2.2.1]	405		
scis1_862	K02113	ATPF1D, atpH; F-type H+-transporting ATPase subunit delta	44		
scis1_863	K02109	ATPF0B, atpF; F-type H+-transporting ATPase subunit b	76		
scis1_864	K02110	ATPF0C, atpE; F-type H+-transporting ATPase subunit c	59		
scis1_865	K02108	ATPF0A, atpB; F-type H+-transporting ATPase subunit a	258		
scis1_866					
scis1_867	K01778	dapF; diaminopimelate epimerase [EC:5.1.1.7]	120		
scis1_868	K00812	aspB; aspartate aminotransferase [EC:2.6.1.1]	259		
scis1_869	K01689	ENO, eno; enolase [EC:4.2.1.11]	293		
scis1_870			161		
scis1_871			29		
scis1_872	K01945	purD; phosphoribosylamine---glycine ligase [EC:6.3.4.13]	263		
scis1_873	K01783	rpe, RPE; ribulose-phosphate 3-epimerase [EC:5.1.3.1]	163		
scis1_874	K01929	murF; UDP-N-acetylmuramoyl-tripeptide--D-alanyl-D-alanine ligase [EC:6.3.2.10]	127		
scis1_875	K01246	tag; DNA-3-methyladenine glycosylase I [EC:3.2.2.20]	127		
scis1_876	K13038	coaBC, dfp; phosphopantothenoylcysteine decarboxylase / phosphopantothenate---cysteine ligase [EC:4.1.1.36 6.3.2.5]	163		
scis1_877	K11752	ribD; diaminohydroxyphosphoribosylaminopyrimidine deaminase / 5-amino-6-(5-phosphoribosylamino)uracil reductase [EC:3.5.4.26 1.1.1.193]	132		
scis1_878	K03553	recA; recombination protein RecA	239		
scis1_879	K03565	recX; regulatory protein	41		
scis1_880	K03110	ftsY; fused signal recognition particle receptor	131		
scis1_881			579		
scis1_882			19	K21919	1
scis1_883			2	K23059	1
scis1_884	K02654	pilD, pppA; leader peptidase (prepilin peptidase) / N-methyltransferase [EC:3.4.23.43 2.1.1.-]	23	K02464	5
scis1_885			2	K07114	1
scis1_886	K08973	hemJ; protoporphyrinogen IX oxidase [EC:1.3.99.-]	79		
scis1_887	K07390	grxD, GLRX5; monothiol glutaredoxin	69		
scis1_888			24		
scis1_889	K03702	uvrB; excinuclease ABC subunit B	423		
scis1_890	K03596	lepA; GTP-binding protein LepA	447		
scis1_891			7	K08982	1
scis1_892			20		
scis1_893			3		
scis1_894					
scis1_895			8	K21498	1
scis1_896					
scis1_897	K19784	chrR, NQR; chromate reductase, NAD(P)H dehydrogenase (quinone)	85		
scis1_898			64		
scis1_899	K06221	dkgA; 2,5-diketo-D-gluconate reductase A [EC:1.1.1.346]	65		
scis1_900	K07451	mcrA; 5-methylcytosine-specific restriction enzyme A [EC:3.1.21.-]	132		
scis1_901			34		
scis1_902			122		
scis1_903					
scis1_904	K01591	pyrF; orotidine-5'-phosphate decarboxylase [EC:4.1.1.23]	129		
scis1_905	K03216	trmL, cspR; tRNA (cytidine/uridine-2'-O-)-methyltransferase [EC:2.1.1.207]	116		
scis1_906	K02196	ccmD; heme exporter protein D	10		
scis1_907	K02197	ccmE; cytochrome c-type biogenesis protein CcmE	85		
scis1_908	K02199	ccmG, dsbE; cytochrome c biogenesis protein CcmG, thiol:disulfide interchange protein DsbE	71		
scis1_909	K01887	RARS, argS; arginyl-tRNA synthetase [EC:6.1.1.19]	277		
scis1_910	K03770	ppiD; peptidyl-prolyl cis-trans isomerase D [EC:5.2.1.8]	116		
scis1_911			103		
scis1_912	K03655	recG; ATP-dependent DNA helicase RecG [EC:3.6.4.12]	267		
scis1_913	K08316	rsmD; 16S rRNA (guanine966-N2)-methyltransferase [EC:2.1.1.171]	57		
scis1_914	K01507	ppa; inorganic pyrophosphatase [EC:3.6.1.1]	110		
scis1_915	K03684	rnd; ribonuclease D [EC:3.1.13.5]	90		
scis1_916	K02356	efp; elongation factor P	133		
scis1_917	K06173	truA, PUS1; tRNA pseudouridine38-40 synthase [EC:5.4.99.12]	167		
scis1_918			21		
scis1_919	K03524	birA; BirA family transcriptional regulator, biotin operon repressor / biotin---[acetyl-CoA-carboxylase] ligase [EC:6.3.4.15]	36		
scis1_920	K06861	lptB; lipopolysaccharide export system ATP-binding protein [EC:7.5.2.5]	153		
scis1_921	K01409	KAE1, tsaD, QRI7; N6-L-threonylcarbamoyladenine synthase [EC:2.3.1.234]	162		
scis1_922	K07391	comM; magnesium chelatase family protein	233		
scis1_923	K09773	ppsR; [pyruvate, water dikinase]-phosphate phosphotransferase / [pyruvate, water dikinase] kinase [EC:2.7.4.28 2.7.11.33]	131		
scis1_924			135		
scis1_925			9	K07340	7
scis1_926			226		
scis1_927	K07793	tctA; putative tricarboxylic transport membrane protein	103		
scis1_928			22	K07488	2
scis1_929			3	K00344	1
scis1_930			3	K18009	1
scis1_931	K16514	galD; 4-oxalomesaconate tautomerase [EC:5.3.2.8]	80		
scis1_932	K13796	cobZ, tcuA; tricarballylate dehydrogenase	250		
scis1_933	K13795	citB, tcuB; citrate/tricarballylate utilization protein	129		
scis1_934	K07120	K07120; uncharacterized protein	67		
scis1_935			14	K01759	2
scis1_936			13		
scis1_937			55		
scis1_938	K17224	soxB; S-sulfosulfanyl-L-cysteine sulfohydrolase [EC:3.1.6.20]	425		
scis1_939	K01923	purC; phosphoribosylaminoimidazole-succinocarboxamide synthase [EC:6.3.2.6]	223		
scis1_940			54		
scis1_941	K00099	dxr; 1-deoxy-D-xylulose-5-phosphate reductoisomerase [EC:1.1.1.267]	192		
scis1_942	K00981	E2.7.7.41, CDS1, CDS2, cdsA; phosphatidate cytidylyltransferase [EC:2.7.7.41]	71		
scis1_943	K02470	gyrB; DNA gyrase subunit B [EC:5.6.2.2]	484		
scis1_944	K03629	recF; DNA replication and repair protein RecF	56		
scis1_945	K02338	dnaN; DNA polymerase III subunit beta [EC:2.7.7.7]	76		
scis1_946	K02313	dnaA; chromosomal replication initiator protein	168		
scis1_947	K00974	cca; tRNA nucleotidyltransferase (CCA-adding enzyme) [EC:2.7.7.72 3.1.3.- 3.1.4.-]	138		
scis1_948	K00029	E1.1.1.40, maeB; malate dehydrogenase (oxaloacetate-decarboxylating)(NADP+) [EC:1.1.1.40]	232		
scis1_949	K01737	queD, ptpS, PTS; 6-pyruvoyltetrahydropterin/6-carboxytetrahydropterin synthase [EC:4.2.3.12 4.1.2.50]	76		
scis1_950	K09007	folE2; GTP cyclohydrolase IB [EC:3.5.4.16]	146		
scis1_951	K01626	E2.5.1.54, aroF, aroG, aroH; 3-deoxy-7-phosphoheptulonate synthase [EC:2.5.1.54]	204		
scis1_952	K02195	ccmC; heme exporter protein C	197		
scis1_953	K14742	tsaB; tRNA threonylcarbamoyladenosine biosynthesis protein TsaB	85		
scis1_954	K02990	RP-S6, MRPS6, rpsF; small subunit ribosomal protein S6	75		
scis1_955	K02963	RP-S18, MRPS18, rpsR; small subunit ribosomal protein S18	68		
scis1_956	K02939	RP-L9, MRPL9, rplI; large subunit ribosomal protein L9	80		
scis1_957	K01703	leuC, IPMI-L; 3-isopropylmalate/(R)-2-methylmalate dehydratase large subunit [EC:4.2.1.33 4.2.1.35]	414		
scis1_958	K09861	K09861; uncharacterized protein	148		
scis1_959			45	K02242	1
scis1_960					
scis1_961			55	K07560	
scis1_962	K01866	YARS, tyrS; tyrosyl-tRNA synthetase [EC:6.1.1.1]	254		
scis1_963	K04084	dsbD, dipZ; thioredoxin:protein disulfide reductase [EC:1.8.4.16]	251		
scis1_964	K01885	EARS, gltX; glutamyl-tRNA synthetase [EC:6.1.1.17]	249		
scis1_965			18	K06006	1
scis1_966			2	K00034	1
scis1_967			107		
scis1_968			62		
scis1_969			387		
scis1_970	K02000	proV; glycine betaine/proline transport system ATP-binding protein [EC:7.6.2.9]	175		
scis1_971	K02001	proW; glycine betaine/proline transport system permease protein	221	K02001/K02002	8
scis1_972	K02002	proX; glycine betaine/proline transport system substrate-binding protein	209		
scis1_973	K00789	metK; S-adenosylmethionine synthetase [EC:2.5.1.6]	333		
scis1_974			64		
scis1_975	K01251	E3.3.1.1, ahcY; adenosylhomocysteinase [EC:3.3.1.1]	352		
scis1_976			2	K08322	1
scis1_977	K01716	fabA; 3-hydroxyacyl-[acyl-carrier protein] dehydratase / trans-2-decenoyl-[acyl-carrier protein] isomerase [EC:4.2.1.59 5.3.3.14]	183		
scis1_978	K00647	fabB; 3-oxoacyl-[acyl-carrier-protein] synthase I [EC:2.3.1.41]	272		
scis1_979	K09748	rimP; ribosome maturation factor RimP	77		
scis1_980	K02600	nusA; transcription termination/antitermination protein NusA	216		
scis1_981	K02519	infB, MTIF2; translation initiation factor IF-2	344		
scis1_982	K02834	rbfA; ribosome-binding factor A	32		
scis1_983	K00411	UQCRFS1, RIP1, petA; ubiquinol-cytochrome c reductase iron-sulfur subunit [EC:7.1.1.8]	142		
scis1_984	K00412	CYTB, petB; ubiquinol-cytochrome c reductase cytochrome b subunit	202		
scis1_985	K00413	CYC1, CYT1, petC; ubiquinol-cytochrome c reductase cytochrome c1 subunit	105		
scis1_986	K03599	sspA, mglA; stringent starvation protein A	91		
scis1_987	K21307	soeA; sulfite dehydrogenase (quinone) subunit SoeA [EC:1.8.5.6]	624		
scis1_988	K21308	soeB; sulfite dehydrogenase (quinone) subunit SoeB	160		
scis1_989	K21309	soeC; sulfite dehydrogenase (quinone) subunit SoeC	127		
scis1_990	K01265	map; methionyl aminopeptidase [EC:3.4.11.18]	205		
scis1_991			89		
scis1_992	K15778	pmm-pgm; phosphomannomutase / phosphoglucomutase [EC:5.4.2.8 5.4.2.2]	307		
scis1_993			20		
scis1_994			51	K00537	6
scis1_995					
scis1_996					
scis1_997	K06190	ispZ; intracellular septation protein	34		
scis1_998	K00605	gcvT, AMT; aminomethyltransferase [EC:2.1.2.10]	215		
scis1_999	K02437	gcvH, GCSH; glycine cleavage system H protein	69		
scis1_1000	K01147	rnb; exoribonuclease II [EC:3.1.13.1]	143		
scis1_1001	K01676	E4.2.1.2A, fumA, fumB; fumarate hydratase, class I [EC:4.2.1.2]	260		
scis1_1002	K03569	mreB; rod shape-determining protein MreB and related proteins	227		
scis1_1003	K03570	mreC; rod shape-determining protein MreC	40		
scis1_1004	K03571	mreD; rod shape-determining protein MreD	16		
scis1_1005	K05515	mrdA; penicillin-binding protein 2 [EC:3.4.16.4]	37		
scis1_1006	K05515	mrdA; penicillin-binding protein 2 [EC:3.4.16.4]	102		
scis1_1007	K01992	ABC-2.P; ABC-2 type transport system permease protein	183		
scis1_1008	K06980	ygfZ; tRNA-modifying protein YgfZ	17	K22073	1
scis1_1009					
scis1_1010	K03525	coaX; type III pantothenate kinase [EC:2.7.1.33]	13		
scis1_1011	K01867	WARS, trpS; tryptophanyl-tRNA synthetase [EC:6.1.1.2]	343		
scis1_1012	K01652	E2.2.1.6L, ilvB, ilvG, ilvI; acetolactate synthase I/II/III large subunit [EC:2.2.1.6]	397		
scis1_1013	K01653	E2.2.1.6S, ilvH, ilvN; acetolactate synthase I/III small subunit [EC:2.2.1.6]	98		
scis1_1014	K00053	ilvC; ketol-acid reductoisomerase [EC:1.1.1.86]	260		
scis1_1015			10	K21468	1
scis1_1016	K03564	BCP, PRXQ, DOT5; thioredoxin-dependent peroxiredoxin [EC:1.11.1.24]	77		
scis1_1017	K00568	ubiG; 2-polyprenyl-6-hydroxyphenyl methylase / 3-demethylubiquinone-9 3-methyltransferase [EC:2.1.1.222 2.1.1.64]	148		
scis1_1018			5	K14062	2
scis1_1019	K01104	E3.1.3.48; protein-tyrosine phosphatase [EC:3.1.3.48]	89		
scis1_1020	K03686	dnaJ; molecular chaperone DnaJ	203		
scis1_1021	K10026	queE; 7-carboxy-7-deazaguanine synthase [EC:4.3.99.3]	111		
scis1_1022	K03313	nhaA; Na+:H+ antiporter, NhaA family	218		
scis1_1023			14	K09667	1
scis1_1024	K01735	aroB; 3-dehydroquinate synthase [EC:4.2.3.4]	185		
scis1_1025	K02435	gatC, GATC; aspartyl-tRNA(Asn)/glutamyl-tRNA(Gln) amidotransferase subunit C [EC:6.3.5.6 6.3.5.7]	40		
scis1_1026	K02433	gatA, QRSL1; aspartyl-tRNA(Asn)/glutamyl-tRNA(Gln) amidotransferase subunit A [EC:6.3.5.6 6.3.5.7]	280		
scis1_1027	K02434	gatB, PET112; aspartyl-tRNA(Asn)/glutamyl-tRNA(Gln) amidotransferase subunit B [EC:6.3.5.6 6.3.5.7]	304		
scis1_1028	K00651	metA; homoserine O-succinyltransferase/O-acetyltransferase [EC:2.3.1.46 2.3.1.31]	202		
scis1_1029			124		
scis1_1030	K03831	mogA; molybdopterin adenylyltransferase [EC:2.7.7.75]	121		
scis1_1031	K03424	tatD; TatD DNase family protein [EC:3.1.21.-]	139		
scis1_1032			185		
scis1_1033			1	K07303	1
scis1_1034			2	K04020	1
scis1_1035	K00615	E2.2.1.1, tktA, tktB; transketolase [EC:2.2.1.1]	470		
scis1_1036	K00134	GAPDH, gapA; glyceraldehyde 3-phosphate dehydrogenase [EC:1.2.1.12]	265		
scis1_1037	K07090	K07090; uncharacterized protein	68		
scis1_1038	K00927	PGK, pgk; phosphoglycerate kinase [EC:2.7.2.3]	387		
scis1_1039	K00873	PK, pyk; pyruvate kinase [EC:2.7.1.40]	273		
scis1_1040	K01624	FBA, fbaA; fructose-bisphosphate aldolase, class II [EC:4.1.2.13]	292		
scis1_1041			108		
scis1_1042	K01779	racD; aspartate racemase [EC:5.1.1.13]	120		
scis1_1043	K21430	yliI; aldose sugar dehydrogenase [EC:1.1.5.-]	138		
scis1_1044	K03544	clpX, CLPX; ATP-dependent Clp protease ATP-binding subunit ClpX	238		
scis1_1045	K01358	clpP, CLPP; ATP-dependent Clp protease, protease subunit [EC:3.4.21.92]	205		
scis1_1046	K03545	tig; trigger factor	150		
scis1_1047	K01935	bioD; dethiobiotin synthetase [EC:6.3.3.3]	55		
scis1_1048	K05810	yfiH; polyphenol oxidase [EC:1.10.3.-]	106		
scis1_1049	K00075	murB; UDP-N-acetylmuramate dehydrogenase [EC:1.3.1.98]	89		
scis1_1050	K01924	murC; UDP-N-acetylmuramate--alanine ligase [EC:6.3.2.8]	205		
scis1_1051	K04744	lptD, imp, ostA; LPS-assembly protein	109		
scis1_1052	K03218	rlmB; 23S rRNA (guanosine2251-2'-O)-methyltransferase [EC:2.1.1.185]	87		
scis1_1053	K01921	ddl; D-alanine-D-alanine ligase [EC:6.3.2.4]	112		
scis1_1054	K01952	PFAS, purL; phosphoribosylformylglycinamidine synthase [EC:6.3.5.3]	608		
scis1_1055	K04567	KARS, lysS; lysyl-tRNA synthetase, class II [EC:6.1.1.6]	211		
scis1_1056	K04567	KARS, lysS; lysyl-tRNA synthetase, class II [EC:6.1.1.6]	29		
scis1_1057	K06180	rluD; 23S rRNA pseudouridine1911/1915/1917 synthase [EC:5.4.99.23]	152		
scis1_1058	K03589	ftsQ; cell division protein FtsQ	15	K04566	1
scis1_1059					
scis1_1060			32		
scis1_1061			11		
scis1_1062	K07107	ybgC; acyl-CoA thioester hydrolase [EC:3.1.2.-]	46		
scis1_1063	K00773	tgt; queuine tRNA-ribosyltransferase [EC:2.4.2.29]	319		
scis1_1064	K01817	trpF; phosphoribosylanthranilate isomerase [EC:5.3.1.24]	87		
scis1_1065	K07316	mod; adenine-specific DNA-methyltransferase [EC:2.1.1.72]	70		
scis1_1066	K01156	res; type III restriction enzyme [EC:3.1.21.5]	126		
scis1_1067	K02836	prfB; peptide chain release factor 2	230		
scis1_1068			83		
scis1_1069			22	K08738	2
scis1_1070	K03978	engB; GTP-binding protein	103		
scis1_1071	K09458	fabF, OXSM, CEM1; 3-oxoacyl-[acyl-carrier-protein] synthase II [EC:2.3.1.179]	286		
scis1_1072	K02078	acpP; acyl carrier protein	49		
scis1_1073	K06920	queC; 7-cyano-7-deazaguanine synthase [EC:6.3.4.20]	132		
scis1_1074	K02622	parE; topoisomerase IV subunit B [EC:5.6.2.2]	407		
scis1_1075	K03074	secF; preprotein translocase subunit SecF	180		
scis1_1076	K03072	secD; preprotein translocase subunit SecD	282		
scis1_1077	K03210	yajC; preprotein translocase subunit YajC	41		
scis1_1078	K01875	SARS, serS; seryl-tRNA synthetase [EC:6.1.1.11]	267		
scis1_1079	K04568	epmA, poxA; elongation factor P--(R)-beta-lysine ligase [EC:6.3.1.-]	88		
scis1_1080	K00962	pnp, PNPT1; polyribonucleotide nucleotidyltransferase [EC:2.7.7.8]	450		
scis1_1081	K02523	ispB; octaprenyl-diphosphate synthase [EC:2.5.1.90]	157		
scis1_1082	K03722	dinG; ATP-dependent DNA helicase DinG [EC:3.6.4.12]	215		
scis1_1083	K00788	thiE; thiamine-phosphate pyrophosphorylase [EC:2.5.1.3]	63		
scis1_1084					
scis1_1085	K09774	lptA; lipopolysaccharide export system protein LptA	16		
scis1_1086	K01696	trpB; tryptophan synthase beta chain [EC:4.2.1.20]	381		
scis1_1087			35	K16868	1
scis1_1088	K02342	dnaQ; DNA polymerase III subunit epsilon [EC:2.7.7.7]	95		
scis1_1089	K03060	rpoZ; DNA-directed RNA polymerase subunit omega [EC:2.7.7.6]	33		
scis1_1090			53		
scis1_1091	K14393	actP; cation/acetate symporter	388		
scis1_1092			17	K06916	1
scis1_1093	K01895	ACSS1_2, acs; acetyl-CoA synthetase [EC:6.2.1.1]	425		
scis1_1094			259		
scis1_1095	K00571	E2.1.1.72; site-specific DNA-methyltransferase (adenine-specific) [EC:2.1.1.72]	16	K07319	12
scis1_1096			8	K03090	1
scis1_1097			152		
scis1_1098	K01876	DARS2, aspS; aspartyl-tRNA synthetase [EC:6.1.1.12]	387		
scis1_1099	K00278	nadB; L-aspartate oxidase [EC:1.4.3.16]	270		
scis1_1100	K01462	PDF, def; peptide deformylase [EC:3.5.1.88]	108		
scis1_1101	K12267	msrAB; peptide methionine sulfoxide reductase msrA/msrB [EC:1.8.4.11 1.8.4.12]	118		
scis1_1102					
scis1_1103	K03177	truB, PUS4, TRUB1; tRNA pseudouridine55 synthase [EC:5.4.99.25]	87		
scis1_1104			26	K03308	1
scis1_1105	K03806	ampD; N-acetyl-anhydromuramoyl-L-alanine amidase [EC:3.5.1.28]	79		
scis1_1106	K03270	kdsC; 3-deoxy-D-manno-octulosonate 8-phosphate phosphatase (KDO 8-P phosphatase) [EC:3.1.3.45]	78		
scis1_1107	K13288	orn, REX2, REXO2; oligoribonuclease [EC:3.1.-.-]	105		
scis1_1108	K07091	lptF; lipopolysaccharide export system permease protein	51		
scis1_1109			2	K14201	1
scis1_1110	K03628	rho; transcription termination factor Rho	315		
scis1_1111	K03671	trxA; thioredoxin 1	71		
scis1_1112	K03704	cspA; cold shock protein	34		
scis1_1113	K00014	aroE; shikimate dehydrogenase [EC:1.1.1.25]	102		
scis1_1114	K08300	rne; ribonuclease E [EC:3.1.26.12]	187		
scis1_1115	K02198	ccmF; cytochrome c-type biogenesis protein CcmF	376		
scis1_1116	K02200	ccmH; cytochrome c-type biogenesis protein CcmH	36		
scis1_1117	K01439	dapE; succinyl-diaminopimelate desuccinylase [EC:3.5.1.18]	211		
scis1_1118	K01687	ilvD; dihydroxy-acid dehydratase [EC:4.2.1.9]	590		
scis1_1119			42	K13598	22
scis1_1120	K01878	glyQ; glycyl-tRNA synthetase alpha chain [EC:6.1.1.14]	246		
scis1_1121	K00215	dapB; 4-hydroxy-tetrahydrodipicolinate reductase [EC:1.17.1.8]	135		
scis1_1122	K07657	phoB; two-component system, OmpR family, phosphate regulon response regulator PhoB	74	K02483	4
scis1_1123	K07636	phoR; two-component system, OmpR family, phosphate regulon sensor histidine kinase PhoR [EC:2.7.13.3]	83		
scis1_1124	K17223	soxX; L-cysteine S-thiosulfotransferase [EC:2.8.5.2]	54		
scis1_1125	K17226	soxY; sulfur-oxidizing protein SoxY	57		
scis1_1126	K17227	soxZ; sulfur-oxidizing protein SoxZ	54		
scis1_1127	K17222	soxA; L-cysteine S-thiosulfotransferase [EC:2.8.5.2]	93		
scis1_1128			3	K00705	1
scis1_1129	K00620	argJ; glutamate N-acetyltransferase / amino-acid N-acetyltransferase [EC:2.3.1.35 2.3.1.1]	181		
scis1_1130	K00783	rlmH; 23S rRNA (pseudouridine1915-N3)-methyltransferase [EC:2.1.1.177]	49		
scis1_1131	K09710	ybeB; ribosome-associated protein	34		
scis1_1132	K00969	nadD; nicotinate-nucleotide adenylyltransferase [EC:2.7.7.18]	56		
scis1_1133	K01069	gloB, gloC, HAGH; hydroxyacylglutathione hydrolase [EC:3.1.2.6]	22		
scis1_1134	K02959	RP-S16, MRPS16, rpsP; small subunit ribosomal protein S16	12		
scis1_1135	K02860	rimM; 16S rRNA processing protein RimM	62		
scis1_1136	K03841	FBP, fbp; fructose-1,6-bisphosphatase I [EC:3.1.3.11]	211		
scis1_1137					
scis1_1138	K06996	K06996; uncharacterized protein	20		
scis1_1139	K00939	adk, AK; adenylate kinase [EC:2.7.4.3]	131		
scis1_1140			2	K09969	1
scis1_1141			40	K20755	5
scis1_1142	K01262	pepP; Xaa-Pro aminopeptidase [EC:3.4.11.9]	145		
scis1_1143	K00766	trpD; anthranilate phosphoribosyltransferase [EC:2.4.2.18]	179		
scis1_1144	K00145	argC; N-acetyl-gamma-glutamyl-phosphate reductase [EC:1.2.1.38]	165		
scis1_1145	K01920	gshB; glutathione synthase [EC:6.3.2.3]	129		
scis1_1146	K00859	coaE; dephospho-CoA kinase [EC:2.7.1.24]	44		
scis1_1147			2	K20276	1
scis1_1148			2	K20276	1
scis1_1149			2	K01912	1
scis1_1150	K01934	MTHFS; 5-formyltetrahydrofolate cyclo-ligase [EC:6.3.3.2]	63		
scis1_1151	K00930	argB; acetylglutamate kinase [EC:2.7.2.8]	237		
scis1_1152	K02823	pyrDII; dihydroorotate dehydrogenase electron transfer subunit	135		
scis1_1153	K06997	yggS, PROSC; PLP dependent protein	75		
scis1_1154	K01424	E3.5.1.1, ansA, ansB; L-asparaginase [EC:3.5.1.1]	90		
scis1_1155					
scis1_1156	K00627	DLAT, aceF, pdhC; pyruvate dehydrogenase E2 component (dihydrolipoamide acetyltransferase) [EC:2.3.1.12]	228		
scis1_1157	K00382	DLD, lpd, pdhD; dihydrolipoamide dehydrogenase [EC:1.8.1.4]	268		
scis1_1158	K00573	E2.1.1.77, pcm; protein-L-isoaspartate(D-aspartate) O-methyltransferase [EC:2.1.1.77]	91		
scis1_1159	K07003	K07003; uncharacterized protein	258		
scis1_1160			26	K07020	1
scis1_1161					
scis1_1162			113		
scis1_1163			5	K03804	1
scis1_1164	K01873	VARS, valS; valyl-tRNA synthetase [EC:6.1.1.9]	531		
scis1_1165	K07184	ygiM; SH3 domain protein	39		
scis1_1166	K00088	IMPDH, guaB; IMP dehydrogenase [EC:1.1.1.205]	316		
scis1_1167	K03752	mobA; molybdenum cofactor guanylyltransferase [EC:2.7.7.77]	58	K13818	2
scis1_1168	K03568	tldD; TldD protein	262		
scis1_1169			8		
scis1_1170			36		
scis1_1171	K02337	dnaE; DNA polymerase III subunit alpha [EC:2.7.7.7]	405		
scis1_1172	K02950	RP-S12, MRPS12, rpsL; small subunit ribosomal protein S12	114		
scis1_1173	K02992	RP-S7, MRPS7, rpsG; small subunit ribosomal protein S7	161		
scis1_1174	K02355	fusA, GFM, EFG; elongation factor G	551		
scis1_1175	K02358	tuf, TUFM; elongation factor Tu	305		
scis1_1176	K02946	RP-S10, MRPS10, rpsJ; small subunit ribosomal protein S10	108		
scis1_1177	K02906	RP-L3, MRPL3, rplC; large subunit ribosomal protein L3	156		
scis1_1178	K02926	RP-L4, MRPL4, rplD; large subunit ribosomal protein L4	151		
scis1_1179	K02892	RP-L23, MRPL23, rplW; large subunit ribosomal protein L23	47		
scis1_1180	K02886	RP-L2, MRPL2, rplB; large subunit ribosomal protein L2	199		
scis1_1181	K02965	RP-S19, rpsS; small subunit ribosomal protein S19	68		
scis1_1182	K02890	RP-L22, MRPL22, rplV; large subunit ribosomal protein L22	93		
scis1_1183	K02982	RP-S3, rpsC; small subunit ribosomal protein S3	155		
scis1_1184	K02878	RP-L16, MRPL16, rplP; large subunit ribosomal protein L16	110		
scis1_1185	K02904	RP-L29, rpmC; large subunit ribosomal protein L29	33		
scis1_1186	K02961	RP-S17, MRPS17, rpsQ; small subunit ribosomal protein S17	65		
scis1_1187	K02874	RP-L14, MRPL14, rplN; large subunit ribosomal protein L14	129		
scis1_1188	K02895	RP-L24, MRPL24, rplX; large subunit ribosomal protein L24	59		
scis1_1189	K02931	RP-L5, MRPL5, rplE; large subunit ribosomal protein L5	123		
scis1_1190	K02954	RP-S14, MRPS14, rpsN; small subunit ribosomal protein S14	85		
scis1_1191	K02994	RP-S8, rpsH; small subunit ribosomal protein S8	102		
scis1_1192	K02933	RP-L6, MRPL6, rplF; large subunit ribosomal protein L6	136		
scis1_1193	K02881	RP-L18, MRPL18, rplR; large subunit ribosomal protein L18	64		
scis1_1194	K02988	RP-S5, MRPS5, rpsE; small subunit ribosomal protein S5	63		
scis1_1195					
scis1_1196	K02907	RP-L30, MRPL30, rpmD; large subunit ribosomal protein L30	36		
scis1_1197	K02876	RP-L15, MRPL15, rplO; large subunit ribosomal protein L15	26		
scis1_1198	K03076	secY; preprotein translocase subunit SecY	296		
scis1_1199	K02919	RP-L36, MRPL36, rpmJ; large subunit ribosomal protein L36	42		
scis1_1200	K02952	RP-S13, rpsM; small subunit ribosomal protein S13	84		
scis1_1201	K02948	RP-S11, MRPS11, rpsK; small subunit ribosomal protein S11	137		
scis1_1202	K02986	RP-S4, rpsD; small subunit ribosomal protein S4	151		
scis1_1203	K03040	rpoA; DNA-directed RNA polymerase subunit alpha [EC:2.7.7.6]	199		
scis1_1204	K02879	RP-L17, MRPL17, rplQ; large subunit ribosomal protein L17	80		
scis1_1205	K02970	RP-S21, MRPS21, rpsU; small subunit ribosomal protein S21	43		
scis1_1206			2	K02316	1
scis1_1207			10	K00826	1
scis1_1208	K02553	rraA, menG; regulator of ribonuclease activity A	62		
scis1_1209			5	K02072	1
scis1_1210			3	K02410	1
scis1_1211			14	K03090	1
scis1_1212	K02553	rraA, menG; regulator of ribonuclease activity A	120		
scis1_1213	K09117	K09117; uncharacterized protein	64		
scis1_1214	K15724	erpA; iron-sulfur cluster insertion protein	71		
scis1_1215	K16898	addA; ATP-dependent helicase/nuclease subunit A [EC:3.1.-.- 3.6.4.12]	83		
scis1_1216	K08305	mltB; membrane-bound lytic murein transglycosylase B [EC:4.2.2.-]	147		
scis1_1217	K07447	ruvX; putative holliday junction resolvase [EC:3.1.-.-]	60		
scis1_1218	K00609	pyrB, PYR2; aspartate carbamoyltransferase catalytic subunit [EC:2.1.3.2]	153		
scis1_1219	K01928	murE; UDP-N-acetylmuramoyl-L-alanyl-D-glutamate--2,6-diaminopimelate ligase [EC:6.3.2.13]	130		
scis1_1220	K02238	comEC; competence protein ComEC	170		
scis1_1221	K17828	pyrDI; dihydroorotate dehydrogenase (NAD+) catalytic subunit [EC:1.3.1.14]	219		
scis1_1222	K01869	LARS, leuS; leucyl-tRNA synthetase [EC:6.1.1.4]	498		
scis1_1223	K09816	znuB; zinc transport system permease protein	138		
scis1_1224	K09817	znuC; zinc transport system ATP-binding protein [EC:7.2.2.20]	118		
scis1_1225	K09823	zur; Fur family transcriptional regulator, zinc uptake regulator	56		
scis1_1226	K09815	znuA; zinc transport system substrate-binding protein	131		
scis1_1227	K07738	nrdR; transcriptional repressor NrdR	82		
scis1_1228	K00600	glyA, SHMT; glycine hydroxymethyltransferase [EC:2.1.2.1]	321		
scis1_1229	K01414	prlC; oligopeptidase A [EC:3.4.24.70]	228		
scis1_1230			10	K01902	1
scis1_1231					
scis1_1232			26		
scis1_1233	K15738	uup; ABC transport system ATP-binding/permease protein	260		
scis1_1234	K04043	dnaK, HSPA9; molecular chaperone DnaK	486		
scis1_1235	K21929	udg; uracil-DNA glycosylase [EC:3.2.2.27]	10		
scis1_1236	K03575	mutY; A/G-specific adenine glycosylase [EC:3.2.2.31]	68		
scis1_1237	K01736	aroC; chorismate synthase [EC:4.2.3.5]	284		
scis1_1238	K15977	K15977; putative oxidoreductase	53		
scis1_1239			20		
scis1_1240	K09930	K09930; uncharacterized protein	168		
scis1_1241			34		
scis1_1242			44	K03088	8
scis1_1243			6	K02392	2
scis1_1244	K01886	QARS, glnS; glutaminyl-tRNA synthetase [EC:6.1.1.18]	471		
scis1_1245	K16052	ynaI, mscMJ; MscS family membrane protein	152		
scis1_1246	K06194	nlpD; lipoprotein NlpD	11		
scis1_1247	K09019	rutE; 3-hydroxypropanoate dehydrogenase [EC:1.1.1.-]	21		
scis1_1248	K08591	plsY; acyl phosphate:glycerol-3-phosphate acyltransferase [EC:2.3.1.275]	93		
scis1_1249	K01633	folB; 7,8-dihydroneopterin aldolase/epimerase/oxygenase [EC:4.1.2.25 5.1.99.8 1.13.11.81]	87		
scis1_1250	K00950	folK; 2-amino-4-hydroxy-6-hydroxymethyldihydropteridine diphosphokinase [EC:2.7.6.3]	38		
scis1_1251	K03673	dsbA; protein dithiol oxidoreductase (disulfide-forming) [EC:1.8.4.15]	64		
scis1_1252			83		
scis1_1253	K12339	cysM; S-sulfo-L-cysteine synthase (O-acetyl-L-serine-dependent) [EC:2.5.1.144]	204		
scis1_1254	K03624	greA; transcription elongation factor GreA	103		
scis1_1255	K01955	carB, CPA2; carbamoyl-phosphate synthase large subunit [EC:6.3.5.5]	761		
scis1_1256	K04754	mlaA, vacJ; phospholipid-binding lipoprotein MlaA	94		
scis1_1257	K01956	carA, CPA1; carbamoyl-phosphate synthase small subunit [EC:6.3.5.5]	224		
scis1_1258	K03154	thiS; sulfur carrier protein	10	K03149	2
scis1_1259	K03786	aroQ, qutE; 3-dehydroquinate dehydratase II [EC:4.2.1.10]	89		
scis1_1260	K02160	accB, bccP; acetyl-CoA carboxylase biotin carboxyl carrier protein	68		
scis1_1261	K01961	accC; acetyl-CoA carboxylase, biotin carboxylase subunit [EC:6.4.1.2 6.3.4.14]	309		
scis1_1262			19	K02038	1
scis1_1263	K02335	polA; DNA polymerase I [EC:2.7.7.7]	441		
scis1_1264	K02500	hisF; imidazole glycerol-phosphate synthase subunit HisF [EC:4.3.2.10]	177		
scis1_1265	K03153	thiO; glycine oxidase [EC:1.4.3.19]	108		
scis1_1266	K03101	lspA; signal peptidase II [EC:3.4.23.36]	35		
scis1_1267	K00297	metF, MTHFR; methylenetetrahydrofolate reductase (NADPH) [EC:1.5.1.20]	176		
scis1_1268	K01141	sbcB, exoI; exodeoxyribonuclease I [EC:3.1.11.1]	189		
scis1_1269	K10773	NTH; endonuclease III [EC:4.2.99.18]	151		
scis1_1270	K00018	hprA; glycerate dehydrogenase [EC:1.1.1.29]	148		
scis1_1271	K08319	ltnD; L-threonate 2-dehydrogenase [EC:1.1.1.411]	120		
scis1_1272	K00615	E2.2.1.1, tktA, tktB; transketolase [EC:2.2.1.1]	287		
scis1_1273	K00615	E2.2.1.1, tktA, tktB; transketolase [EC:2.2.1.1]	186		
scis1_1274			52	K11690	32
scis1_1275					
scis1_1276	K21395	yiaO; TRAP-type transport system periplasmic protein	137		
scis1_1277	K03566	gcvA; LysR family transcriptional regulator, glycine cleavage system transcriptional activator	65		
scis1_1278	K00800	aroA; 3-phosphoshikimate 1-carboxyvinyltransferase [EC:2.5.1.19]	181	K24018	56
scis1_1279	K02835	prfA, MTRF1, MRF1; peptide chain release factor 1	160		
scis1_1280	K02835	prfA, MTRF1, MRF1; peptide chain release factor 1	11		
scis1_1281	K02492	hemA; glutamyl-tRNA reductase [EC:1.2.1.70]	170		
scis1_1282	K02897	RP-L25, rplY; large subunit ribosomal protein L25	77		
scis1_1283	K01056	PTH1, pth, spoVC; peptidyl-tRNA hydrolase, PTH1 family [EC:3.1.1.29]	102		
scis1_1284	K06942	ychF; ribosome-binding ATPase	248		
scis1_1285	K01079	serB, PSPH; phosphoserine phosphatase [EC:3.1.3.3]	117		
scis1_1286			122		
scis1_1287	K00820	glmS, GFPT; glutamine---fructose-6-phosphate transaminase (isomerizing) [EC:2.6.1.16]	367		
scis1_1288	K01810	GPI, pgi; glucose-6-phosphate isomerase [EC:5.3.1.9]	214		
scis1_1289	K00963	UGP2, galU, galF; UTP--glucose-1-phosphate uridylyltransferase [EC:2.7.7.9]	156		
scis1_1290	K03269	lpxH; UDP-2,3-diacylglucosamine hydrolase [EC:3.6.1.54]	67		
scis1_1291			75		
scis1_1292			41	K03799	21
scis1_1293	K03744	lemA; LemA protein	104		
scis1_1294	K00116	mqo; malate dehydrogenase (quinone) [EC:1.1.5.4]	240		
scis1_1295	K00891	aroK, aroL; shikimate kinase [EC:2.7.1.71]	72		
scis1_1296			12		
scis1_1297	K00826	E2.6.1.42, ilvE; branched-chain amino acid aminotransferase [EC:2.6.1.42]	329		
scis1_1298	K07126	K07126; uncharacterized protein	55		
scis1_1299					
scis1_1300	K07126	K07126; uncharacterized protein	29	K21440	1
scis1_1301	K07126	K07126; uncharacterized protein	14	K18180	1
scis1_1302	K00928	lysC; aspartate kinase [EC:2.7.2.4]	256		
scis1_1303	K03789	rimI; [ribosomal protein S18]-alanine N-acetyltransferase [EC:2.3.1.266]	22		
scis1_1304	K01754	E4.3.1.19, ilvA, tdcB; threonine dehydratase [EC:4.3.1.19]	331		
scis1_1305	K06204	dksA; DnaK suppressor protein	67		
scis1_1306	K00945	cmk; CMP/dCMP kinase [EC:2.7.4.25]	41	K00800	1
scis1_1307	K02945	RP-S1, rpsA; small subunit ribosomal protein S1	321		
scis1_1308	K05788	ihfB, himD; integration host factor subunit beta	35		
scis1_1309					
scis1_1310					
scis1_1311	K07046	K07046; L-fuconolactonase [EC:3.1.1.-]	101		
scis1_1312			57		
scis1_1313	K16850	uxaA2; altronate dehydratase large subunit [EC:4.2.1.7]	249	K01685	62
scis1_1314					
scis1_1315			104	K18336	72
scis1_1316	K18335	K18335; 2-keto-3-deoxy-L-fuconate dehydrogenase [EC:1.1.1.-]	150		
scis1_1317	K03534	rhaM; L-rhamnose mutarotase [EC:5.1.3.32]	49		
scis1_1318			237		
scis1_1319	K10112	msmX, msmK, malK, sugC, ggtA, msiK; multiple sugar transport system ATP-binding protein	192		
scis1_1320	K02026	ABC.MS.P1; multiple sugar transport system permease protein	201		
scis1_1321	K02025	ABC.MS.P; multiple sugar transport system permease protein	222		
scis1_1322	K02027	ABC.MS.S; multiple sugar transport system substrate-binding protein	201		
scis1_1323	K00064	E1.1.1.122; D-threo-aldose 1-dehydrogenase [EC:1.1.1.122]	211		
scis1_1324					
scis1_1325			16	K02040	1
scis1_1326			38		
scis1_1327	K00799	GST, gst; glutathione S-transferase [EC:2.5.1.18]	125		
scis1_1328	K03768	PPIB, ppiB; peptidyl-prolyl cis-trans isomerase B (cyclophilin B) [EC:5.2.1.8]	103	K03767	24
scis1_1329	K02888	RP-L21, MRPL21, rplU; large subunit ribosomal protein L21	39		
scis1_1330					
scis1_1331	K02899	RP-L27, MRPL27, rpmA; large subunit ribosomal protein L27	76		
scis1_1332	K00645	fabD, MCAT, MCT1; [acyl-carrier-protein] S-malonyltransferase [EC:2.3.1.39]	141		
scis1_1333	K00059	fabG, OAR1; 3-oxoacyl-[acyl-carrier protein] reductase [EC:1.1.1.100]	156		
scis1_1334	K03734	apbE; FAD:protein FMN transferase [EC:2.7.1.180]	103		
scis1_1335	K07478	ycaJ; putative ATPase	174		
scis1_1336	K06199	crcB, FEX; fluoride exporter	40		
scis1_1337	K00674	dapD; 2,3,4,5-tetrahydropyridine-2,6-dicarboxylate N-succinyltransferase [EC:2.3.1.117]	200		
scis1_1338			105		
scis1_1339			53		
scis1_1340	K02621	parC; topoisomerase IV subunit A [EC:5.6.2.2]	401		
scis1_1341	K02843	waaF, rfaF; heptosyltransferase II [EC:2.4.-.-]	153		
scis1_1342	K01338	lon; ATP-dependent Lon protease [EC:3.4.21.53]	421		
scis1_1343	K03665	hflX; GTPase	217		
scis1_1344	K03273	gmhB; D-glycero-D-manno-heptose 1,7-bisphosphate phosphatase [EC:3.1.3.82 3.1.3.83]	77		
scis1_1345			133		
scis1_1346	K00275	pdxH, PNPO; pyridoxamine 5'-phosphate oxidase [EC:1.4.3.5]	92		
scis1_1347			152		
scis1_1348			71		
scis1_1349	K04079	HSP90A, htpG; molecular chaperone HtpG	384		
scis1_1350					
scis1_1351	K15396	trmJ; tRNA (cytidine32/uridine32-2'-O)-methyltransferase [EC:2.1.1.200]	88		
scis1_1352	K01092	E3.1.3.25, IMPA, suhB; myo-inositol-1(or 4)-monophosphatase [EC:3.1.3.25]	209		
scis1_1353			58		
scis1_1354	K00548	metH, MTR; 5-methyltetrahydrofolate--homocysteine methyltransferase [EC:2.1.1.13]	763		
scis1_1355			56	K07445	1
scis1_1356			3	K02355	1
scis1_1357			57		
scis1_1358					
scis1_1359			8	K11249	1
scis1_1360	K03089	rpoH; RNA polymerase sigma-32 factor	131		
scis1_1361	K00942	E2.7.4.8, gmk; guanylate kinase [EC:2.7.4.8]	82		
scis1_1362			70		
scis1_1363	K00097	pdxA; 4-hydroxythreonine-4-phosphate dehydrogenase [EC:1.1.1.262]	172		
scis1_1364	K06996	K06996; uncharacterized protein	83		
scis1_1365	K00012	UGDH, ugd; UDPglucose 6-dehydrogenase [EC:1.1.1.22]	274		
scis1_1366			43	K22489	1
scis1_1367	K08679	GAE, cap1J; UDP-glucuronate 4-epimerase [EC:5.1.3.6]	245		
scis1_1368	K00971	manC, cpsB; mannose-1-phosphate guanylyltransferase [EC:2.7.7.13]	241		
scis1_1369	K24846	pglK; ATP-binding cassette, subfamily B, bacterial PglK [EC:7.5.2.-]	214		
scis1_1370			27		
scis1_1371			27		
scis1_1372			33	K19425	4
scis1_1373			7	K02849	4
scis1_1374			115		
scis1_1375	K01711	gmd, GMDS; GDPmannose 4,6-dehydratase [EC:4.2.1.47]	257		
scis1_1376	K02377	TSTA3, fcl; GDP-L-fucose synthase [EC:1.1.1.271]	239		
scis1_1377	K01625	eda; 2-dehydro-3-deoxyphosphogluconate aldolase / (4S)-4-hydroxy-2-oxoglutarate aldolase [EC:4.1.2.14 4.1.3.42]	81		
scis1_1378	K00874	kdgK; 2-dehydro-3-deoxygluconokinase [EC:2.7.1.45]	96		
scis1_1379			107		
scis1_1380			75		
scis1_1381	K01687	ilvD; dihydroxy-acid dehydratase [EC:4.2.1.9]	379		
scis1_1382			151		
scis1_1383	K01784	galE, GALE; UDP-glucose 4-epimerase [EC:5.1.3.2]	183		
scis1_1384	K07183	nasT; two-component system, response regulator / RNA-binding antiterminator	108		
scis1_1385	K03469	rnhA, RNASEH1; ribonuclease HI [EC:3.1.26.4]	78		
scis1_1386			106		
scis1_1387	K18208	RNLS; renalase [EC:1.6.3.5]	37		
scis1_1388	K03782	katG; catalase-peroxidase [EC:1.11.1.21]	153		
scis1_1389	K03782	katG; catalase-peroxidase [EC:1.11.1.21]	169		
scis1_1390			45	K23258	3
scis1_1391			180		
scis1_1392	K01908	ACSS3, prpE; propionyl-CoA synthetase [EC:6.2.1.17]	396		
scis1_1393	K01720	prpD; 2-methylcitrate dehydratase [EC:4.2.1.79]	344		
scis1_1394	K01659	prpC; 2-methylcitrate synthase [EC:2.3.3.5]	346		
scis1_1395	K03417	prpB; methylisocitrate lyase [EC:4.1.3.30]	192		
scis1_1396			81		
scis1_1397			99	K00344	41
scis1_1398	K01434	pac; penicillin G amidase [EC:3.5.1.11]	211		
scis1_1399	K03321	TC.SULP; sulfate permease, SulP family	309		
scis1_1400			8	K07113	1
scis1_1401	K00164	OGDH, sucA; 2-oxoglutarate dehydrogenase E1 component [EC:1.2.4.2]	466		
scis1_1402	K00658	DLST, sucB; 2-oxoglutarate dehydrogenase E2 component (dihydrolipoamide succinyltransferase) [EC:2.3.1.61]	205		
scis1_1403	K00382	DLD, lpd, pdhD; dihydrolipoamide dehydrogenase [EC:1.8.1.4]	260		
scis1_1404	K01903	sucC; succinyl-CoA synthetase beta subunit [EC:6.2.1.5]	219		
scis1_1405	K01902	sucD; succinyl-CoA synthetase alpha subunit [EC:6.2.1.5]	216		
scis1_1406	K01175	ybfF; esterase [EC:3.1.-.-]	51		
scis1_1407	K15268	eamA; O-acetylserine/cysteine efflux transporter	111		
scis1_1408					
scis1_1409			14		
scis1_1410			219		
scis1_1411	K05020	opuD, betL; glycine betaine transporter	444		
scis1_1412	K01273	DPEP; membrane dipeptidase [EC:3.4.13.19]	292		
scis1_1413	K22187	xylA; alpha-ketoglutaric semialdehyde dehydrogenase [EC:1.2.1.-]	296		
scis1_1414	K09022	ridA, tdcF, RIDA; 2-iminobutanoate/2-iminopropanoate deaminase [EC:3.5.99.10]	61		
scis1_1415			38	K17737	14
scis1_1416					
scis1_1417			10	K06143	1
scis1_1418			129		
scis1_1419			10	K01892	1
scis1_1420			1	K00784	1
scis1_1421			19		
scis1_1422			8	K07451	1
scis1_1423					
scis1_1424			104		
scis1_1425			9	K07640	1
scis1_1426	K00558	DNMT1, dcm; DNA (cytosine-5)-methyltransferase 1 [EC:2.1.1.37]	140		
scis1_1427			4	K07729	2
scis1_1428			113		
scis1_1429			170		
scis1_1430			14	K01621	1
scis1_1431			67		
scis1_1432			24	K10907	1
scis1_1433					
scis1_1434					
scis1_1435			2	K12132	1
scis1_1436			1		
scis1_1437			15	K00756	1
scis1_1438					
