{
   "formatVersion" : 1,
   "names" : {
      "type" : "Hash",
      "url" : "names/"
   },
   "tracks" : [
      {
         "category" : "Reference sequence",
         "chunkSize" : 20000,
         "key" : "Reference sequence",
         "label" : "DNA",
         "seqType" : "dna",
         "storeClass" : "JBrowse/Store/Sequence/StaticChunked",
         "type" : "SequenceTrack",
         "urlTemplate" : "seq/{refseq_dirpath}/{refseq}-"
      },
      {
         "category" : "Transcripts",
         "compress" : 0,
         "histograms" : {
            "color" : "#005824"
         },
         "key" : "Stringtie",
         "label" : "Stringtie",
         "storeClass" : "JBrowse/Store/SeqFeature/NCList",
         "style" : {
            "className" : "feature",
            "color" : "function(feature) { return feature.get('strand')==1 ?'#005824':'#66c2a4'; }"
         },
         "subParts" : "exon",
         "trackType" : "CanvasFeatures",
         "type" : "CanvasFeatures",
         "urlTemplate" : "tracks/Stringtie/{refseq}/trackData.json"
      },
      {
         "category" : "Gene models",
         "compress" : 0,
         "key" : "AUGUSTUS",
         "label" : "AUGUSTUS",
         "storeClass" : "JBrowse/Store/SeqFeature/NCList",
         "style" : {
            "className" : "feature",
            "color" : "function(feature) { return feature.get('strand')==1 ?'#cc4c02':'#fec44f'; }"
         },
         "trackType" : "CanvasFeatures",
         "type" : "CanvasFeatures",
         "urlTemplate" : "tracks/AUGUSTUS/{refseq}/trackData.json"
      },
      {
         "compress" : 0,
         "histograms" : {
            "color" : "#fec44f"
         },
         "key" : "blastp_v_human",
         "label" : "blastp_v_human",
         "onClick" : {
            "action" : "newWindow",
            "label" : "function() { return this.feature.get('score') + ' : ' + this.feature.get('target'); }",
            "title" : "{name} {type}",
            "url" : "https://www.uniprot.org/uniprot/{accession}"
         },
         "storeClass" : "JBrowse/Store/SeqFeature/NCList",
         "style" : {
            "className" : "feature",
            "color" : "function(feature) { return feature.get('same_sense')==1 ?'#fec44f':'#e7298a'; }"
         },
         "trackType" : "CanvasFeatures",
         "type" : "CanvasFeatures",
         "urlTemplate" : "tracks/blastp_v_human/{refseq}/trackData.json"
      },
      {
         "category" : "Transcripts",
         "compress" : 0,
         "histograms" : {
            "color" : "#a50f15"
         },
         "key" : "trinity-GMAP",
         "label" : "trinity-GMAP",
         "storeClass" : "JBrowse/Store/SeqFeature/NCList",
         "style" : {
            "className" : "feature",
            "color" : "function(feature) { return feature.get('strand')==1 ?'#a50f15':'#fb6a4a'; }"
         },
         "subParts" : "exon",
         "trackType" : "CanvasFeatures",
         "type" : "CanvasFeatures",
         "urlTemplate" : "tracks/trinity-GMAP/{refseq}/trackData.json"
      },
      {
         "compress" : 0,
         "key" : "MCscanX-blocks",
         "label" : "MCscanX-blocks",
         "storeClass" : "JBrowse/Store/SeqFeature/NCList",
         "style" : {
            "className" : "feature",
            "color" : "function(feature) { return feature.get('strand')==1 ?'#4a1486':'#1d91c0'; }"
         },
         "trackType" : "CanvasFeatures",
         "type" : "CanvasFeatures",
         "urlTemplate" : "tracks/MCscanX-blocks/{refseq}/trackData.json"
      },
      {
         "compress" : 0,
         "key" : "Triad_microsynteny",
         "label" : "Triad_microsynteny",
         "storeClass" : "JBrowse/Store/SeqFeature/NCList",
         "style" : {
            "className" : "feature",
            "color" : "function(feature) { return feature.get('strand')==1 ?'#4a1486':'#1d91c0'; }"
         },
         "trackType" : "CanvasFeatures",
         "type" : "CanvasFeatures",
         "urlTemplate" : "tracks/Triad_microsynteny/{refseq}/trackData.json"
      },
      {
         "category" : "NGS",
         "key" : "DNA-Coverage",
         "label" : "DNA-Coverage",
         "max_score" : 500,
         "min_score" : 0,
         "storeClass" : "JBrowse/Store/SeqFeature/BigWig",
         "style" : {
            "clip_marker_color" : "red",
            "height" : 100,
            "neg_color" : "#d6604d",
            "pos_color" : "#4393c3"
         },
         "type" : "JBrowse/View/Track/Wiggle/XYPlot",
         "urlTemplate" : "PlacoH13_final_contigs_bowtie2.bam.sorted.bigwig",
         "variance_band" : true
      },
      {
         "category" : "NGS",
         "key" : "RNAseq-Coverage",
         "label" : "RNAseq-Coverage",
         "max_score" : 10000,
         "min_score" : 0,
         "scale" : "log",
         "storeClass" : "JBrowse/Store/SeqFeature/BigWig",
         "style" : {
            "clip_marker_color" : "red",
            "height" : 100,
            "neg_color" : "#d6604d",
            "pos_color" : "#a6d96a"
         },
         "type" : "JBrowse/View/Track/Wiggle/XYPlot",
         "urlTemplate" : "PlacoH13_hardmasked_tophat2.bw",
         "variance_band" : false
      },
      {
         "compress" : 0,
         "key" : "microsynteny-v3",
         "label" : "microsynteny-v3",
         "storeClass" : "JBrowse/Store/SeqFeature/NCList",
         "style" : {
            "className" : "feature"
         },
         "trackType" : "CanvasFeatures",
         "type" : "CanvasFeatures",
         "urlTemplate" : "tracks/microsynteny-v3/{refseq}/trackData.json"
      }
   ]
}
