{
   "formatVersion" : 1,
   "tracks" : [
      {
         "category" : "Reference sequence",
         "faiUrlTemplate" : "seq/Nvec200.fasta.fai",
         "key" : "Reference sequence",
         "label" : "DNA",
         "seqType" : "dna",
         "storeClass" : "JBrowse/Store/Sequence/IndexedFasta",
         "type" : "SequenceTrack",
         "urlTemplate" : "seq/Nvec200.fasta",
         "useAsRefSeqStore" : 1
      },
      {
         "compress" : 0,
         "histograms" : {
            "color" : "#3c9c02"
         },
         "key" : "gene-models-v2",
         "label" : "gene-models-v2",
         "storeClass" : "JBrowse/Store/SeqFeature/NCList",
         "style" : {
            "className" : "feature",
            "color" : "function(feature) { return feature.get('strand')==1 ?'#3c9c02':'#c4fe4f'; }"
         },
         "trackType" : "CanvasFeatures",
         "type" : "CanvasFeatures",
         "urlTemplate" : "tracks/gene-models-v2/{refseq}/trackData.json"
      },
      {
         "compress" : 0,
         "histograms" : {
            "color" : "#005844"
         },
         "key" : "gene-models-Vienna",
         "label" : "gene-models-Vienna",
         "storeClass" : "JBrowse/Store/SeqFeature/NCList",
         "style" : {
            "className" : "feature",
            "color" : "function(feature) { return feature.get('strand')==1 ?'#005844':'#76c2b4'; }"
         },
         "subParts" : "exon",
         "trackType" : "CanvasFeatures",
         "type" : "CanvasFeatures",
         "urlTemplate" : "tracks/gene-models-Vienna/{refseq}/trackData.json"
      },
      {
         "compress" : 0,
         "histograms" : {
            "color" : "#005844"
         },
         "key" : "gene-models-v1",
         "label" : "gene-models-v1",
         "storeClass" : "JBrowse/Store/SeqFeature/NCList",
         "style" : {
            "className" : "feature",
            "color" : "function(feature) { return feature.get('strand')==1 ?'#005844':'#76c2b4'; }"
         },
         "subParts" : "exon",
         "trackType" : "CanvasFeatures",
         "type" : "CanvasFeatures",
         "urlTemplate" : "tracks/gene-models-v1/{refseq}/trackData.json"
      },
      {
         "label" : "v1-scaffolds",
         "storeClass" : "JBrowse/Store/SeqFeature/BAM",
         "type" : "JBrowse/View/Track/Alignments2",
         "urlTemplate" : "Nemve1_scaffolds_vs_Nvec200.bam"
      },
      {
         "compress" : 0,
         "key" : "Quattrini-UCE-blastn",
         "label" : "Quattrini-UCE-blastn",
         "storeClass" : "JBrowse/Store/SeqFeature/NCList",
         "style" : {
            "className" : "feature"
         },
         "trackType" : "CanvasFeatures",
         "type" : "CanvasFeatures",
         "urlTemplate" : "tracks/Quattrini-UCE-blastn/{refseq}/trackData.json"
      },
      {
         "compress" : 0,
         "key" : "Quattrini-UCE-50p",
         "label" : "Quattrini-UCE-50p",
         "storeClass" : "JBrowse/Store/SeqFeature/NCList",
         "style" : {
            "className" : "feature"
         },
         "trackType" : "CanvasFeatures",
         "type" : "CanvasFeatures",
         "urlTemplate" : "tracks/Quattrini-UCE-50p/{refseq}/trackData.json"
      }
   ]
}
